# Millennium Dawn Sound Effects
category = {
	name = "Millennium Dawn"
	soundeffects = {

		western_rifle_attack
		western_rifle_burst_attack
		eastern_rifle_attack
		eastern_rifle_burst_attack
		a10_fire
		modern_jet_idle
		modern_jet_bomb
		modern_jet_crash
		modern_jet_fire
		modern_jet_cas
		apc_unit_move_animation
		utility_move_animation

		# sounds of Czech vehicles

		pandur_attack
		pandur_attack_fade_away
		t72m4cz_fire
		t72m4cz_machinegun_fire
		smoke_launcher_fire
		pandur_attack_rocket_fire
		pandur_attack_rocket_explosion
		BMP2_attack
		DANA_attack
		PER_marching_sound
	}
}	
category = {
	name = "MD animations"
	soundeffects = {
	mi8_engine
	uh60_engine
	ah64_engine
	tu95_engine
	drone_propengine
	C130_engine
	P3_engine
	turbine_engine
	leopard2_engine
	M61_gun
	M242_gun
	GAU8_gun
	2A42_gun
	GSH23_gun
	GSH30_gun
	GSH30_rocket
	suppressed_gun
	M16A2_rifle
	AK74_rifle
	}	
compressor =
 {
	enabled = yes
	pregain = 3.0
	postgain = 0.0
	ratio = 10.0
	threshold = -15.0
	attacktime = 0.030
	releasetime = 1.2
 }
}