# Author(s): AngriestBird, Sheep, Fire Hair, Anakin, Borgers
DEN_colonial_separatism_category = {
	develop_infrastructure_greenland = {
		cost = 25
		days_remove = 30
		available = {
			has_manpower > 199
		}

		visible = {
			1 = { infrastructure < 5 }
			controls_state = 1
		}
		complete_effect = {
			log = "[GetDateText]: [This.GetName]: decision develop_infrastructure_greenland executed"
			1 = {
				add_building_construction = {
					type = infrastructure
					level = 1
					instant_build = yes
				}
			}
			add_manpower = -200
			set_temp_variable = { treasury_change = -4 }
			modify_treasury_effect = yes
		}

		ai_will_do = {
			base = 1
		}
	}

	develop_infrastructure_faeroerne = {
		cost = 25
		days_remove = 30
		available = {
			has_manpower > 199
		}

		visible = {
			2 = { infrastructure < 5 }
			controls_state = 2
		}
		complete_effect = {
			log = "[GetDateText]: [This.GetName]: decision develop_infrastructure_faeroerne executed"
			2 = {
				add_building_construction = {
					type = infrastructure
					level = 1
					instant_build = yes
				}
			}
			add_manpower = -200
			set_temp_variable = { treasury_change = -4 }
			modify_treasury_effect = yes
		}

		ai_will_do = {
			base = 1
		}
	}

	develop_oil_greenland = {
		cost = 50
		days_remove = 40
		available = {
			has_manpower > 399
		}

		visible = {
			1 = { infrastructure > 4 }
			1 = { oil < 30 }
			controls_state = 1
		}
		complete_effect = {
			log = "[GetDateText]: [This.GetName]: decision develop_oil_greenland executed"
			1 = {
				add_resource = {
					type = oil
					amount = 5
				}
			}
			add_manpower = -400
			set_temp_variable = { treasury_change = -6 }
			modify_treasury_effect = yes
		}

		ai_will_do = {
			base = 1
		}
	}

	develop_resources_faeroerne = {
		cost = 50
		days_remove = 40
		available = {
			has_manpower > 399
		}
		visible = {
			2 = { infrastructure > 4 }
			2 = { steel < 10 }
			controls_state = 2
		}

		complete_effect = {
			log = "[GetDateText]: [This.GetName]: decision develop_resources_faeroerne executed"
			2 = {
				add_resource = {
					type = steel
					amount = 2
				}
			}
			add_manpower = -400
			set_temp_variable = { treasury_change = -3 }
			modify_treasury_effect = yes
		}

		ai_will_do = {
			base = 1
		}
	}

	develop_resources_greenland = {
		cost = 50
		days_remove = 50
		available = {
			has_manpower > 399
		}

		visible = {
			1 = { infrastructure > 4 }
			1 = { aluminium < 10 }
			controls_state = 1
		}
		complete_effect = {
			log = "[GetDateText]: [This.GetName]: decision develop_resources_greenland executed"
			1 = {
				add_resource = {
					type = tungsten
					amount = 1
				}
				add_resource = {
					type = aluminium
					amount = 1
				}
			}
			add_manpower = -400
			set_temp_variable = { treasury_change = -6 }
			modify_treasury_effect = yes
		}

		ai_will_do = {
			base = 1
		}
	}

}

DEN_decision_danish_revolutionary_thought = {
	spread_communism_sweden = {
		cost = 50
		days_remove = 30
		available = {
			SWE = {
				emerging_communist_state_are_in_power = no
			}
		}
		visible = {
			SWE = {
				emerging_communist_state_are_in_power = no
			}
		}
		complete_effect = {
			SWE = {
				set_temp_variable = { party_index = 4 }
				set_temp_variable = { party_popularity_increase = 0.05 }
				set_temp_Variable = { temp_outlook_increase = 0.05 }
				add_relative_party_popularity = yes
			}
		}
	}
	spread_communism_norway = {
		cost = 50
		days_remove = 30
		available = {
			NOR = {
				emerging_communist_state_are_in_power = no
			}
		}
		visible = {
			NOR = {
				emerging_communist_state_are_in_power = no
			}
		}
		complete_effect = {
			NOR = {
				set_temp_variable = { party_index = 4 }
				set_temp_variable = { party_popularity_increase = 0.05 }
				set_temp_Variable = { temp_outlook_increase = 0.05 }
				add_relative_party_popularity = yes
			}
		}
	}
	spread_communism_finland = {
		cost = 75
		days_remove = 40
		available = {
			FIN = {
				emerging_communist_state_are_in_power = no
			}
		}
		visible = {
			FIN = {
				emerging_communist_state_are_in_power = no
			}
		}
		complete_effect = {
			FIN = {
				set_temp_variable = { party_index = 4 }
				set_temp_variable = { party_popularity_increase = 0.05 }
				set_temp_Variable = { temp_outlook_increase = 0.05 }
				add_relative_party_popularity = yes
			}
		}
	}
	spread_communism_iceland = {
		cost = 25
		days_remove = 20
		available = {
			ICE = {
				emerging_communist_state_are_in_power = no
			}
		}
		visible = {
			ICE = {
				emerging_communist_state_are_in_power = no
			}
		}
		complete_effect = {
			ICE = {
				set_temp_variable = { party_index = 4 }
				set_temp_variable = { party_popularity_increase = 0.05 }
				set_temp_Variable = { temp_outlook_increase = 0.05 }
				add_relative_party_popularity = yes
			}
		}
	}
}

DEN_urban_development_fund_category = {
	DEN_expand_resources_of_the_fund = {
		icon = GFX_decision_eng_trade_unions_support
		days_remove = 90
		days_re_enable = 30
		custom_cost_trigger = {
			check_variable = { treasury > 9.99 }
		}
		custom_cost_text = cost_10_0

		available = {
			NOT = { has_active_mission = bankruptcy_incoming_collapse }
		}

		remove_effect = {
			log = "[GetDateText]: [Root.GetName]: Decisions DEN_expand_resources_of_the_fund"
			set_temp_variable = { treasury_change = -10 }
			modify_treasury_effect = yes
			set_temp_variable = { temp_change = 10 }
			modify_urban_development_fund_effect = yes
		}

		ai_will_do = {
			factor = 0.01
			modifier = {
				factor = 10
				check_variable = { treasury > 10 }
			}
		}
	}

	DEN_population_initiatives_decision = {
		icon = GFX_decision_eng_trade_unions_support
		cost = 50
		days_remove = 90
		days_re_enable = 30


		available = {
			NOT = { has_active_mission = bankruptcy_incoming_collapse }
			custom_trigger_tooltip = {
				check_variable = { DEN.DEN_urban_development_fund_value > 4.99 }
				tooltip = DEN_urban_development_funds_greater_than_TT
			}
		}
		modifier = {
			monthly_population = 0.15
		}

		complete_effect = {
			log = "[GetDateText]: [This.GetName]: decision DEN_population_initiatives_decision executed"
			set_temp_variable = { temp_change = -5 }
			modify_urban_development_fund_effect = yes
		}

		ai_will_do = {
			factor = 1
			modifier = {
				check_variable = { interest_rate < 10 }
				factor = 2.5
			}
		}
	}

	DEN_local_construction_initiatives_decision = {
		icon = GFX_decision_eng_trade_unions_support
		cost = 50
		days_remove = 90
		days_re_enable = 30
		state_target = yes
		on_map_mode = map_and_decisions_view


		target_root_trigger = {
			NOT = { has_active_mission = bankruptcy_incoming_collapse }
			check_variable = { DEN.DEN_urban_development_fund_value > 4.99 }
		}

		available = {
			NOT = { has_active_mission = bankruptcy_incoming_collapse }
			FROM = {
				NOT = { has_dynamic_modifier = { modifier = DEN_local_construction_initiatives_modifier } }
			}
			custom_trigger_tooltip = {
				check_variable = { DEN.DEN_urban_development_fund_value > 4.99 }
				tooltip = DEN_urban_development_funds_greater_than_TT
			}
		}
		visible = {
			FROM = {
				NOT = { has_dynamic_modifier = { modifier = DEN_local_construction_initiatives_modifier } }
			}
			check_variable = { DEN.DEN_urban_development_fund_value > 4.99 }
		}

		target_array = DEN.core_states

		complete_effect = {
			log = "[GetDateText]: [This.GetName]: decision influence_for_autonomy_decision executed"
			set_temp_variable = { temp_change = -5 }
			modify_urban_development_fund_effect = yes
			FROM = {
				add_dynamic_modifier = {
					modifier = DEN_local_construction_initiatives_modifier
					days = 120
				}
			}
		}
	}

	DEN_local_renewable_investment_decision = {
		icon = GFX_decision_eng_trade_unions_support
		cost = 50
		days_remove = 90
		days_re_enable = 30
		state_target = yes
		on_map_mode = map_and_decisions_view

		target_root_trigger = {
			NOT = { has_active_mission = bankruptcy_incoming_collapse }
			check_variable = { DEN.DEN_urban_development_fund_value > 4.99 }
		}

		available = {
			NOT = { has_active_mission = bankruptcy_incoming_collapse }
			custom_trigger_tooltip = {
				check_variable = { DEN.DEN_urban_development_fund_value > 4.99 }
				tooltip = DEN_urban_development_funds_greater_than_TT
			}
			FROM = { NOT = { has_dynamic_modifier = { modifier = DEN_local_construction_renewable_initiatives_modifier } } }
		}
		visible = {
			FROM = {
				NOT = { has_state_flag = DEN_invested_in_renewables_flag }
				NOT = { has_dynamic_modifier = { modifier = DEN_local_construction_renewable_initiatives_modifier } }
			}
			check_variable = { DEN.DEN_urban_development_fund_value > 4.99 }
		}

		target_array = DEN.core_states

		complete_effect = {
			log = "[GetDateText]: [This.GetName]: decision influence_for_autonomy_decision executed"
			set_temp_variable = { temp_change = -5 }
			modify_urban_development_fund_effect = yes
			FROM = {
				set_state_flag = DEN_invested_in_renewables_flag
				add_dynamic_modifier = {
					modifier = DEN_local_construction_renewable_initiatives_modifier
					days = 120
				}
			}
		}
	}
}

DEN_Danish_Defence_Force = {
	DEN_Dental_Plan = {
		icon = GFX_decision_eng_trade_unions_support
		cost = 50
		days_remove = 30

		visible = {
			NOT = { has_country_flag = DEN_The_Defence_Dental_Plan }
		}
		complete_effect = {
			log = "[GetDateText]: [Root.GetName]: Decisions DEN_Dental_Plan"
			set_country_flag = DEN_The_Defence_Dental_Plan
			add_to_variable = { DEN_army_personnel_cost_multiplier_modifier = 0.02 }
			add_to_variable = { DEN_army_org_factor = 0.10 }
			custom_effect_tooltip = DEN_Dental_Plan_Add_tt
		}
	}
	DEN_Civilian_Education = {
		icon = GFX_decision_SOV_place_hq
		cost = 50
		days_remove = 30


		visible = {
			NOT = { has_country_flag = DEN_Civilian_Education }
		}
		complete_effect = {
			log = "[GetDateText]: [Root.GetName]: Decisions DEN_Civilian_Education"
			set_country_flag = DEN_Civilian_Education
			add_to_variable = { DEN_army_personnel_cost_multiplier_modifier = 0.05 }
			add_to_variable = { DEN_army_conscription_factor = 0.05 }
			custom_effect_tooltip = DEN_Civilian_Education_Add_tt
		}
	}
	DEN_Regimental_Doctors = {
		icon = GFX_decision_eng_trade_unions_support
		cost = 50
		days_remove = 30

		visible = {
			NOT = { has_country_flag = DEN_Regimental_Doctors }
		}
		complete_effect = {
			log = "[GetDateText]: [Root.GetName]: Decisions DEN_Regimental_Doctors"
			set_country_flag = DEN_Regimental_Doctors
			add_to_variable = { DEN_army_personnel_cost_multiplier_modifier = 0.02 }
			add_to_variable = { DEN_army_morale = 0.10 }
			custom_effect_tooltip = DEN_Regimental_Doctors_add_tt
		}
	}
	DEN_Theoretical_Officer_Education = {
		icon = GFX_decision_generic_operation
		cost = 50
		days_remove = 30

		visible = {
			NOT = { has_country_flag = DEN_Theoretical_Officer_Education }
		}
		complete_effect = {
			log = "[GetDateText]: [Root.GetName]: Decisions DEN_Theoretical_Officer_Education"
			set_country_flag = DEN_Theoretical_Officer_Education
			add_to_variable = { DEN_army_personnel_cost_multiplier_modifier = 0.05 }
			add_to_variable = { command_power_gain = 0.10 }
			add_to_variable = { DEN_army_max_planning = 0.10 }
			add_to_variable = { DEN_army_planning_speed = -0.10 }
			custom_effect_tooltip = DEN_Theoretical_Officer_Education_add_tt
		}
	}
	DEN_Reform_The_NCO_Education = {
		icon = GFX_decision_generic_break_treaty
		cost = 50
		days_remove = 30

		visible = {
			NOT = { has_country_flag = DEN_Reform_The_NCO_Education }
		}
		complete_effect = {
			set_country_flag = DEN_Reform_The_NCO_Education
			add_to_variable = { DEN_army_personnel_cost_multiplier_modifier = 0.02 }
			add_to_variable = { DEN_army_conscription_factor = -0.10 }
			add_to_variable = { DEN_army_supply_factor = -0.05 }
			custom_effect_tooltip = DEN_Reform_The_NCO_Education_add_tt
			log = "[GetDateText]: [Root.GetName]: Decisions DEN_Reform_The_NCO_Education "
		}
	}
	DEN_Increase_Soldiers_Pay = {
		icon = GFX_decision_generic_fundraising
		cost = 50
		days_remove = 30

		visible = {
			NOT = {
				has_country_flag = DEN_Increase_Soldiers_Pay
				has_country_flag = DEN_Increase_Soldiers_Pay2
				has_country_flag = DEN_Increase_Soldiers_Pay3
			}
		}
		complete_effect = {
			set_country_flag = DEN_Increase_Soldiers_Pay
			add_to_variable = { DEN_army_personnel_cost_multiplier_modifier = 0.02 }
			add_to_variable = { winter_attrition_factor = -0.15 }
			add_to_variable = { army_org_factor = -0.05 }
			add_to_variable = { army_speed_factor = 0.8 }
			custom_effect_tooltip = DEN_Increase_Soldiers_Pay_add_tt
			log = "[GetDateText]: [Root.GetName]: Decisions DEN_Increase_Soldiers_Pay "
		}
	}
	DEN_Increase_Soldiers_Pay2 = {
		icon = GFX_decision_generic_fundraising
		cost = 50
		days_remove = 30

		visible = {
			has_country_flag = DEN_Increase_Soldiers_Pay
			NOT = { has_country_flag = DEN_Increase_Soldiers_Pay2 }
		}
		complete_effect = {
			set_country_flag = DEN_Increase_Soldiers_Pay2
			clr_country_flag = DEN_Increase_Soldiers_Pay
			add_to_variable = { DEN_army_personnel_cost_multiplier_modifier = 0.02 }
			add_to_variable = { winter_attrition_factor = -0.15 }
			add_to_variable = { army_org_factor = -0.05 }
			add_to_variable = { army_speed_factor = 0.8 }
			custom_effect_tooltip = DEN_Increase_Soldiers_Pay_add_tt
			log = "[GetDateText]: [Root.GetName]: Decisions DEN_Increase_Soldiers_Pay2 "
		}
	}
	DEN_Increase_Soldiers_Pay3 = {
		icon = GFX_decision_generic_fundraising
		cost = 50
		days_remove = 30

		visible = {
			has_country_flag = DEN_Increase_Soldiers_Pay2
			NOT = { has_country_flag = DEN_Increase_Soldiers_Pay3 }
		}
		complete_effect = {
			set_country_flag = DEN_Increase_Soldiers_Pay3
			clr_country_flag = DEN_Increase_Soldiers_Pay2
			add_to_variable = { DEN_army_personnel_cost_multiplier_modifier = 0.02 }
			add_to_variable = { winter_attrition_factor = -0.15 }
			add_to_variable = { army_org_factor = -0.05 }
			add_to_variable = { army_speed_factor = 0.8 }
			custom_effect_tooltip = DEN_Increase_Soldiers_Pay_add_tt
			log = "[GetDateText]: [Root.GetName]: Decisions DEN_Increase_Soldiers_Pay3 "
		}
	}
	DEN_Professional_Soldier_Education = {
		icon = GFX_decision_eng_trade_unions_support
		cost = 50
		days_remove = 30

		visible = {
			NOT = { has_country_flag = DEN_Professional_Soldier_Education }
		}
		complete_effect = {
			set_country_flag = DEN_Professional_Soldier_Education
			add_to_variable = { DEN_army_personnel_cost_multiplier_modifier = 0.02 }
			add_to_variable = { DEN_training_time_factor = 0.15 }
			add_to_variable = { DEN_army_max_dig_in = 0.2 }
			add_to_variable = { DEN_army_dig_in_speed_factor = 0.1 }
			add_to_variable = { DEN_no_supply_grace = 50 }
			custom_effect_tooltip = DEN_Professional_Soldier_Education_add_tt
			log = "[GetDateText]: [Root.GetName]: Decisions DEN_Professional_Soldier_Education "
		}
	}
	#Removal
	DEN_Dental_Plan_Removal = {
		icon = GFX_decision_eng_trade_unions_support
		cost = 50
		days_remove = 30

		visible = {
			has_country_flag = DEN_The_Defence_Dental_Plan
		}
		complete_effect = {
			add_to_variable = { DEN_army_personnel_cost_multiplier_modifier = -0.02 }
			add_to_variable = { DEN_army_org_factor = -0.10 }
			custom_effect_tooltip = DEN_Dental_Plan_Removal_tt
			clr_country_flag = DEN_The_Defence_Dental_Plan
			log = "[GetDateText]: [Root.GetName]: Decisions DEN_Dental_Plan_Removal"
		}
	}
	DEN_Civilian_Education_Removal = {
		icon = GFX_decision_eng_trade_unions_support
		cost = 50
		days_remove = 30

		visible = {
			has_country_flag = DEN_Civilian_Education
		}
		complete_effect = {
			clr_country_flag = DEN_Civilian_Education
			add_to_variable = { DEN_army_personnel_cost_multiplier_modifier = -0.05 }
			add_to_variable = { DEN_army_conscription_factor = -0.05 }
			custom_effect_tooltip = DEN_Civilian_Education_Removal_tt
			log = "[GetDateText]: [Root.GetName]: Decisions DEN_Civilian_Education_Removal "
		}
	}
	DEN_Regimental_Doctors_Removal = {
		icon = GFX_decision_eng_trade_unions_support
		cost = 50
		days_remove = 30

		visible = {
			has_country_flag = DEN_Regimental_Doctors
		}
		complete_effect = {
			clr_country_flag = DEN_Regimental_Doctors
			clr_country_flag = DEN_Civilian_Education
			add_to_variable = { DEN_army_personnel_cost_multiplier_modifier = -0.02 }
			add_to_variable = { DEN_army_morale = -0.10 }
			custom_effect_tooltip = DEN_Regimental_Doctors_Removal_tt
			log = "[GetDateText]: [Root.GetName]: Decisions DEN_Regimental_Doctors_Removal "
		}
	}
	DEN_Theoretical_Officer_Education_Removal = {
		icon = GFX_decision_eng_trade_unions_support
		cost = 50
		days_remove = 30

		visible = {
			has_country_flag = DEN_Theoretical_Officer_Education
		}
		complete_effect = {
			clr_country_flag = DEN_Theoretical_Officer_Education
			add_to_variable = { DEN_army_personnel_cost_multiplier_modifier = -0.05 }
			add_to_variable = { command_power_gain = -0.10 }
			add_to_variable = { DEN_army_max_planning = -0.10 }
			add_to_variable = { DEN_army_planning_speed = 0.10 }
			custom_effect_tooltip = DEN_Theoretical_Officer_Education_Removal_tt
			log = "[GetDateText]: [Root.GetName]: Decisions DEN_Theoretical_Officer_Education_Removal"
		}
	}
	DEN_Reform_The_NCO_Education_Removal = {
		icon = GFX_decision_eng_trade_unions_support
		cost = 50
		days_remove = 30

		visible = {
			has_country_flag = DEN_Reform_The_NCO_Education
		}
		complete_effect = {
			clr_country_flag = DEN_Reform_The_NCO_Education
			add_to_variable = { DEN_army_personnel_cost_multiplier_modifier = 0.02 }
			add_to_variable = { DEN_army_conscription_factor = 0.10 }
			add_to_variable = { DEN_army_supply_factor = 0.05 }
			custom_effect_tooltip = DEN_Reform_The_NCO_Education_Removal_tt
			log = "[GetDateText]: [Root.GetName]: Decisions DEN_Reform_The_NCO_Education_Removal "
		}
	}
	DEN_Increase_Soldiers_Pay_Removal = {
		icon = GFX_decision_eng_trade_unions_support
		cost = 50
		days_remove = 30

		visible = {
			has_country_flag = DEN_Increase_Soldiers_Pay
		}
		complete_effect = {
			clr_country_flag = DEN_Increase_Soldiers_Pay
			add_to_variable = { DEN_army_personnel_cost_multiplier_modifier = -0.02 }
			add_to_variable = { winter_attrition_factor = 0.15 }
			add_to_variable = { army_org_factor = 0.05 }
			add_to_variable = { army_speed_factor = -0.8 }
			custom_effect_tooltip = DEN_Increase_Soldiers_Pay_Removal_tt
			log = "[GetDateText]: [Root.GetName]: Decisions DEN_Increase_Soldiers_Pay "
		}
	}
	DEN_Increase_Soldiers_Pay_Removal2 = {
		icon = GFX_decision_eng_trade_unions_support
		cost = 50
		days_remove = 30

		visible = {
			has_country_flag = DEN_Increase_Soldiers_Pay2
		}
		complete_effect = {
			clr_country_flag = DEN_Increase_Soldiers_Pay2
			set_country_flag = DEN_Increase_Soldiers_Pay
			add_to_variable = { DEN_army_personnel_cost_multiplier_modifier = -0.02 }
			add_to_variable = { winter_attrition_factor = 0.15 }
			add_to_variable = { army_org_factor = 0.05 }
			add_to_variable = { army_speed_factor = -0.8 }
			custom_effect_tooltip = DEN_Increase_Soldiers_Pay_Removal_tt
			log = "[GetDateText]: [Root.GetName]: Decisions DEN_Increase_Soldiers_Pay_Removal2 "
		}
	}
	DEN_Increase_Soldiers_Pay_Removal3 = {
		icon = GFX_decision_eng_trade_unions_support
		cost = 50
		days_remove = 30

		visible = {
			has_country_flag = DEN_Increase_Soldiers_Pay3
		}
		complete_effect = {
			clr_country_flag = DEN_Increase_Soldiers_Pay3
			set_country_flag = DEN_Increase_Soldiers_Pay2
			add_to_variable = { DEN_army_personnel_cost_multiplier_modifier = -0.02 }
			add_to_variable = { winter_attrition_factor = 0.15 }
			add_to_variable = { army_org_factor = 0.05 }
			add_to_variable = { army_speed_factor = -0.8 }
			custom_effect_tooltip = DEN_Increase_Soldiers_Pay_Removal_tt
			log = "[GetDateText]: [Root.GetName]: Decisions DEN_Increase_Soldiers_Pay_Removal3 "
		}
	}
	DEN_Professional_Soldier_Education_Removal = {
		icon = GFX_decision_eng_trade_unions_support
		cost = 50
		days_remove = 30

		visible = {
			has_country_flag = DEN_Professional_Soldier_Education
		}
		complete_effect = {
			clr_country_flag = DEN_Professional_Soldier_Education
			add_to_variable = { DEN_army_personnel_cost_multiplier_modifier = -0.02 }
			add_to_variable = { DEN_training_time_factor = -0.15 }
			add_to_variable = { DEN_army_max_dig_in = -0.2 }
			add_to_variable = { DEN_army_dig_in_speed_factor = -0.1 }
			add_to_variable = { DEN_no_supply_grace = -50 }
			custom_effect_tooltip = DEN_Professional_Soldier_Education_Removal_tt
			log = "[GetDateText]: [Root.GetName]: Decisions DEN_Professional_Soldier_Education_Removal "
		}
	}
}

DEN_generic_danish_political_decisions_category = {
	# Intensify the Flexicurity Model
	DEN_rollback_flexicurity_model_improvements_decision = {
		icon = generic
		visible = {
			has_idea = DEN_intensify_the_flexicurity_idea
		}
		available = {
			has_idea = DEN_intensify_the_flexicurity_idea
		}
		cost = 50
		days_remove = 90

		remove_effect = {
			log = "[GetDateText]: [This.GetName]: decision DEN_rollback_flexicurity_model_improvements_decision executed"
			remove_ideas = DEN_intensify_the_flexicurity_idea
		}

		ai_will_do = {
			factor = 1
			modifier = {
				factor = 2.5
				check_variable = { interest_rate > 9.99 }
			}
		}
	}
}

DEN_visitdenmark_category = {
	DEN_TV_campain = {
		icon = decision
		available = {
			tag = DEN
				NOT = {
					has_decision = DEN_controversal_campain
					has_decision = DEN_Print_campain
					has_decision = DEN_socialmedia_campain
				}
			}

		fire_only_once = no
		cost = 15
		days_remove = 180
		fixed_random_seed = yes

		complete_effect = {
			log = "[GetDateText]: [Root.GetName]: Decision DEN_TV_campain"
			set_temp_variable = { treasury_change = gdp_total }
			multiply_temp_variable = { treasury_change = -0.003 }
			modify_treasury_effect = yes
		}
		remove_effect = {
			log = "[GetDateText]: [This.GetName]: decision DEN_TV_campain executed"
			custom_effect_tooltip = DEN_TV_campain_tt
			hidden_effect = {
			random_list = {
				20 = {
					set_temp_variable = { treasury_change = gdp_total }
					multiply_temp_variable = { treasury_change = 0.005 }
					modify_treasury_effect = yes
				}
				20 = {
					set_temp_variable = { treasury_change = gdp_total }
					multiply_temp_variable = { treasury_change = 0.004 }
					modify_treasury_effect = yes
				}
				40 = {
					set_temp_variable = { treasury_change = gdp_total }
					multiply_temp_variable = { treasury_change = 0.003 }
					modify_treasury_effect = yes
				}
				20 = {
					set_temp_variable = { treasury_change = gdp_total }
					multiply_temp_variable = { treasury_change = 0.001 }
					modify_treasury_effect = yes
					}
				}
			}
		}
		ai_will_do = {
			factor = 1
		}
	}
	DEN_Print_campain = {
		icon = decision
		available = {
			tag = DEN
				NOT = {
					has_decision = DEN_TV_campain
					has_decision = DEN_controversal_campain
					has_decision = DEN_socialmedia_campain
				}
			}

		fire_only_once = no
		cost = 15
		days_remove = 180
		fixed_random_seed = yes

		complete_effect = {
			log = "[GetDateText]: [Root.GetName]: Decision DEN_Print_campain"
			set_temp_variable = { treasury_change = gdp_total }
			multiply_temp_variable = { treasury_change = -0.002 }
			modify_treasury_effect = yes
		}
		remove_effect = {
			log = "[GetDateText]: [This.GetName]: decision DEN_Print_campain executed"
			custom_effect_tooltip = DEN_Print_campain_tt
			hidden_effect = {
			random_list = {
				10 = {
					set_temp_variable = { treasury_change = gdp_total }
					multiply_temp_variable = { treasury_change = 0.004 }
					modify_treasury_effect = yes
				}
				35 = {
					set_temp_variable = { treasury_change = gdp_total }
					multiply_temp_variable = { treasury_change = 0.003 }
					modify_treasury_effect = yes
				}
				30 = {
					set_temp_variable = { treasury_change = gdp_total }
					multiply_temp_variable = { treasury_change = 0.002 }
					modify_treasury_effect = yes
				}
				25 = {
					set_temp_variable = { treasury_change = gdp_total }
					multiply_temp_variable = { treasury_change = 0.001 }
					modify_treasury_effect = yes
					}
				}
			}
		}
		ai_will_do = {
			factor = 1
		}
	}
	DEN_socialmedia_campain = {
		icon = decision
		available = {
			tag = DEN
				NOT = {
					has_decision = DEN_TV_campain
					has_decision = DEN_controversal_campain
					has_decision = DEN_Print_campain
				}
			}

		fire_only_once = no
		cost = 15
		days_remove = 180
		fixed_random_seed = yes

		complete_effect = {
			log = "[GetDateText]: [Root.GetName]: Decision DEN_socialmedia_campain"
			set_temp_variable = { treasury_change = gdp_total }
			multiply_temp_variable = { treasury_change = -0.001 }
			modify_treasury_effect = yes
		}
		remove_effect = {
			log = "[GetDateText]: [This.GetName]: decision DEN_socialmedia_campain executed"
			custom_effect_tooltip = DEN_socialmedia_campain_tt
			hidden_effect = {
			random_list = {
				25 = {
					set_temp_variable = { treasury_change = gdp_total }
					multiply_temp_variable = { treasury_change = 0.005 }
					modify_treasury_effect = yes
				}
				45 = {
					set_temp_variable = { treasury_change = gdp_total }
					multiply_temp_variable = { treasury_change = 0.003 }
					modify_treasury_effect = yes
				}
				15 = {
					set_temp_variable = { treasury_change = gdp_total }
					multiply_temp_variable = { treasury_change = 0.002 }
					modify_treasury_effect = yes
				}
				15 = {
					set_temp_variable = { treasury_change = gdp_total }
					multiply_temp_variable = { treasury_change = 0.001 }
					modify_treasury_effect = yes
					}
				}
			}
		}
		ai_will_do = {
			factor = 1
		}
	}
	DEN_controversal_campain = {
		icon = decision
		available = {
			tag = DEN
				NOT = {
					has_decision = DEN_TV_campain
					has_decision = DEN_Print_campain
					has_decision = DEN_socialmedia_campain
				}
			}

		fire_only_once = no
		cost = 15
		days_remove = 180
		fixed_random_seed = yes

		complete_effect = {
			log = "[GetDateText]: [Root.GetName]: Decision DEN_controversal_campain"
			set_temp_variable = { treasury_change = gdp_total }
			multiply_temp_variable = { treasury_change = -0.001 }
			modify_treasury_effect = yes
		}
		remove_effect = {
			log = "[GetDateText]: [This.GetName]: decision DEN_controversal_campain executed"
			custom_effect_tooltip = DEN_controversal_campain_tt
			hidden_effect = {
			random_list = {
				40 = {
					set_temp_variable = { treasury_change = gdp_total }
					multiply_temp_variable = { treasury_change = 0.005 }
					modify_treasury_effect = yes
				}
				15 = {
					set_temp_variable = { treasury_change = gdp_total }
					multiply_temp_variable = { treasury_change = 0.004 }
					modify_treasury_effect = yes
				}
				15 = {
					set_temp_variable = { treasury_change = gdp_total }
					multiply_temp_variable = { treasury_change = 0.002 }
					modify_treasury_effect = yes
				}
				30 = {
					set_temp_variable = { treasury_change = gdp_total }
					multiply_temp_variable = { treasury_change = 0.001 }
					modify_treasury_effect = yes
					}
				}
			}
		}
		ai_will_do = {
			factor = 1
		}
	}
}

DEN_euro_question_decisions_category = {
	DEN_euro_referendum_decision = {
		icon = decision_generic_eurozone
		cost = 50
		days_remove = 30
		visible = { has_idea = DEN_euro_question_idea }
		available = { has_idea = DEN_euro_question_idea }
		remove_effect = {
			log = "[GetDateText]: [This.GetName]: decision DEN_euro_referendum_decision executed"
			country_event = { id = denmark.46 days = 1 }
		}
	}
	DEN_Increase_Eurosceptism_decision = {
		icon = decision_generic_eurozone
		cost = 50
		days_remove = 30
		visible = { has_idea = DEN_euro_question_idea }
		available = { has_idea = DEN_euro_question_idea }
		remove_effect = {
			log = "[GetDateText]: [This.GetName]: decision DEN_Increase_Eurosceptism_decision executed"
			set_temp_variable = { modify_eurosceptic = 0.05 }
			set_temp_variable = { modify_eurosceptic_target = ROOT }
			eurosceptic_change = yes
		}
	}
	DEN_downcrease_Eurosceptism_decision = {
		icon = decision_generic_eurozone
		cost = 50
		days_remove = 30
		visible = { has_idea = DEN_euro_question_idea }
		available = { has_idea = DEN_euro_question_idea }
		remove_effect = {
			log = "[GetDateText]: [This.GetName]: decision DEN_downcrease_Eurosceptism_decision executed"
			set_temp_variable = { modify_eurosceptic = -0.05 }
			set_temp_variable = { modify_eurosceptic_target = ROOT }
			eurosceptic_change = yes
		}
	}
	DEN_Bad_Bank_decision = {
		icon = decision_generic_eurozone
		cost = 75
		days_remove = 365
		days_re_enable = 90
		visible = { has_idea = DEN_euro_question_idea }
		available = { has_idea = DEN_euro_question_idea }
		remove_effect = {
		log = "[GetDateText]: [This.GetName]: decision DEN_Bad_Bank_decision executed"
			set_temp_variable = { treasury_change = gdp_total }
			multiply_temp_variable = { treasury_change = -0.02 }
			modify_treasury_effect = yes
			set_temp_variable = { int_investment_change = treasury_change }
			multiply_temp_variable = { int_investment_change = -0.25 }
			modify_international_investment_effect = yes
			set_temp_variable = { debt_change = debt }
			multiply_temp_variable = { debt_change = -0.07 }
			modify_debt_effect = yes
		}
	}
	DEN_Bad_Bank_EZB_decision = {
		icon = decision_generic_eurozone
		cost = 75
		days_remove = 365
		days_re_enable = 90
		visible = { has_idea = DEN_euro_question_idea }
		available = { has_idea = DEN_euro_question_idea }
		remove_effect = {
		log = "[GetDateText]: [This.GetName]: decision DEN_Bad_Bank_EZB_decision executed"
			set_temp_variable = { treasury_change = gdp_total }
			multiply_temp_variable = { treasury_change = -0.03 }
			modify_treasury_effect = yes
			set_temp_variable = { int_investment_change = treasury_change }
			multiply_temp_variable = { int_investment_change = -0.28 }
			modify_international_investment_effect = yes
			set_temp_variable = { debt_change = debt }
			multiply_temp_variable = { debt_change = -0.08 }
			modify_debt_effect = yes
		}
	}
}

DEN_decision_Investments_Global = {
	DEN_Maersk_Invest = {
		icon = generic_prepare_civil_war

		target_root_trigger = {
			original_tag = DEN
			has_completed_focus = DEN_Logistic_Global_Investments
		}

		target_trigger = {
			NOT = { has_war_with = ROOT }
		}

		visible = {
			ROOT = {
				has_opinion = {
					target = From
					value > 5
				}
			}
			FROM = {
				NOT = { has_war_with = ROOT }
				NOT = { has_country_flag = DEN_Investments }
				check_variable = { num_of_naval_factories > 2 }
				check_variable = { gdp_per_capita > 5.500 }
				has_stability > 0.15
				check_variable = { gdp_total > 100.00 }
			}
		}

		cost = 50

		days_re_enable = 365

		ai_will_do = {
			factor = 25
		}

		complete_effect = {
			log = "[GetDateText]: [Root.GetName]: Decision DEN_Invest"
			FROM = {
				set_country_flag = DEN_Investments
				set_temp_variable = { percent_change = 2.1 }
				set_temp_variable = { tag_index = ROOT }
				set_temp_variable = { influence_target = FROM }
				change_influence_percentage = yes
				set_temp_variable = { treasury_change = FROM.gdp_per_capita }
				multiply_temp_variable = { treasury_change = 0.28 }
				modify_treasury_effect = yes
				if = {
					limit = {
						NOT = {
							any_owned_state = {
								dockyard > 0
								free_building_slots = {
									building = dockyard
									size > 2
									include_locked = yes
								}
							}
						}
						any_owned_state = {
							is_coastal = yes
						}
					}
					random_owned_controlled_state = {
						limit = {
							is_coastal = yes
							free_building_slots = {
								building = dockyard
								size > 2
								include_locked = yes
							}
						}
						add_extra_state_shared_building_slots = 1
						add_building_construction = {
							type = dockyard
							level = 1
							instant_build = yes
						}
					}
				}
				if = {
					limit = {
						NOT = { has_country_flag = naval_effort_built }
						any_owned_state = {
							dockyard > 0
							free_building_slots = {
								building = dockyard
								size > 1
								include_locked = yes
							}
						}
					}
					random_owned_controlled_state = {
						limit = {
							dockyard > 0
							free_building_slots = {
								building = dockyard
								size > 1
								include_locked = yes
							}
						}
						add_extra_state_shared_building_slots = 1
						add_building_construction = {
							type = dockyard
							level = 1
							instant_build = yes
						}
					}
				}
				if = {
					limit = {
						NOT = { has_country_flag = naval_effort_built }
						NOT = {
							any_owned_state = {
								free_building_slots = {
									building = dockyard
									size > 1
									include_locked = yes
								}
							}
						}
					}
					random_state = {
						limit = {
							controller = { tag = FROM }
							free_building_slots = {
								building = dockyard
								size > 1
								include_locked = yes
							}
						}
						add_extra_state_shared_building_slots = 1
						add_building_construction = {
							type = dockyard
							level = 1
							instant_build = yes
						}
					}
				}
			}
			ROOT = {
				set_temp_variable = { int_investment_change = FROM.gdp_per_capita }
				multiply_temp_variable = { int_investment_change = 0.34 }
				modify_international_investment_effect = yes
				set_temp_variable = { debt_change = FROM.gdp_per_capita }
				multiply_temp_variable = { debt_change = 0.31 }
				modify_debt_effect = yes
			}
		}
	}
}

DEN_decision_Investments_Global_II = {
	DEN_DSV_Invest = {
		icon = generic_prepare_civil_war

		target_root_trigger = {
			original_tag = DEN
			has_completed_focus = DEN_Logistic_Global_Investments
		}

		target_trigger = {
			NOT = { has_war_with = ROOT }
		}

		visible = {
			ROOT = {
				has_opinion = {
					target = From
					value > 5
				}
			}
			FROM = {
				NOT = { has_war_with = ROOT }
				NOT = { has_country_flag = DEN_Investments }
				check_variable = { gdp_per_capita > 20.500 }
				check_variable = { num_of_civilian_factories > 5 }
				has_stability > 0.15
				check_variable = { gdp_total > 100.00 }
			}
		}

		cost = 50

		days_re_enable = 365
		fixed_random_seed = yes

		complete_effect = {
			log = "[GetDateText]: [Root.GetName]: Decision DEN_Invest"
			FROM = {
				set_country_flag = DEN_Investments
				set_temp_variable = { percent_change = 1.9 }
				set_temp_variable = { tag_index = ROOT }
				set_temp_variable = { influence_target = FROM }
				change_influence_percentage = yes
				set_temp_variable = { treasury_change = FROM.gdp_per_capita }
				multiply_temp_variable = { treasury_change = 0.28 }
				modify_treasury_effect = yes
				custom_effect_tooltip = DEN_DSV_TT
				hidden_effect = {
					random_list = {
						35 = {
							if = {
								limit = {
									NOT = {
										any_owned_state = {
											air_base > 0
											free_building_slots = {
												building = air_base
												size > 0
												include_locked = yes
											}
										}
									}
									any_owned_state = {
										is_coastal = yes
									}
								}
								random_owned_controlled_state = {
									limit = {
										free_building_slots = {
											building = air_base
											size > 2
											include_locked = yes
										}
									}
									add_extra_state_shared_building_slots = 1
									add_building_construction = {
										type = air_base
										level = 1
										instant_build = yes
									}
								}
							}
							if = {
								limit = {
									any_owned_state = {
										air_base > 0
										free_building_slots = {
											building = air_base
											size > 1
											include_locked = yes
										}
									}
								}
								random_owned_controlled_state = {
									limit = {
										air_base > 0
										free_building_slots = {
											building = air_base
											size > 1
											include_locked = yes
										}
									}
									add_extra_state_shared_building_slots = 1
									add_building_construction = {
										type = air_base
										level = 1
										instant_build = yes
									}
								}
							}
							if = {
								limit = {
									NOT = {
										any_owned_state = {
											free_building_slots = {
												building = air_base
												size > 1
												include_locked = yes
											}
										}
									}
								}
								random_state = {
									limit = {
										controller = { tag = FROM }
										free_building_slots = {
											building = air_base
											size > 1
											include_locked = yes
										}
									}
									add_extra_state_shared_building_slots = 1
									add_building_construction = {
										type = air_base
										level = 1
										instant_build = yes
									}
								}
							}
						}
						30 = {
							if = {
								limit = {
									NOT = {
										any_owned_state = {
											infrastructure > 0
											free_building_slots = {
												building = infrastructure
												size > 0
												include_locked = yes
											}
										}
									}
									any_owned_state = {
										is_coastal = yes
									}
								}
								random_owned_controlled_state = {
									limit = {
										free_building_slots = {
											building = infrastructure
											size > 2
											include_locked = yes
										}
									}
									add_extra_state_shared_building_slots = 1
									add_building_construction = {
										type = infrastructure
										level = 1
										instant_build = yes
									}
								}
							}
							if = {
								limit = {
									any_owned_state = {
										infrastructure > 0
										free_building_slots = {
											building = infrastructure
											size > 1
											include_locked = yes
										}
									}
								}
								random_owned_controlled_state = {
									limit = {
										infrastructure > 0
										free_building_slots = {
											building = infrastructure
											size > 1
											include_locked = yes
										}
									}
									add_extra_state_shared_building_slots = 1
									add_building_construction = {
										type = infrastructure
										level = 1
										instant_build = yes
									}
								}
							}
							if = {
								limit = {
									NOT = {
										any_owned_state = {
											free_building_slots = {
												building = infrastructure
												size > 1
												include_locked = yes
											}
										}
									}
								}
								random_state = {
									limit = {
										controller = { tag = FROM }
										free_building_slots = {
											building = infrastructure
											size > 1
											include_locked = yes
										}
									}
									add_extra_state_shared_building_slots = 1
									add_building_construction = {
										type = infrastructure
										level = 1
										instant_build = yes
									}
								}
							}
						}
						35 = {
							if = {
								limit = {
									NOT = {
										any_owned_state = {
											synthetic_refinery > 0
											free_building_slots = {
												building = synthetic_refinery
												size > 0
												include_locked = yes
											}
										}
									}
									any_owned_state = {
										is_coastal = yes
									}
								}
								random_owned_controlled_state = {
									limit = {
										free_building_slots = {
											building = synthetic_refinery
											size > 2
											include_locked = yes
										}
									}
									add_extra_state_shared_building_slots = 1
									add_building_construction = {
										type = synthetic_refinery
										level = 1
										instant_build = yes
									}
								}
							}
							if = {
								limit = {
									any_owned_state = {
										synthetic_refinery > 0
										free_building_slots = {
											building = synthetic_refinery
											size > 1
											include_locked = yes
										}
									}
								}
								random_owned_controlled_state = {
									limit = {
										synthetic_refinery > 0
										free_building_slots = {
											building = synthetic_refinery
											size > 1
											include_locked = yes
										}
									}
									add_extra_state_shared_building_slots = 1
									add_building_construction = {
										type = synthetic_refinery
										level = 1
										instant_build = yes
									}
								}
							}
							if = {
								limit = {
									NOT = {
										any_owned_state = {
											free_building_slots = {
												building = synthetic_refinery
												size > 1
												include_locked = yes
											}
										}
									}
								}
								random_state = {
									limit = {
										controller = { tag = FROM }
										free_building_slots = {
											building = synthetic_refinery
											size > 1
											include_locked = yes
										}
									}
									add_extra_state_shared_building_slots = 1
									add_building_construction = {
										type = synthetic_refinery
										level = 1
										instant_build = yes
									}
								}
							}
						}
					}
				}
			}
			ROOT = {
					set_temp_variable = { int_investment_change = FROM.gdp_per_capita }
					multiply_temp_variable = { int_investment_change = 0.34 }
					modify_international_investment_effect = yes
					set_temp_variable = { debt_change = FROM.gdp_per_capita }
					multiply_temp_variable = { debt_change = 0.31 }
					modify_debt_effect = yes
			}
		}

		ai_will_do = {
			factor = 25
		}
	}
}

DEN_decision_Agriculture = {
	DEN_Subventions_for_Grain_decision = {
		icon = decision_generic_eurozone
		cost = 75
		days_remove = 365
		days_re_enable = 90
		fixed_random_seed = yes
		available = {
			NOT = {
				has_decision = DEN_Subventions_for_Fishing_decision
				has_decision = DEN_Subventions_for_Pigs_decision
				has_decision = DEN_Subventions_for_Beef_decision
				has_decision = DEN_marine_conservation_decision
				has_decision = DEN_water_conservation_decision
				has_decision = DEN_wildlife_conservation_decision
				has_decision = DEN_Reforestation_decision
			}
		}

		complete_effect = {
			log = "[GetDateText]: [Root.GetName]: Decision DEN_Subventions_for_Grain_decision"
			set_temp_variable = { treasury_change = gdp_from_agriculture }
			multiply_temp_variable = { treasury_change = -0.2 }
			modify_treasury_effect = yes
			add_timed_idea = {
				idea = DEN_idea_Agriculture_II
				days = 365
			}
			set_temp_variable = { modify_farmer_anger = -5 }
			DEN_modify_farmer_anger = yes
			set_temp_variable = { modify_environmentalist_anger = 5 }
			DEN_modify_environmentalist_anger = yes
			custom_effect_tooltip = DEN_agricultural_income
		}
		remove_effect = {
			log = "[GetDateText]: [This.GetName]: decision DEN_Subventions_for_Grain_decision executed"
			custom_effect_tooltip = DEN_Agriculture_subvention_TT
			add_stability = 0.03
			hidden_effect = {
				random_list = {
					40 = {
						set_temp_variable = { treasury_change = gdp_from_agriculture }
						multiply_temp_variable = { treasury_change = 0.5 }
					}
					15 = {
						set_temp_variable = { treasury_change = gdp_from_agriculture }
						multiply_temp_variable = { treasury_change = 0.4 }
					}
					15 = {
						set_temp_variable = { treasury_change = gdp_from_agriculture }
						multiply_temp_variable = { treasury_change = 0.2 }
					}
					30 = {
						set_temp_variable = { treasury_change = gdp_from_agriculture }
						multiply_temp_variable = { treasury_change = 0.1 }
					}
				}
				modify_treasury_effect = yes
			}
		}

		ai_will_do = {
			factor = 1
		}
	}
	DEN_Subventions_for_Pigs_decision = {
		icon = decision_generic_eurozone
		cost = 75
		days_remove = 365
		days_re_enable = 90
		fixed_random_seed = yes
		available = {
			NOT = {
				has_decision = DEN_Subventions_for_Fishing_decision
				has_decision = DEN_Subventions_for_Grain_decision
				has_decision = DEN_Subventions_for_Beef_decision
				has_decision = DEN_marine_conservation_decision
				has_decision = DEN_water_conservation_decision
				has_decision = DEN_wildlife_conservation_decision
				has_decision = DEN_Reforestation_decision
			}
		}

		complete_effect = {
			log = "[GetDateText]: [Root.GetName]: Decision DEN_Subventions_for_Pigs_decision"
			set_temp_variable = { treasury_change = gdp_from_agriculture }
			multiply_temp_variable = { treasury_change = -0.3 }
			modify_treasury_effect = yes
			add_timed_idea = { idea = DEN_idea_Agriculture_II days = 365 }
			custom_effect_tooltip = DEN_agricultural_income

			set_temp_variable = { modify_farmer_anger = -5 }
			DEN_modify_farmer_anger = yes
			set_temp_variable = { modify_environmentalist_anger = 5 }
			DEN_modify_environmentalist_anger = yes
		}
		remove_effect = {
			log = "[GetDateText]: [This.GetName]: decision DEN_Subventions_for_Pigs_decision executed"
			custom_effect_tooltip = DEN_Agriculture_subvention_TT
			add_stability = 0.03
			hidden_effect = {
				random_list = {
					40 = {
						set_temp_variable = { treasury_change = gdp_from_agriculture }
						multiply_temp_variable = { treasury_change = 0.5 }
					}
					15 = {
						set_temp_variable = { treasury_change = gdp_from_agriculture }
						multiply_temp_variable = { treasury_change = 0.4 }
					}
					15 = {
						set_temp_variable = { treasury_change = gdp_from_agriculture }
						multiply_temp_variable = { treasury_change = 0.2 }
					}
					30 = {
						set_temp_variable = { treasury_change = gdp_from_agriculture }
						multiply_temp_variable = { treasury_change = 0.1 }
					}
				}
				modify_treasury_effect = yes
			}
		}

		ai_will_do = {
			factor = 1
		}
	}

	DEN_Subventions_for_Beef_decision = {
		icon = decision_generic_eurozone
		cost = 75
		days_remove = 365
		days_re_enable = 90
		fixed_random_seed = yes
		available = {
			NOT = {
				has_decision = DEN_Subventions_for_Fishing_decision
				has_decision = DEN_Subventions_for_Grain_decision
				has_decision = DEN_Subventions_for_Beef_decision
				has_decision = DEN_marine_conservation_decision
				has_decision = DEN_water_conservation_decision
				has_decision = DEN_wildlife_conservation_decision
				has_decision = DEN_Reforestation_decision
			}
		}

		complete_effect = {
			log = "[GetDateText]: [Root.GetName]: Decision DEN_Subventions_for_Beef_decision"
			set_temp_variable = { treasury_change = gdp_from_agriculture }
			multiply_temp_variable = { treasury_change = -0.4 }
			modify_treasury_effect = yes
			add_timed_idea = {
				idea = DEN_idea_Agriculture_II
				days = 365
			}
			set_temp_variable = { modify_farmer_anger = -5 }
			DEN_modify_farmer_anger = yes
			set_temp_variable = { modify_environmentalist_anger = 5 }
			DEN_modify_environmentalist_anger = yes
			custom_effect_tooltip = DEN_agricultural_income
		}

		remove_effect = {
			log = "[GetDateText]: [This.GetName]: decision DEN_Subventions_for_Beef_decision executed"
			custom_effect_tooltip = DEN_Agriculture_subvention_TT
			add_stability = 0.03
			hidden_effect = {
				random_list = {
					35 = {
						set_temp_variable = { treasury_change = gdp_from_agriculture }
						multiply_temp_variable = { treasury_change = 0.5 }
					}
					25 = {
						set_temp_variable = { treasury_change = gdp_from_agriculture }
						multiply_temp_variable = { treasury_change = 0.4 }
					}
					15 = {
						set_temp_variable = { treasury_change = gdp_from_agriculture }
						multiply_temp_variable = { treasury_change = 0.2 }
					}
					25 = {
						set_temp_variable = { treasury_change = gdp_from_agriculture }
						multiply_temp_variable = { treasury_change = 0.1 }
					}
				}
				modify_treasury_effect = yes
			}
		}

		ai_will_do = {
			factor = 1
		}
	}

	DEN_Subventions_for_Fishing_decision = {
		icon = decision_generic_eurozone
		cost = 75
		days_remove = 365
		days_re_enable = 90
		available = {
			NOT = {
				has_decision = DEN_Subventions_for_Pigs_decision
				has_decision = DEN_Subventions_for_Grain_decision
				has_decision = DEN_Subventions_for_Beef_decision
				has_decision = DEN_marine_conservation_decision
				has_decision = DEN_water_conservation_decision
				has_decision = DEN_wildlife_conservation_decision
				has_decision = DEN_Reforestation_decision
			}
		}

		complete_effect = {
			log = "[GetDateText]: [Root.GetName]: Decision DEN_Subventions_for_Fishing_decision"
			set_temp_variable = { treasury_change = gdp_from_agriculture }
			multiply_temp_variable = { treasury_change = -0.7 }
			modify_treasury_effect = yes
			add_timed_idea = {
				idea = DEN_idea_Agriculture_II
				days = 365
			}
			set_temp_variable = { modify_farmer_anger = -5 }
			DEN_modify_farmer_anger = yes
			set_temp_variable = { modify_environmentalist_anger = 5 }
			DEN_modify_environmentalist_anger = yes
			custom_effect_tooltip = DEN_agricultural_income
		}
		remove_effect = {
			log = "[GetDateText]: [This.GetName]: decision DEN_Subventions_for_Fishing_decision executed"
			custom_effect_tooltip = DEN_Agriculture_subvention_TT
			add_stability = 0.03
			hidden_effect = {
				random_list = {
					40 = {
						set_temp_variable = { treasury_change = gdp_from_agriculture }
						multiply_temp_variable = { treasury_change = 0.9 }
						modify_treasury_effect = yes
					}
					15 = {
						set_temp_variable = { treasury_change = gdp_from_agriculture }
						multiply_temp_variable = { treasury_change = 0.46 }
						modify_treasury_effect = yes
					}
					15 = {
						set_temp_variable = { treasury_change = gdp_from_agriculture }
						multiply_temp_variable = { treasury_change = 0.7 }
						modify_treasury_effect = yes
					}
					30 = {
						set_temp_variable = { treasury_change = gdp_from_agriculture }
						multiply_temp_variable = { treasury_change = 0.3 }
						modify_treasury_effect = yes
					}
				}
			}
		}

		ai_will_do = {
			factor = 1
		}
	}

	DEN_Request_Whine_grow_by_EU_decision = {
		icon = decision_generic_eurozone
		cost = 75
		days_remove = 365
		days_re_enable = 90
		fixed_random_seed = yes

		complete_effect = {
			log = "[GetDateText]: [Root.GetName]: Decision DEN_Request_Whine_grow_by_EU_decision"
			set_temp_variable = { treasury_change = gdp_from_agriculture }
			multiply_temp_variable = { treasury_change = -1 }
			modify_treasury_effect = yes
			custom_effect_tooltip = DEN_wine_grow_tt
			set_temp_variable = { modify_farmer_anger = -5 }
			DEN_modify_farmer_anger = yes
			set_temp_variable = { modify_environmentalist_anger = -5 }
			DEN_modify_environmentalist_anger = yes
		}
		remove_effect = {
			log = "[GetDateText]: [This.GetName]: decision DEN_Request_Whine_grow_by_EU_decision executed"
			custom_effect_tooltip = DEN_wine_grow_tt_II
			add_stability = 0.03
			add_ideas = DEN_wineland
			hidden_effect = {
				random_list = {
					40 = {
						set_temp_variable = { treasury_change = gdp_from_agriculture }
						multiply_temp_variable = { treasury_change = 2 }
						modify_treasury_effect = yes
					}
					15 = {
						set_temp_variable = { treasury_change = gdp_from_agriculture }
						multiply_temp_variable = { treasury_change = 1.2 }
						modify_treasury_effect = yes
					}
					15 = {
						set_temp_variable = { treasury_change = gdp_from_agriculture }
						multiply_temp_variable = { treasury_change = 0.8 }
						modify_treasury_effect = yes
					}
					30 = {
						set_temp_variable = { treasury_change = gdp_from_agriculture }
						multiply_temp_variable = { treasury_change = 0.4 }
						modify_treasury_effect = yes
					}
				}
			}
		}
		ai_will_do = {
			factor = 1
		}
	}

	DEN_Reforestation_decision = {
		icon = decision_generic_eurozone
		cost = 75
		days_remove = 365
		days_re_enable = 90
		fixed_random_seed = yes
		available = {
			NOT = {
				has_decision = DEN_Subventions_for_Pigs_decision
				has_decision = DEN_Subventions_for_Grain_decision
				has_decision = DEN_Subventions_for_Beef_decision
				has_decision = DEN_marine_conservation_decision
				has_decision = DEN_water_conservation_decision
				has_decision = DEN_wildlife_conservation_decision
				has_decision = DEN_Subventions_for_Fishing_decision
			}
		}
		complete_effect = {
			log = "[GetDateText]: [Root.GetName]: Decision DEN_Reforestation_decision"
			set_temp_variable = { treasury_change = gdp_from_agriculture }
			multiply_temp_variable = { treasury_change = -0.2 }
			modify_treasury_effect = yes
			add_timed_idea = {
				idea = DEN_a_green_initiative
				days = 365
			}
			set_temp_variable = { modify_farmer_anger = 5 }
			DEN_modify_farmer_anger = yes
			set_temp_variable = { modify_environmentalist_anger = -5 }
			DEN_modify_environmentalist_anger = yes
			custom_effect_tooltip = DEN_agricultural_income
		}
		remove_effect = {
			log = "[GetDateText]: [This.GetName]: decision DEN_Reforestation_decision executed"
			custom_effect_tooltip = DEN_Envirement_subvention_TT
			add_stability = 0.03
			hidden_effect = {
				random_list = {
					40 = {
						add_stability = 0.03
						add_popularity = {
							ideology = neutrality
							popularity = 0.04
						}
						recalculate_party = yes
					}
					15 = {
						add_stability = 0.03
						add_popularity = {
							ideology = communism
							popularity = 0.04
						}
						recalculate_party = yes
					}
					15 = {
						add_stability = 0.05
						add_popularity = {
							ideology = neutrality
							popularity = 0.06
						}
						recalculate_party = yes
					}
					30 = {
						add_stability = 0.03
						add_popularity = {
							ideology = democratic
							popularity = 0.02
						}
						recalculate_party = yes
					}
				}
			}
		}
		ai_will_do = {
			factor = 1
		}
	}

	DEN_wildlife_conservation_decision = {
		icon = decision_generic_eurozone
		cost = 75
		days_remove = 365
		days_re_enable = 90
		fixed_random_seed = yes
		available = {
			NOT = {
				has_decision = DEN_Subventions_for_Pigs_decision
				has_decision = DEN_Subventions_for_Grain_decision
				has_decision = DEN_Subventions_for_Beef_decision
				has_decision = DEN_marine_conservation_decision
				has_decision = DEN_water_conservation_decision
				has_decision = DEN_Reforestation_decision
				has_decision = DEN_Subventions_for_Fishing_decision
			}
		}
		complete_effect = {
			log = "[GetDateText]: [Root.GetName]: Decision DEN_wildlife_conservation_decision"
			set_temp_variable = { treasury_change = gdp_from_agriculture }
			multiply_temp_variable = { treasury_change = -0.5 }
			modify_treasury_effect = yes
			add_timed_idea = {
				idea = DEN_a_green_initiative
				days = 365
			}
			set_temp_variable = { modify_farmer_anger = 5 }
			DEN_modify_farmer_anger = yes
			set_temp_variable = { modify_environmentalist_anger = -5 }
			DEN_modify_environmentalist_anger = yes
			custom_effect_tooltip = DEN_agricultural_income
		}
		remove_effect = {
			log = "[GetDateText]: [This.GetName]: decision DEN_wildlife_conservation_decision executed"
			custom_effect_tooltip = DEN_Envirement_subvention_TT
			add_stability = 0.03
			hidden_effect = {
				random_list = {
					40 = {
						add_stability = 0.03
						add_popularity = { ideology = neutrality popularity = 0.04 }
					}
					15 = {
						add_stability = 0.03
						add_popularity = { ideology = communism popularity = 0.04 }
					}
					15 = {
						add_stability = 0.05
						add_popularity = { ideology = neutrality popularity = 0.06 }
					}
					30 = {
						add_stability = 0.03
						add_popularity = { ideology = democratic popularity = 0.02 }
					}
				}
				recalculate_party = yes
			}
		}
		ai_will_do = {
			factor = 1
		}
	}

	DEN_water_conservation_decision = {
		icon = decision_generic_eurozone
		cost = 75
		days_remove = 365
		days_re_enable = 90
		fixed_random_seed = yes

		available = {
			NOT = {
				has_decision = DEN_Subventions_for_Pigs_decision
				has_decision = DEN_Subventions_for_Grain_decision
				has_decision = DEN_Subventions_for_Beef_decision
				has_decision = DEN_marine_conservation_decision
				has_decision = DEN_wildlife_conservation_decision
				has_decision = DEN_Reforestation_decision
				has_decision = DEN_Subventions_for_Fishing_decision
			}
		}

		complete_effect = {
			log = "[GetDateText]: [Root.GetName]: Decision DEN_water_conservation_decision"
			set_temp_variable = { treasury_change = gdp_from_agriculture }
			multiply_temp_variable = { treasury_change = -0.3 }
			modify_treasury_effect = yes
			add_timed_idea = {
				idea = DEN_a_green_initiative
				days = 365
			}
			set_temp_variable = { modify_farmer_anger = 5 }
			DEN_modify_farmer_anger = yes
			set_temp_variable = { modify_environmentalist_anger = -5 }
			DEN_modify_environmentalist_anger = yes
			custom_effect_tooltip = DEN_agricultural_income
		}
		remove_effect = {
			log = "[GetDateText]: [This.GetName]: decision DEN_water_conservation_decision executed"
			custom_effect_tooltip = DEN_Envirement_subvention_TT
			add_stability = 0.03
			hidden_effect = {
				random_list = {
					40 = {
						add_stability = 0.03
						add_popularity = { ideology = neutrality popularity = 0.04 }
					}
					15 = {
						add_stability = 0.03
						add_popularity = { ideology = communism popularity = 0.04 }
					}
					15 = {
						add_stability = 0.05
						add_popularity = { ideology = neutrality popularity = 0.06 }
					}
					30 = {
						add_stability = 0.03
						add_popularity = { ideology = democratic popularity = 0.02 }
					}
				}
				recalculate_party = yes
			}
		}
		ai_will_do = {
			factor = 1
		}
	}

	DEN_marine_conservation_decision = {
		icon = decision_generic_eurozone
		cost = 75
		days_remove = 365
		days_re_enable = 90
		fixed_random_seed = yes
		available = {
			NOT = {
				has_decision = DEN_Subventions_for_Pigs_decision
				has_decision = DEN_Subventions_for_Grain_decision
				has_decision = DEN_Subventions_for_Beef_decision
				has_decision = DEN_water_conservation_decision
				has_decision = DEN_wildlife_conservation_decision
				has_decision = DEN_Reforestation_decision
				has_decision = DEN_Subventions_for_Fishing_decision
			}
		}

		complete_effect = {
			log = "[GetDateText]: [Root.GetName]: Decision DEN_marine_conservation_decision"
			set_temp_variable = { treasury_change = gdp_from_agriculture }
			multiply_temp_variable = { treasury_change = -0.4 }
			modify_treasury_effect = yes
			add_timed_idea = {
				idea = DEN_a_green_initiative
				days = 365
			}
			set_temp_variable = { modify_farmer_anger = 5 }
			DEN_modify_farmer_anger = yes
			set_temp_variable = { modify_environmentalist_anger = -5 }
			DEN_modify_environmentalist_anger = yes
			custom_effect_tooltip = DEN_agricultural_income
		}

		remove_effect = {
			log = "[GetDateText]: [This.GetName]: decision DEN_marine_conservation_decision executed"
			custom_effect_tooltip = DEN_Envirement_subvention_TT
			add_stability = 0.03
			hidden_effect = {
				random_list = {
					40 = {
						add_stability = 0.03
						add_popularity = { ideology = neutrality popularity = 0.04 }
					}
					15 = {
						add_stability = 0.03
						add_popularity = { ideology = communism popularity = 0.04 }
					}
					15 = {
						add_stability = 0.05
						add_popularity = { ideology = neutrality popularity = 0.06 }
					}
					30 = {
						add_stability = 0.03
						add_popularity = { ideology = democratic popularity = 0.02 }
					}
				}
				recalculate_party = yes
			}
		}

		ai_will_do = {
			factor = 1
		}
	}

	DEN_Subventions_modernization_decision = {
		icon = decision_generic_eurozone
		cost = 75
		days_remove = 365
		days_re_enable = 90

		complete_effect = {
			log = "[GetDateText]: [Root.GetName]: Decision DEN_Subventions_modernization_decision"
			set_temp_variable = { treasury_change = gdp_from_agriculture }
			multiply_temp_variable = { treasury_change = -0.9 }
			modify_treasury_effect = yes
			add_timed_idea = {
				idea = DEN_idea_Agriculture_II
				days = 365
			}
			custom_effect_tooltip = DEN_agricultural_income
		}

		remove_effect = {
			log = "[GetDateText]: [This.GetName]: decision DEN_Subventions_modernization_decision executed"
			set_temp_variable = { modify_farmer_anger = -6 }
			DEN_modify_farmer_anger = yes
			set_temp_variable = { modify_environmentalist_anger = -4 }
			DEN_modify_environmentalist_anger = yes
		}

		ai_will_do = {
			factor = 1
		}
	}
}
