on_actions = {
	on_weekly = {
		effect = {
			#Communists
			if = {
				limit = {
					OR = {
						is_in_array = { ruling_party = 4 }
						is_in_array = { ruling_party = 19 }
					}
					NOT = { has_idea = IP_spread_the_revolution }
				}
				add_ideas = IP_spread_the_revolution
			}
			#Socialists
			if = {
				limit = {
					OR = {
						is_in_array = { ruling_party = 3 }	#socialsim
						is_in_array = { ruling_party = 5 }	#anarchist_communism
						is_in_array = { ruling_party = 17 }	#Neutral_green
						is_in_array = { ruling_party = 18 }	#neutral_Social
					}
					NOT = { has_idea = IP_welfare_state }
				}
				add_ideas = IP_welfare_state
			}
			if = {
				limit = {
					OR = {
						is_in_array = { ruling_party = 3 }	#socialsim
						is_in_array = { ruling_party = 5 }	#anarchist_communism
						is_in_array = { ruling_party = 18 }	#neutral_Social
					}
				}
				update_construction_bonus_from_interventionism = yes
			}
			if = {
				limit = {
					is_in_array = { ruling_party = 17 }	#Neutral_green
				}
				update_construction_bonus_from_interventionism_green = yes
			}
			if = {
				limit = {
					OR = {
						is_in_array = { ruling_party = 3 }	#socialsim
						is_in_array = { ruling_party = 5 }	#anarchist_communism
						is_in_array = { ruling_party = 17 }	#Neutral_green
						is_in_array = { ruling_party = 18 }	#neutral_Social
					}
					NOT = { has_idea = IP_naive_worldview }
				}
				add_ideas = IP_naive_worldview
			}
			#Conservatives
			if = {
				limit = {
					OR = {
						is_in_array = { ruling_party = 1 }	#conservative
						is_in_array = { ruling_party = 6 }	#Conservative
						is_in_array = { ruling_party = 8 }	#Mod vilayat e faqih
						is_in_array = { ruling_party = 12 }	#muslim brotherhood
						is_in_array = { ruling_party = 14 }	#neutral conservative
						is_in_array = { ruling_party = 20 }	#national populist
					}
					NOT = { has_idea = IP_good_old_days }
				}
				add_ideas = IP_good_old_days
			}
			if = {
				limit = {
					OR = {
						is_in_array = { ruling_party = 1 }	#conservative
						is_in_array = { ruling_party = 6 }	#Conservative
						is_in_array = { ruling_party = 8 }	#Mod vilayat e faqih
						is_in_array = { ruling_party = 12 }	#muslim brotherhood
						is_in_array = { ruling_party = 14 }	#neutral conservative
						is_in_array = { ruling_party = 20 }	#national populist
					}
					NOT = { has_idea = IP_stable_society }
				}
				add_ideas = IP_stable_society
			}
			if = {
				limit = {
					OR = {
						is_in_array = { ruling_party = 1 }	#conservative
						is_in_array = { ruling_party = 6 }	#Conservative
						is_in_array = { ruling_party = 14 }	#neutral conservative
						is_in_array = { ruling_party = 20 }	#national populist
					}
					NOT = { has_idea = IP_patriotism }
				}
				add_ideas = IP_patriotism
			}
			if = {
				limit = {
					OR = {
						is_in_array = { ruling_party = 8 }	#Mod vilayat e faqih
						is_in_array = { ruling_party = 12 }	#muslim brotherhood
					}
					NOT = { has_idea = IP_patriotism_religious }
				}
				add_ideas = IP_patriotism_religious
			}
			if = {
				limit = {
					OR = {
						is_in_array = { ruling_party = 1 }	#conservative
						is_in_array = { ruling_party = 6 }	#Conservative
						is_in_array = { ruling_party = 8 }	#Mod vilayat e faqih
						is_in_array = { ruling_party = 12 }	#muslim brotherhood
						is_in_array = { ruling_party = 14 }	#neutral conservative
						is_in_array = { ruling_party = 20 }	#national populist
					}
					NOT = { has_idea = IP_homefront_first }
				}
				add_ideas = IP_homefront_first
			}
			#Liberals
			if = {
				limit = {
					OR = {
						has_country_leader_with_trait = western_technocrat
						is_in_array = { ruling_party = 2 }	#liberalism
						is_in_array = { ruling_party = 16 }	#Neutral_Libertarian
					}
					NOT = { has_idea = IP_invisible_hand }
				}
				add_ideas = IP_invisible_hand
			}
			if = {
				limit = {
					OR = {
						has_country_leader_with_trait = western_technocrat
						is_in_array = { ruling_party = 2 }	#liberalism
						is_in_array = { ruling_party = 16 }	#Neutral_Libertarian
					}
					NOT = { has_idea = IP_anti_military }
				}
				add_ideas = IP_anti_military
			}
			#Autocrats
			if = {
				limit = {
					OR = {
						non_technocrats_western_autocrats_are_in_power = yes
						is_in_array = { ruling_party = 7 }	#Emerging autocrats
						is_in_array = { ruling_party = 13 }	#Neutral autocrats
						is_in_array = { ruling_party = 15 }	#oligarchs
						is_in_array = { ruling_party = 21 }	#fascists
						is_in_array = { ruling_party = 22 }	#military junta
					}
				}
				update_pp_bonus_from_corruption = yes
			}
			if = {
				limit = {
					OR = {
						non_technocrats_western_autocrats_are_in_power = yes
						is_in_array = { ruling_party = 7 }	#Emerging autocrats
						is_in_array = { ruling_party = 13 }	#Neutral autocrats
						is_in_array = { ruling_party = 15 }	#oligarchs
						is_in_array = { ruling_party = 22 }	#military junta
					}
					NOT = { has_idea = IP_emergency_powers }
				}
				add_ideas = IP_emergency_powers
			}
			if = {
				limit = {
					OR = {
						non_technocrats_western_autocrats_are_in_power = yes
						is_in_array = { ruling_party = 7 }	#Emerging autocrats
						is_in_array = { ruling_party = 13 }	#Neutral autocrats
						is_in_array = { ruling_party = 15 }	#oligarchs
						is_in_array = { ruling_party = 21 }	#fascists
						is_in_array = { ruling_party = 22 }	#military junta
					}
					NOT = { has_idea = IP_yes_men_army }
				}
				add_ideas = IP_yes_men_army
			}
			#Monarchists
			if = {
				limit = {
					OR = {
						is_in_array = { ruling_party = 10 }	#Kingdom
						is_in_array = { ruling_party = 23 }	#Monarchist
					}
					NOT = { has_idea = IP_keep_it_in_the_family }
				}
				add_ideas = IP_keep_it_in_the_family
			}
			if = {
				limit = {
					OR = {
						is_in_array = { ruling_party = 10 }	#Kingdom
						is_in_array = { ruling_party = 23 }	#Monarchist
					}
					NOT = { has_idea = IP_for_king_and_queen }
				}
				add_ideas = IP_for_king_and_queen
			}
			if = {
				limit = {
					OR = {
						is_in_array = { ruling_party = 10 }	#Kingdom
						is_in_array = { ruling_party = 23 }	#Monarchist
					}
					NOT = { has_idea = IP_outdated_ideals }
				}
				add_ideas = IP_outdated_ideals
			}
			#Fundamentalists
			if = {
				limit = {
					is_in_array = { ruling_party = 9 }	#Vilayat_e_Faqih
					NOT = { has_idea = IP_religious_law_emerging }
				}
				add_ideas = IP_religious_law_emerging
			}
			if = {
				limit = {
					is_in_array = { ruling_party = 11 }	#Caliphate
					NOT = { has_idea = IP_religious_law_salafist }
				}
				add_ideas = IP_religious_law_salafist
			}
			if = {
				limit = {
					OR = {
						is_in_array = { ruling_party = 9 }	#Vilayat_e_Faqih
						is_in_array = { ruling_party = 11 }	#Caliphate
					}
					NOT = { has_idea = IP_nationalist_liberation_movements }
				}
				add_ideas = IP_nationalist_liberation_movements
			}
			if = {
				limit = {
					OR = {
						is_in_array = { ruling_party = 9 }	#Vilayat_e_Faqih
						is_in_array = { ruling_party = 11 }	#Caliphate
					}
					NOT = { has_idea = IP_international_pariah }
				}
				add_ideas = IP_international_pariah
			}
		}
	}

	#Run the same effects also on startup
	on_startup = {
		effect = {
			every_country = {
				#Communists
				if = {
					limit = {
						OR = {
							is_in_array = { ruling_party = 4 }
							is_in_array = { ruling_party = 19 }
						}
						NOT = { has_idea = IP_spread_the_revolution }
					}
					add_ideas = IP_spread_the_revolution
				}
				#Socialists
				if = {
					limit = {
						OR = {
							is_in_array = { ruling_party = 3 }	#socialsim
							is_in_array = { ruling_party = 5 }	#anarchist_communism
							is_in_array = { ruling_party = 17 }	#Neutral_green
							is_in_array = { ruling_party = 18 }	#neutral_Social
						}
						NOT = { has_idea = IP_welfare_state }
					}
					add_ideas = IP_welfare_state
				}
				if = {
					limit = {
						OR = {
							is_in_array = { ruling_party = 3 }	#socialsim
							is_in_array = { ruling_party = 5 }	#anarchist_communism
							is_in_array = { ruling_party = 18 }	#neutral_Social
						}
					}
					update_construction_bonus_from_interventionism = yes
				}
				if = {
					limit = {
						is_in_array = { ruling_party = 17 }	#Neutral_green
					}
					update_construction_bonus_from_interventionism_green = yes
				}
				if = {
					limit = {
						OR = {
							is_in_array = { ruling_party = 3 }	#socialsim
							is_in_array = { ruling_party = 5 }	#anarchist_communism
							is_in_array = { ruling_party = 17 }	#Neutral_green
							is_in_array = { ruling_party = 18 }	#neutral_Social
						}
						NOT = { has_idea = IP_naive_worldview }
					}
					add_ideas = IP_naive_worldview
				}
				#Conservatives
				if = {
					limit = {
						OR = {
							is_in_array = { ruling_party = 1 }	#conservative
							is_in_array = { ruling_party = 6 }	#Conservative
							is_in_array = { ruling_party = 8 }	#Mod vilayat e faqih
							is_in_array = { ruling_party = 12 }	#muslim brotherhood
							is_in_array = { ruling_party = 14 }	#neutral conservative
							is_in_array = { ruling_party = 20 }	#national populist
						}
						NOT = { has_idea = IP_good_old_days }
					}
					add_ideas = IP_good_old_days
				}
				if = {
					limit = {
						OR = {
							is_in_array = { ruling_party = 1 }	#conservative
							is_in_array = { ruling_party = 6 }	#Conservative
							is_in_array = { ruling_party = 8 }	#Mod vilayat e faqih
							is_in_array = { ruling_party = 12 }	#muslim brotherhood
							is_in_array = { ruling_party = 14 }	#neutral conservative
							is_in_array = { ruling_party = 20 }	#national populist
						}
						NOT = { has_idea = IP_stable_society }
					}
					add_ideas = IP_stable_society
				}
				if = {
					limit = {
						OR = {
							is_in_array = { ruling_party = 1 }	#conservative
							is_in_array = { ruling_party = 6 }	#Conservative
							is_in_array = { ruling_party = 14 }	#neutral conservative
							is_in_array = { ruling_party = 20 }	#national populist
						}
						NOT = { has_idea = IP_patriotism }
					}
					add_ideas = IP_patriotism
				}
				if = {
					limit = {
						OR = {
							is_in_array = { ruling_party = 8 }	#Mod vilayat e faqih
							is_in_array = { ruling_party = 12 }	#muslim brotherhood
						}
						NOT = { has_idea = IP_patriotism_religious }
					}
					add_ideas = IP_patriotism_religious
				}
				if = {
					limit = {
						OR = {
							is_in_array = { ruling_party = 1 }	#conservative
							is_in_array = { ruling_party = 6 }	#Conservative
							is_in_array = { ruling_party = 8 }	#Mod vilayat e faqih
							is_in_array = { ruling_party = 12 }	#muslim brotherhood
							is_in_array = { ruling_party = 14 }	#neutral conservative
							is_in_array = { ruling_party = 20 }	#national populist
						}
						NOT = { has_idea = IP_homefront_first }
					}
					add_ideas = IP_homefront_first
				}
				#Liberals
				if = {
					limit = {
						OR = {
							has_country_leader_with_trait = western_technocrat
							is_in_array = { ruling_party = 2 }	#liberalism
							is_in_array = { ruling_party = 16 }	#Neutral_Libertarian
						}
						NOT = { has_idea = IP_invisible_hand }
					}
					add_ideas = IP_invisible_hand
				}
				if = {
					limit = {
						OR = {
							has_country_leader_with_trait = western_technocrat
							is_in_array = { ruling_party = 2 }	#liberalism
							is_in_array = { ruling_party = 16 }	#Neutral_Libertarian
						}
						NOT = { has_idea = IP_anti_military }
					}
					add_ideas = IP_anti_military
				}
				#Autocrats
				if = {
					limit = {
						OR = {
							non_technocrats_western_autocrats_are_in_power = yes
							is_in_array = { ruling_party = 7 }	#Emerging autocrats
							is_in_array = { ruling_party = 13 }	#Neutral autocrats
							is_in_array = { ruling_party = 15 }	#oligarchs
							is_in_array = { ruling_party = 21 }	#fascists
							is_in_array = { ruling_party = 22 }	#military junta
						}
					}
					update_pp_bonus_from_corruption = yes
				}
				if = {
					limit = {
						OR = {
							non_technocrats_western_autocrats_are_in_power = yes
							is_in_array = { ruling_party = 7 }	#Emerging autocrats
							is_in_array = { ruling_party = 13 }	#Neutral autocrats
							is_in_array = { ruling_party = 15 }	#oligarchs
							is_in_array = { ruling_party = 22 }	#military junta
						}
						NOT = { has_idea = IP_emergency_powers }
					}
					add_ideas = IP_emergency_powers
				}
				if = {
					limit = {
						OR = {
							non_technocrats_western_autocrats_are_in_power = yes
							is_in_array = { ruling_party = 7 }	#Emerging autocrats
							is_in_array = { ruling_party = 13 }	#Neutral autocrats
							is_in_array = { ruling_party = 15 }	#oligarchs
							is_in_array = { ruling_party = 21 }	#fascists
							is_in_array = { ruling_party = 22 }	#military junta
						}
						NOT = { has_idea = IP_yes_men_army }
					}
					add_ideas = IP_yes_men_army
				}
				#Monarchists
				if = {
					limit = {
						OR = {
							is_in_array = { ruling_party = 10 }	#Kingdom
							is_in_array = { ruling_party = 23 }	#Monarchist
						}
						NOT = { has_idea = IP_keep_it_in_the_family }
					}
					add_ideas = IP_keep_it_in_the_family
				}
				if = {
					limit = {
						OR = {
							is_in_array = { ruling_party = 10 }	#Kingdom
							is_in_array = { ruling_party = 23 }	#Monarchist
						}
						NOT = { has_idea = IP_for_king_and_queen }
					}
					add_ideas = IP_for_king_and_queen
				}
				if = {
					limit = {
						OR = {
							is_in_array = { ruling_party = 10 }	#Kingdom
							is_in_array = { ruling_party = 23 }	#Monarchist
						}
						NOT = { has_idea = IP_outdated_ideals }
					}
					add_ideas = IP_outdated_ideals
				}
				#Fundamentalists
				if = {
					limit = {
						is_in_array = { ruling_party = 9 }	#Vilayat_e_Faqih
						NOT = { has_idea = IP_religious_law_emerging }
					}
					add_ideas = IP_religious_law_emerging
				}
				if = {
					limit = {
						is_in_array = { ruling_party = 11 }	#Caliphate
						NOT = { has_idea = IP_religious_law_salafist }
					}
					add_ideas = IP_religious_law_salafist
				}
				if = {
					limit = {
						OR = {
							is_in_array = { ruling_party = 9 }	#Vilayat_e_Faqih
							is_in_array = { ruling_party = 11 }	#Caliphate
						}
						NOT = { has_idea = IP_nationalist_liberation_movements }
					}
					add_ideas = IP_nationalist_liberation_movements
				}
				if = {
					limit = {
						OR = {
							is_in_array = { ruling_party = 9 }	#Vilayat_e_Faqih
							is_in_array = { ruling_party = 11 }	#Caliphate
						}
						NOT = { has_idea = IP_international_pariah }
					}
					add_ideas = IP_international_pariah
				}
			}
		}
	}
}
