# Islamic Republic
sabotage_aramco = {
	icon = GFX_sabotage_aramco
	map_icon = GFX_sabotage_aramco_map
	name = sabotage_aramco
	desc = sabotage_aramco_desc
	priority = 1

	days = 60
	network_strength = 80
	operatives = 2

	visible = {
		num_of_operatives > 0
		network_national_coverage = {
			target = FROM
			value > 0
		}
		FROM = {
			original_tag = SAU
			NOT = { has_country_flag = aramco_sabotage_flag }
		}
		has_completed_focus = PER_aramco_underfire
	}

	available = {
		FROM = {
			original_tag = SAU
		}
	}

	equipment = {
		civilian_factories = {
			amount = 2
			days = 10
		}
	}
	required_tokens = { token_civilian }
	awarded_tokens = {
		token_civilian
	}

	risk_chance = 0.20
	experience = 2
	outcome_extra_chance = 0.25
	risk_modifiers = { operation_risk }
	outcome_modifiers = { operation_outcome }
	cost_modifiers = { operation_cost }
	outcome_execute = {
		SAU = {
			add_timed_idea = {
				idea = saudi_aramco_sabotage
				days = 100
			}
			country_event = {
				id = PER_contact_with_countries.40
				days = 0
			}
			set_country_flag = aramco_sabotage_flag
		}
	}

	phases = { #infiltration
		infiltration_border = { base = 25 }
		infiltration_submarine = { base = 25 }
		infiltration_paradrop = {
			base = 25
			modifier = {
				ROOT = {
					AND = {
						has_equipment = {
							transport_plane_equipment < 1
						}
						has_equipment = {
							large_plane_air_transport_airframe < 1
						}
						has_equipment = {
							cv_medium_plane_air_transport_airframe < 1
						}
					}
				}
				factor = 0.1 #less likely if we have no transports
			}
		}
		infiltration_diplomatic = {
			base = 25
			modifier = {
				factor = 20
				ROOT = { has_war = no }
				FROM = {
					has_war = no
				}
			}
		}
	}
	phases = {
		targeted_sabotage_burn_storage = { base = 33 }
	}
	phases = { #exfiltration
		exfiltration_air_pickup = {
			base = 15
			modifier = {
				ROOT = {
					AND = {
						has_equipment = {
							transport_plane_equipment < 1
						}
						has_equipment = {
							large_plane_air_transport_airframe < 1
						}
						has_equipment = {
							cv_medium_plane_air_transport_airframe < 1
						}
					}
				}
				factor = 0.1 #less likely if we have no transports
			}
		}
		exfiltration_border = { base = 30 }
		exfiltration_go_to_ground = { base = 30 }
		exfiltration_submarine_pickup = { base = 25 }
	}

}
blow_nahariya_weapon_storage = {
	icon = GFX_blow_nahariya_weapon_storage
	map_icon = GFX_blow_nahariya_weapon_storage_map
	name = blow_nahariya_weapon_storage
	desc = blow_nahariya_weapon_storage_desc
	priority = 1

	days = 60
	network_strength = 80
	operatives = 2

	visible = {
		num_of_operatives > 0
		network_national_coverage = {
			target = FROM
			value > 0
		}
		FROM = {
			original_tag = ISR
			NOT = { has_country_flag = nahariya_sabotage_flag }
		}
		has_completed_focus = PER_blow_nahariya_weapone_storage
	}

	available = {
		FROM = {
			original_tag = ISR
		}
	}

	equipment = {
		civilian_factories = {
			amount = 2
			days = 10
		}
	}
	required_tokens = { token_army }
	awarded_tokens = {
		token_army
	}

	risk_chance = 0.20
	experience = 2
	outcome_extra_chance = 0.25
	risk_modifiers = { operation_risk }
	outcome_modifiers = { operation_outcome }
	cost_modifiers = { operation_cost }
	outcome_execute = {
		ISR = {
			add_timed_idea = {
				idea = nahariya_weapon_storage_blown
				days = 100
			}
			country_event = {
				id = PER_contact_with_countries.42
				days = 0
			}
			set_country_flag = nahariya_sabotage_flag
		}
		if = {
			limit = { 205 = { is_controlled_by = ISR } }
			205 = {
				damage_building = {
					type = arms_factory
					damage = 3
				}
			}
		}
		if = {
			limit = { 587 = { is_controlled_by = ISR } }
			587 = {
				damage_building = {
					type = arms_factory
					damage = 5
				}
			}
		}

	}

	phases = { #infiltration
		infiltration_border = { base = 25 }
		infiltration_submarine = { base = 25 }
		infiltration_paradrop = {
			base = 25
			modifier = {
				ROOT = {
					AND = {
						has_equipment = {
							transport_plane_equipment < 1
						}
						has_equipment = {
							large_plane_air_transport_airframe < 1
						}
						has_equipment = {
							cv_medium_plane_air_transport_airframe < 1
						}
					}
				}
				factor = 0.1 #less likely if we have no transports
			}
		}
	}
	phases = {
		targeted_sabotage_burn_storage = { base = 33 }
	}
	phases = { #exfiltration
		exfiltration_go_to_ground = { base = 30 }
	}
}
blow_turkey_iraqi_base = {
	icon = GFX_blow_turkey_iraqi_base
	map_icon = GFX_blow_turkey_iraqi_base_map
	name = blow_turkey_iraqi_base
	desc = blow_turkey_iraqi_base_desc
	priority = 1

	days = 60
	network_strength = 80
	operatives = 2

	visible = {
		num_of_operatives > 0
		network_national_coverage = {
			target = FROM
			value > 0
		}
		has_completed_focus = PER_blow_turkey_iraqi_base
		FROM = {
			original_tag = TUR
			NOT = { has_country_flag = turkey_base_flag }
		}
	}

	available = {
		FROM = {
			original_tag = TUR
		}
	}

	equipment = {
		civilian_factories = {
			amount = 2
			days = 10
		}
	}
	required_tokens = { token_army }
	awarded_tokens = {
		token_army
	}

	risk_chance = 0.20
	experience = 2
	outcome_extra_chance = 0.25
	risk_modifiers = { operation_risk }
	outcome_modifiers = { operation_outcome }
	cost_modifiers = { operation_cost }
	outcome_execute = {
		TUR = {
			add_timed_idea = {
				idea = turkey_iraqi_base_blown
				days = 40
			}
			set_country_flag = TUR_divisions
			damage_units = {
				region = 184
				limit = { has_country_flag = TUR_divisions }
				damage = 50.0
				org_damage = 50.0
				str_damage = 30.0
				ratio = no
				army = yes
			}
			country_event = {
				id = PER_contact_with_countries.44
				days = 0
			}
			set_country_flag = turkey_base_flag
		}
	}

	phases = { #infiltration
		infiltration_border = { base = 25 }
		infiltration_submarine = { base = 25 }
		infiltration_paradrop = {
			base = 25
			modifier = {
				ROOT = {
					AND = {
						has_equipment = {
							transport_plane_equipment < 1
						}
						has_equipment = {
							large_plane_air_transport_airframe < 1
						}
						has_equipment = {
							cv_medium_plane_air_transport_airframe < 1
						}
					}
				}
				factor = 0.1
			}
		}
	}
	phases = {
		targeted_sabotage_burn_storage = { base = 33 }
	}
	phases = {
		exfiltration_go_to_ground = { base = 30 }
	}
}
blow_baku_gas_canals = {
	icon = GFX_blow_baku_gas_canals
	map_icon = GFX_blow_baku_gas_canals_map
	name = blow_baku_gas_canals
	desc = blow_baku_gas_canals_desc
	priority = 1

	days = 60
	network_strength = 80
	operatives = 2

	visible = {
		num_of_operatives > 0
		network_national_coverage = {
			target = FROM
			value > 0
		}
		has_completed_focus = PER_blow_baku_gas_canals
		FROM = {
			original_tag = AZE
			NOT = { has_country_flag = baku_gas_flag }
		}
	}

	available = {
		FROM = {
			original_tag = AZE
		}
	}

	equipment = {
		civilian_factories = {
			amount = 2
			days = 10
		}
	}
	required_tokens = { token_civilian }
	awarded_tokens = {
		token_civilian
	}

	risk_chance = 0.20
	experience = 2
	outcome_extra_chance = 0.25
	risk_modifiers = { operation_risk }
	outcome_modifiers = { operation_outcome }
	cost_modifiers = { operation_cost }
	outcome_execute = {
		AZE = {
			add_timed_idea = {
				idea = baku_gas_lines_blown
				days = 70
			}

			country_event = {
				id = PER_contact_with_countries.46
				days = 0
			}
			set_country_flag = baku_gas_flag
		}
	}

	phases = { #infiltration
		infiltration_border = { base = 25 }
		infiltration_submarine = { base = 25 }
		infiltration_paradrop = {
			base = 25
			modifier = {
				ROOT = {
					AND = {
						has_equipment = {
							transport_plane_equipment < 1
						}
						has_equipment = {
							large_plane_air_transport_airframe < 1
						}
						has_equipment = {
							cv_medium_plane_air_transport_airframe < 1
						}
					}
				}
				factor = 0.1
			}
		}
	}
	phases = {
		targeted_sabotage_burn_storage = { base = 33 }
	}
	phases = {
		exfiltration_go_to_ground = { base = 30 }
	}
}