
strategic_region={
	id=10
	name="STRATEGICREGION_10"
	provinces={
		8 18 39 71 72 74 75 87 90 92 93 94 95 99 104 105 106 108 110 116 117 126 127 129 134 142 149 154 155 157 166 174 176 178 183 186 194 197 198 207 248 312 320 387 415 1295 2332 2356 2994 2998 3012 3033 3041 3057 3060 3064 3072 3075 3081 3084 3089 3110 3121 3124 3130 3133 3134 3140 3147 3151 3154 3155 3157 3166 3168 3175 3186 3333 3338 4298 4314 6012 6016 6040 6051 6052 6086 6088 6095 6098 6102 6105 6131 6139 6140 6150 6154 6169 6174 6175 6177 6181 6182 6183 6190 6192 6202 6213 6242 6293 6324 6538 7330 7712 7898 9041 9055 9098 9099 9105 9111 9113 9115 9120 9121 9124 9130 9131 9133 9140 9145 9164 9165 9168 9177 9184 9187 9190 9195 9205 9206 9210 9212 9213 9222 9225 9230 10207 10551 10579 10677 10723 11025 11031 11036 11038 11045 11046 11047 11059 11062 11068 11071 11074 11080 11083 11085 11086 11089 11094 11098 11109 11110 11117 11119 11137 11139 11142 11153 11159 11177 11182 11183 11186 11200 11202 11203 11234 11259 11304 11392 12393 12530 12558 12587 13127 13129 13130 13194 13198 14115 14116 14455 14651 14652 14653 14654 14655 14656 14657 14658
	}
	weather={
		period={
			between={ 0.0 30.0 }
			temperature={ -17.0 -10.0 }
			#temperature_day_night={ 12.0 -12.0 }
			no_phenomenon=0.250
			rain_light=0.000
			rain_heavy=0.000
			snow=0.300
			blizzard=0.150
			arctic_water=0.000
			mud=0.300
			sandstorm=0.000
			min_snow_level=0.100
		}
		period={
			between={ 0.1 27.1 }
			temperature={ -19.0 -12.0 }
			#temperature_day_night={ 12.0 -12.0 }
			no_phenomenon=0.250
			rain_light=0.000
			rain_heavy=0.000
			snow=0.400
			blizzard=0.200
			arctic_water=0.000
			mud=0.300
			sandstorm=0.000
			min_snow_level=0.100
		}
		period={
			between={ 0.2 30.2 }
			temperature={ -15.0 -5.0 }
			#temperature_day_night={ 10.0 -10.0 }
			no_phenomenon=0.300
			rain_light=0.000
			rain_heavy=0.000
			snow=0.300
			blizzard=0.100
			arctic_water=0.000
			mud=0.300
			sandstorm=0.000
			min_snow_level=0.000
		}
		period={
			between={ 0.3 29.3 }
			temperature={ -5.0 8.0 }
			#temperature_day_night={ 10.0 -10.0 }
			no_phenomenon=0.500
			rain_light=0.120
			rain_heavy=0.060
			snow=0.030
			blizzard=0.000
			arctic_water=0.000
			mud=0.300
			sandstorm=0.000
			min_snow_level=0.000
		}
		period={
			between={ 0.4 30.4 }
			temperature={ 6.0 18.0 }
			#temperature_day_night={ 10.0 -10.0 }
			no_phenomenon=0.400
			rain_light=0.150
			rain_heavy=0.050
			snow=0.000
			blizzard=0.000
			arctic_water=0.000
			mud=0.300
			sandstorm=0.000
			min_snow_level=0.000
		}
		period={
			between={ 0.5 29.5 }
			temperature={ 6.0 16.0 }
			#temperature_day_night={ 10.0 -10.0 }
			no_phenomenon=0.400
			rain_light=0.150
			rain_heavy=0.050
			snow=0.000
			blizzard=0.000
			arctic_water=0.000
			mud=0.300
			sandstorm=0.000
			min_snow_level=0.000
		}
		period={
			between={ 0.6 30.6 }
			temperature={ 13.0 23.0 }
			#temperature_day_night={ 10.0 -10.0 }
			no_phenomenon=0.500
			rain_light=0.150
			rain_heavy=0.050
			snow=0.000
			blizzard=0.000
			arctic_water=0.000
			mud=0.300
			sandstorm=0.000
			min_snow_level=0.000
		}
		period={
			between={ 0.7 30.7 }
			temperature={ 7.0 13.0 }
			#temperature_day_night={ 10.0 -10.0 }
			no_phenomenon=0.500
			rain_light=0.200
			rain_heavy=0.050
			snow=0.000
			blizzard=0.000
			arctic_water=0.000
			mud=0.300
			sandstorm=0.000
			min_snow_level=0.000
		}
		period={
			between={ 0.8 29.8 }
			temperature={ 7.0 16.0 }
			#temperature_day_night={ 10.0 -10.0 }
			no_phenomenon=0.500
			rain_light=0.250
			rain_heavy=0.070
			snow=0.000
			blizzard=0.000
			arctic_water=0.000
			mud=0.300
			sandstorm=0.000
			min_snow_level=0.000
		}
		period={
			between={ 0.9 30.9 }
			temperature={ 3.0 8.0 }
			#temperature_day_night={ 10.0 -10.0 }
			no_phenomenon=0.500
			rain_light=0.150
			rain_heavy=0.050
			snow=0.200
			blizzard=0.000
			arctic_water=0.000
			mud=0.300
			sandstorm=0.000
			min_snow_level=0.000
		}
		period={
			between={ 0.10 29.10 }
			temperature={ -12.0 -2.0 }
			#temperature_day_night={ 10.0 -10.0 }
			no_phenomenon=0.350
			rain_light=0.180
			rain_heavy=0.050
			snow=0.400
			blizzard=0.200
			arctic_water=0.000
			mud=0.300
			sandstorm=0.000
			min_snow_level=0.000
		}
		period={
			between={ 0.11 30.11 }
			temperature={ -12.0 -5.0 }
			#temperature_day_night={ 10.0 -10.0 }
			no_phenomenon=0.250
			rain_light=0.000
			rain_heavy=0.000
			snow=0.600
			blizzard=0.250
			arctic_water=0.000
			mud=0.300
			sandstorm=0.000
			min_snow_level=0.100
		}
	}
}
