characters = {
	UKR_viktor_muzhenko = {
		name = "Viktor Muzhenko"
		portraits = {
			army = {
				small = "gfx/leaders/UKR/small/Portrait_Viktor_Muzhenko_small.dds"
			}
			army = {
				large = "gfx/leaders/UKR/Portrait_Viktor_Muzhenko.dds"
			}
		}
		field_marshal = {
			traits = { old_guard thorough_planner }
			skill = 5
			attack_skill = 4
			defense_skill = 6
			planning_skill = 3
			logistics_skill = 3
		}
		advisor = {
			slot = army_chief
			idea_token = viktor_muzhenko
			ledger = army
			allowed = {
				original_tag = UKR
			}
			traits = {
				army_chief_defensive_2
			}
			cost = 100
			ai_will_do = {
				factor = 1
			}
		}
	}
	UKR_serhiy_popko = {
		name = "Serhiy Popko"
		portraits = {
			army = {
				small = "gfx/leaders/UKR/small/Portrait_Serhiy_Popko_small.dds"
			}
			army = {
				large = "gfx/leaders/UKR/Portrait_Serhiy_Popko.dds"
			}
		}
		field_marshal = {
			traits = { offensive_doctrine }
			skill = 4
			attack_skill = 5
			defense_skill = 4
			planning_skill = 2
			logistics_skill = 2
		}
	}
	UKR_anatoly_shevchenko = {
		name = "Anatoly Shevchenko"
		portraits = {
			army = {
				small = "gfx/leaders/UKR/small/Portrait_Anatoly_Shevchenko_small.dds"
			}
			army = {
				large = "gfx/leaders/UKR/Portrait_Anatoly_Shevchenko.dds"
			}
		}
		corps_commander = {
			traits = { panzer_leader }
			skill = 4
			attack_skill = 4
			defense_skill = 4
			planning_skill = 1
			logistics_skill = 4
		}
	}
	UKR_mykhailo_zabrodskyi = {
		name = "Mykhailo Zabrodskyi"
		portraits = {
			army = {
				small = "gfx/leaders/UKR/small/Portrait_Mykhailo_Zabrodskyi_small.dds"
			}
			army = {
				large = "gfx/leaders/UKR/Portrait_Mykhailo_Zabrodskyi.dds"
			}
		}
		advisor = {
			slot = high_command
			idea_token = mykhailo_zabrodskyi
			ledger = army
			allowed = {
				original_tag = UKR
			}
			traits = {
				army_regrouping_2
			}
			cost = 100
			ai_will_do = {
				factor = 1
			}
		}
	}
	UKR_oleksandr_lokota = {
		name = "Oleksandr Lokota"
		portraits = {
			army = {
				small = "gfx/leaders/UKR/small/Portrait_Oleksandr_Lokota_small.dds"
			}
			army = {
				large = "gfx/leaders/UKR/Portrait_Oleksandr_Lokota.dds"
			}
		}
		corps_commander = {
			traits = { trickster ranger }
			skill = 5
			attack_skill = 3
			defense_skill = 5
			planning_skill = 3
			logistics_skill = 5
		}
	}
	UKR_serhiy_drozdov = {
		name = "Serhiy Drozdov"
		portraits = {
			army = {
				small = "gfx/leaders/UKR/small/Portrait_Serhiy_Drozdov_small.dds"
			}
			army = {
				large = "gfx/leaders/UKR/Portrait_Serhiy_Drozdov.dds"
			}
		}
		corps_commander = {
			traits = { trait_engineer }
			skill = 4
			attack_skill = 2
			defense_skill = 3
			planning_skill = 4
			logistics_skill = 4
		}
		advisor = {
			slot = air_chief
			idea_token = serhiy_drozdov
			ledger = air
			allowed = {
				original_tag = UKR
			}
			traits = {
				air_air_combat_training_1
			}
			cost = 100
			ai_will_do = {
				factor = 1
			}
		}
	}
	UKR_serhiy_shaptala = {
		name = "Serhiy Shaptala"
		portraits = {
			army = {
				small = "gfx/leaders/UKR/small/Portrait_Serhiy_Shaptala_small.dds"
			}
			army = {
				large = "gfx/leaders/UKR/Portrait_Serhiy_Shaptala.dds"
			}
		}
		advisor = {
			slot = high_command
			idea_token = serhiy_shaptala
			ledger = army
			allowed = {
				original_tag = UKR
			}
			traits = {
				army_infantry_1
			}
			cost = 100
			ai_will_do = {
				factor = 1
			}
		}
	}
	UKR_vasyl_zubanich = {
		name = "Vasyl Zubanich"
		portraits = {
			army = {
				small = "gfx/leaders/UKR/small/Portrait_Vasyl_Zubanich_small.dds"
			}
			army = {
				large = "gfx/leaders/UKR/Portrait_Vasyl_Zubanich.dds"
			}
		}
		advisor = {
			slot = high_command
			idea_token = vasyl_zubanich
			ledger = army
			allowed = {
				original_tag = UKR
			}
			traits = {
				army_concealment_1
			}
			cost = 100
			ai_will_do = {
				factor = 1
			}
		}
	}
	UKR_viktor_nikolyuk = {
		name = "Viktor Nikolyuk"
		portraits = {
			army = {
				small = "gfx/leaders/UKR/small/Portrait_Viktor_Nikolyuk_small.dds"
			}
			army = {
				large = "gfx/leaders/UKR/Portrait_Viktor_Nikolyuk.dds"
			}
		}
		corps_commander = {
			traits = { artillery_leader }
			skill = 4
			attack_skill = 5
			defense_skill = 3
			planning_skill = 3
			logistics_skill = 2
		}
	}
	UKR_volodymyr_shvorak = {
		name = "Volodymyr Shvorak"
		portraits = {
			army = {
				small = "gfx/leaders/UKR/small/Portrait_Volodymyr_Shvorak_small.dds"
			}
			army = {
				large = "gfx/leaders/UKR/Portrait_Volodymyr_Shvorak.dds"
			}
		}
		corps_commander = {
			traits = { commando trait_reckless }
			skill = 5
			attack_skill = 4
			defense_skill = 4
			planning_skill = 3
			logistics_skill = 5
		}
	}
	UKR_ihor_voronchenko = {
		name = "Ihor Voronchenko"
		portraits = {
			army = {
				small = "gfx/leaders/UKR/small/Portrait_Ihor_Voronchenko_small.dds"
			}
			army = {
				large = "gfx/leaders/UKR/Portrait_Ihor_Voronchenko.dds"
			}
		}
		navy_leader = {
			traits = { old_guard_navy superior_tactician }
			skill = 4
			attack_skill = 3
			defense_skill = 4
			maneuvering_skill = 2
			coordination_skill = 4
		}
		advisor = {
			slot = navy_chief
			idea_token = ihor_voronchenko
			ledger = navy
			allowed = {
				original_tag = UKR
			}
			traits = {
				navy_chief_maneuver_2
			}
			cost = 100
			ai_will_do = {
				factor = 1
			}
		}
	}
}