ideas = {
	country = {

		BOT_model_student_of_africa = {
			allowed = {
				original_tag = BOT
			}

			cancel = {
				OR = {
					has_idea = systematic_corruption
					has_idea = unrestrained_corruption
					has_idea = rampant_corruption
					has_idea = crippling_corruption
					has_idea = paralyzing_corruption
					has_elections = no
				}
			}

			modifier = {
				political_power_gain = 0.10
			}
		}

		BOT_house_of_chiefs = {

			allowed = {
				original_tag = BOT
			}

			modifier = {
				nationalist_drift = 0.01
				stability_factor = 0.05
				custom_modifier_tooltip = BOT_house_of_chiefs_tt
				hidden_modifier = {
					bureaucracy_cost_factor = 0.15
					Military_Spending_cost_factor = 0.15
					crime_fighting_cost_factor = 0.15
					education_budget_cost_factor = 0.15
					health_budget_cost_factor = 0.15
					social_budget_cost_factor = 0.15
					trade_laws_cost_factor = 0.15
					Conscription_Law_cost_factor = 0.15
					Military_Status_Women_cost_factor = 0.15
					Foreign_Intervention_Law_cost_factor = 0.15
					Officer_Training_Law_cost_factor = 0.15
					bureaucracy_cost_multiplier_modifier = 0.05
				}
			}
		}

		BOT_house_of_chiefs_empowered = {

			picture = BOT_house_of_chiefs

			allowed = {
				original_tag = BOT
			}

			modifier = {
				nationalist_drift = 0.03
				stability_factor = 0.10
				custom_modifier_tooltip = BOT_house_of_chiefs_empowered_tt
				hidden_modifier = {
					bureaucracy_cost_factor = 0.20
					Military_Spending_cost_factor = 0.20
					crime_fighting_cost_factor = 0.20
					education_budget_cost_factor = 0.20
					health_budget_cost_factor = 0.20
					social_budget_cost_factor = 0.20
					trade_laws_cost_factor = 0.20
					Conscription_Law_cost_factor = 0.20
					Military_Status_Women_cost_factor = 0.20
					Foreign_Intervention_Law_cost_factor = 0.20
					Officer_Training_Law_cost_factor = 0.20
					bureaucracy_cost_multiplier_modifier = 0.10
				}
			}
		}

		BOT_house_of_chiefs_militarised = {

			picture = BOT_house_of_chiefs

			allowed = {
				original_tag = BOT
			}

			modifier = {
				nationalist_drift = 0.03
				custom_modifier_tooltip = BOT_house_of_chiefs_militarised_tt
				hidden_modifier = {
					bureaucracy_cost_factor = 0.15
					Military_Spending_cost_factor = 0.15
					crime_fighting_cost_factor = 0.15
					education_budget_cost_factor = 0.15
					health_budget_cost_factor = 0.15
					social_budget_cost_factor = 0.15
					trade_laws_cost_factor = 0.15
					Conscription_Law_cost_factor = 0.15
					Military_Status_Women_cost_factor = 0.15
					Foreign_Intervention_Law_cost_factor = 0.15
					Officer_Training_Law_cost_factor = 0.15
					personnel_cost_multiplier_modifier = 0.05
					bureaucracy_cost_multiplier_modifier = 0.10
				}
				conscription = 0.005
			}
		}

		BOT_house_of_chiefs_empowered_and_militarised = {

			picture = BOT_house_of_chiefs

			allowed = {
				original_tag = BOT
			}

			modifier = {
				nationalist_drift = 0.05
				stability_factor = 0.05
				custom_modifier_tooltip = BOT_house_of_chiefs_empowered_and_militarised_tt
				hidden_modifier = {
					bureaucracy_cost_factor = 0.20
					Military_Spending_cost_factor = 0.20
					crime_fighting_cost_factor = 0.20
					education_budget_cost_factor = 0.20
					health_budget_cost_factor = 0.20
					social_budget_cost_factor = 0.20
					trade_laws_cost_factor = 0.20
					Conscription_Law_cost_factor = 0.20
					Military_Status_Women_cost_factor = 0.20
					Foreign_Intervention_Law_cost_factor = 0.20
					Officer_Training_Law_cost_factor = 0.20
					personnel_cost_multiplier_modifier = 0.10
					bureaucracy_cost_multiplier_modifier = 0.10
				}
				conscription = 0.005
			}
		}

		BOT_ancestral_land_conflict = {

			picture = hutu_tutsi_tensions

			allowed = {
				original_tag = BOT
			}

			cancel = {
				NOT = { owns_state = 288 }
			}

			modifier = {
				conscription_factor = -0.03
				stability_factor = -0.05
				nationalist_drift = 0.01
				political_power_factor = -0.05
			}

		}

		BOT_ancestral_land_conflict_escalated = {

			picture = hutu_tutsi_tensions

			allowed = {
				original_tag = BOT
			}

			cancel = {
				NOT = { owns_state = 288 }
			}

			modifier = {
				conscription_factor = -0.03
				stability_factor = -0.10
				nationalist_drift = 0.02
				political_power_factor = -0.10
			}

		}

		BOT_BDP_stronghold = {
			allowed = {
				original_tag = BOT
			}

			cancel = {
				OR = {
					NOT = {
						is_in_array = { ruling_party = 14 }
						is_in_array = { ruling_party = 16 }
					}
					AND = {
						is_in_array = { ruling_party = 16 }
						has_country_flag = BDP_split
					}
				}
			}

			modifier = {
				neutrality_drift = 0.08
				communism_drift = -0.08
				political_power_factor = 0.10
			}
		}

		BOT_zimbabwean_refugees = {

			picture = migrant_crisis_europe

			allowed = {
				original_tag = BOT
			}

			cancel = {
				OR = {
					NOT = { country_exists = ZIM }
					ZIM = { is_subject_of = ROOT }
				}
			}

			modifier = {
				stability_factor = -0.05
				monthly_population = 0.10
				local_resources_factor = 0.05
				production_speed_industrial_complex_factor = 0.10
				police_cost_multiplier_modifier = 0.10
				social_cost_multiplier_modifier = 0.10
			}
		}

		BOT_zimbabwean_refugees_encouraged = {

			picture = migrant_crisis_europe

			allowed = {
				original_tag = BOT
			}

			cancel = {
				OR = {
					NOT = { country_exists = ZIM }
					ZIM = { is_subject_of = ROOT }
				}
			}

			modifier = {
				stability_factor = -0.10
				monthly_population = 0.25
				local_resources_factor = 0.10
				production_speed_industrial_complex_factor = 0.15
				police_cost_multiplier_modifier = 0.10
				social_cost_multiplier_modifier = 0.10
			}
		}

		BOT_ilea = {

			picture = army_war_college

			allowed = {
				original_tag = BOT
			}

			cancel = {
			}

			modifier = {
				police_cost_multiplier_modifier = -0.05
			}
		}

		BOT_extra_school_funding = {

			picture = duplicate_research

			allowed = {
				original_tag = BOT
			}

			cancel = {
			}

			modifier = {
				research_speed_factor = 0.05
				education_cost_multiplier_modifier = 0.05
			}
		}

		BOT_school_fees = {

			picture = duplicate_research

			allowed = {
				original_tag = BOT
			}

			cancel = {
			}

			modifier = {
				political_power_factor = -0.10
				education_cost_multiplier_modifier = -0.10
			}
		}

		#Kalahari Desertification
		BOT_kalahari_expansion_1 = {

			name = BOT_kalahari_expansion

			picture = BOT_kalahari_expansion

			allowed = {
				original_tag = BOT
			}

			cancel = {
				NOT = { owns_state = 288 }
			}

			modifier = {
				stability_factor = -0.03
				production_speed_buildings_factor = 0.05
				monthly_population = -0.02
				global_building_slots_factor = -0.03
			}
		}
		BOT_kalahari_expansion_2 = {

			name = BOT_kalahari_expansion

			picture = BOT_kalahari_expansion

			allowed = {
				original_tag = BOT
			}

			cancel = {
				NOT = { owns_state = 288 }
			}

			modifier = {
				stability_factor = -0.06
				production_speed_buildings_factor = 0.10
				monthly_population = -0.04
				global_building_slots_factor = -0.06
			}
		}
		BOT_kalahari_expansion_3 = {

			name = BOT_kalahari_expansion

			picture = BOT_kalahari_expansion

			allowed = {
				original_tag = BOT
			}

			cancel = {
				NOT = { owns_state = 288 }
			}

			modifier = {
				stability_factor = -0.09
				production_speed_buildings_factor = 0.15
				monthly_population = -0.06
				global_building_slots_factor = -0.09
			}
		}
		BOT_kalahari_expansion_4 = {

			name = BOT_kalahari_expansion

			picture = BOT_kalahari_expansion

			allowed = {
				original_tag = BOT
			}

			cancel = {
				NOT = { owns_state = 288 }
			}

			modifier = {
				stability_factor = -0.12
				production_speed_buildings_factor = 0.20
				monthly_population = -0.08
				global_building_slots_factor = -0.12
			}
		}
		BOT_kalahari_expansion_5 = {

			name = BOT_kalahari_expansion

			picture = BOT_kalahari_expansion

			allowed = {
				original_tag = BOT
			}

			cancel = {
				NOT = { owns_state = 288 }
			}

			modifier = {
				stability_factor = -0.15
				production_speed_buildings_factor = 0.25
				monthly_population = -0.10
				global_building_slots_factor = -0.15
			}
		}
		BOT_kalahari_expansion_6 = {

			name = BOT_kalahari_expansion

			picture = BOT_kalahari_expansion

			allowed = {
				original_tag = BOT
			}

			cancel = {
				NOT = { owns_state = 288 }
			}

			modifier = {
				stability_factor = -0.18
				production_speed_buildings_factor = 0.30
				monthly_population = -0.12
				global_building_slots_factor = -0.18
			}
		}
		BOT_kalahari_expansion_7 = {

			name = BOT_kalahari_expansion

			picture = BOT_kalahari_expansion

			allowed = {
				original_tag = BOT
			}

			cancel = {
				NOT = { owns_state = 288 }
			}

			modifier = {
				stability_factor = -0.21
				production_speed_buildings_factor = 0.35
				monthly_population = -0.14
				global_building_slots_factor = -0.21
			}
		}
		BOT_kalahari_expansion_8 = {

			name = BOT_kalahari_expansion

			picture = BOT_kalahari_expansion

			allowed = {
				original_tag = BOT
			}

			cancel = {
				NOT = { owns_state = 288 }
			}

			modifier = {
				stability_factor = -0.24
				production_speed_buildings_factor = 0.40
				monthly_population = -0.16
				global_building_slots_factor = -0.24
			}
		}
		BOT_kalahari_expansion_9 = {

			name = BOT_kalahari_expansion

			picture = BOT_kalahari_expansion

			allowed = {
				original_tag = BOT
			}

			cancel = {
				NOT = { owns_state = 288 }
			}

			modifier = {
				stability_factor = -0.27
				production_speed_buildings_factor = 0.45
				monthly_population = -0.18
				global_building_slots_factor = -0.27
			}
		}
		BOT_kalahari_expansion_10 = {

			name = BOT_kalahari_expansion

			picture = BOT_kalahari_expansion

			allowed = {
				original_tag = BOT
			}

			cancel = {
				NOT = { owns_state = 288 }
			}

			modifier = {
				stability_factor = -0.30
				production_speed_buildings_factor = 0.50
				monthly_population = -0.20
				global_building_slots_factor = -0.30
			}
		}

		BOT_coal_focused_energy = {

			picture = coal

			allowed = {
				original_tag = BOT
			}

			modifier = {
				production_speed_buildings_factor = 0.05
				fossil_pp_energy_generation_modifier = 0.03
				custom_modifier_tooltip = BOT_coal_focused_energy_tt
			}

		}

		BOT_coal_focused_energy_self_sufficient = {

			picture = coal

			allowed = {
				original_tag = BOT
			}

			modifier = {
				production_speed_buildings_factor = 0.10
				fossil_pp_energy_generation_modifier = 0.05
				#custom_modifier_tooltip = BOT_coal_focused_energy_tt
			}

		}

		BOT_coal_focused_energy_small_profit = {

			picture = coal

			allowed = {
				original_tag = BOT
			}

			modifier = {
				production_speed_buildings_factor = 0.15
				fossil_pp_energy_generation_modifier = 0.07
				custom_modifier_tooltip = BOT_coal_focused_energy_small_profit_tt
			}

		}

		BOT_coal_focused_energy_rich = {

			picture = coal

			allowed = {
				original_tag = BOT
			}

			modifier = {
				political_power_factor = 0.05
				production_speed_buildings_factor = 0.20
				fossil_pp_energy_generation_modifier = 0.09
				custom_modifier_tooltip = BOT_coal_focused_energy_rich_tt
			}

		}

		BOT_renewable_focused_energy = {

			picture = sustainable_development

			allowed = {
				original_tag = BOT
			}

			modifier = {
				production_speed_buildings_factor = 0.05
				renewable_energy_gain_multiplier = 0.02
				custom_modifier_tooltip = BOT_coal_focused_energy_tt
			}

		}


		BOT_renewable_focused_energy_self_sufficient = {

			picture = sustainable_development

			allowed = {
				original_tag = BOT
			}

			modifier = {
				production_speed_buildings_factor = 0.10
				renewable_energy_gain_multiplier = 0.05
				#custom_modifier_tooltip = BOT_coal_focused_energy_tt
			}

		}

		BOT_renewable_focused_energy_small_profit = {

			picture = sustainable_development

			allowed = {
				original_tag = BOT
			}

			modifier = {
				production_speed_buildings_factor = 0.15
				renewable_energy_gain_multiplier = 0.07
				custom_modifier_tooltip = BOT_renewable_focused_energy_small_profit_tt
			}

		}

		BOT_renewable_focused_energy_rich = {

			picture = sustainable_development

			allowed = {
				original_tag = BOT
			}

			modifier = {
				political_power_factor = 0.05
				production_speed_buildings_factor = 0.20
				renewable_energy_gain_multiplier = 0.09
				custom_modifier_tooltip = BOT_renewable_focused_energy_rich_tt
			}

		}

		BOT_found_BIUST_research_boost = {

			picture = research_bonus

			allowed = {
				original_tag = BOT
			}

			research_bonus = {
				CAT_ai = 0.10
				CAT_nfibers = 0.10
				CAT_3d = 0.10
				CAT_satellite = 0.10
			}
		}

		BOT_found_UBSOM_research_boost = {

			picture = duplicate_research

			allowed = {
				original_tag = BOT
			}

			research_bonus = {
				CAT_genes = 0.20
			}
		}

	}

	army_spirit = {

		BOT_army_against_poaching = {
			ledger = army
			allowed = {
				original_tag = BOT
			}
			visible = {
				original_tag = BOT
			}
			available = {
				has_completed_focus = BOT_anti_poaching_army
			}

			modifier = {
				custom_modifier_tooltip = BOT_army_against_poaching_tt
				hidden_modifier = {
					personnel_cost_multiplier_modifier = -0.10
					police_cost_multiplier_modifier = 0.10
				}
				stability_factor = 0.15
				army_org_factor = -0.15
				army_core_attack_factor = 0.05
				army_core_defence_factor = 0.05
			}
			ai_will_do = {
				factor = 1
			}
		}

		BOT_army_of_peacekeepers = {
			allowed = {
				original_tag = BOT
			}
			visible = {
				original_tag = BOT
			}
			available = {
				has_completed_focus = BOT_peacekeeping_army
			}

			modifier = {
				political_power_factor = -0.15
				send_volunteers_tension = -0.20
				send_volunteer_divisions_required = -0.5
				send_volunteer_size = 1
			}
		}

		#Replaced by professional_officer_corps_spirit army_spirit
		# BOT_professional_military = {

			# allowed = {
				# original_tag = BOT
			# }

			# cancel = {
			# }

			# modifier = {
				# custom_modifier_tooltip = BOT_professional_military_tt
				# army_org_factor = 0.10
				# army_morale_factor = 0.10
			# }
		# }
	}
}