
ideas = {
	country = {
		Rohingya_Crisis = {
			on_add = { log = "[GetDateText]: [Root.GetName]: add idea Rohingya_Crisis" }

			picture = Rohingya_Crisis

			allowed = {
				original_tag = BRM
			}

			modifier = {
				stability_factor = -0.03
				war_support_factor = 0.02
				trade_opinion_factor = -0.25
			}
		}

		Ethnic_Insurgencies = {
			on_add = { log = "[GetDateText]: [Root.GetName]: add idea Ethnic_Insurgencies" }

			picture = Ethnic_Insurgencies

			modifier = {
				stability_factor = -0.1
				war_support_factor = 0.05
				production_speed_buildings_factor = -0.1
				political_power_gain = -0.1
				local_resources_factor = -0.2
			}
		}

		Democracy_Movement = {
			on_add = { log = "[GetDateText]: [Root.GetName]: add idea Democracy_Movement" }

			picture = generic_democratic_drift_bonus

			allowed = {
				original_tag = BRM
			}

			modifier = {
				neutrality_drift = 0.1
				nationalist_drift = -0.1
				communism_drift = -0.1
			}
		}

		A_Political_Military = {
			on_add = { log = "[GetDateText]: [Root.GetName]: add idea A_Political_Military" }

			picture = reserve_divisions

			allowed = {
				original_tag = BRM
			}

			modifier = {
				nationalist_drift = 0.1
				democratic_drift = -0.05
				political_power_gain = -0.1
				corruption_cost_factor = 0.25
				internal_factions_cost_factor = 5
			}
		}

		Fortress_Myanmar = {
			on_add = { log = "[GetDateText]: [Root.GetName]: add idea Fortress_Myanmar" }

			picture = generic_fortify_the_borders

			allowed = {
				original_tag = BRM
			}

			modifier = {
				production_speed_bunker_factor = 0.1
				production_speed_arms_factory_factor = 0.1
			}
		}

		Bolster_The_Navy = {
			on_add = { log = "[GetDateText]: [Root.GetName]: add idea Bolster_The_Navy" }

			picture = navy_bonus

			allowed = {
			}

			modifier = {
				industrial_capacity_dockyard = 0.1
				production_speed_dockyard_factor = 0.1

			}
		}

		Bolster_The_Airforce = {
			on_add = { log = "[GetDateText]: [Root.GetName]: add idea Bolster_The_Airforce" }
			picture = fighter_production_increase

			allowed = { always = no }

			equipment_bonus = {
				medium_plane_fighter_airframe = {
					instant = yes
					build_cost_ic = -0.07
				}
				small_plane_airframe = {
					instant = yes
					build_cost_ic = -0.07
				}
				small_plane_strike_airframe = {
					instant = yes
					build_cost_ic = -0.07
				}
				cv_small_plane_strike_airframe = {
					instant = yes
					build_cost_ic = -0.07
				}
				medium_plane_airframe = {
					instant = yes
					build_cost_ic = -0.07
				}
				cv_medium_plane_airframe = {
					instant = yes
					build_cost_ic = -0.07
				}
			}
		}

		Western_Sanctions = {
			on_add = { log = "[GetDateText]: [Root.GetName]: add idea Western_Sanctions" }

			picture = budapest_memorandum

			allowed = {
				original_tag = BRM
			}

			modifier = {
				stability_factor = -0.02
				political_power_gain = -0.1
				trade_opinion_factor = -0.50
				production_speed_buildings_factor = -0.4
				resource_export_multiplier_modifier = -0.50
			}
		}

		Reduced_Western_Sanctions = {
			on_add = { log = "[GetDateText]: [Root.GetName]: add idea Reduced_Western_Sanctions" }

			picture = international_treaty2

			allowed = {
					original_tag = BRM
			}

			modifier = {
				stability_factor = -0.01
				political_power_gain = -0.05
				production_speed_buildings_factor = -0.20
				trade_opinion_factor = -0.10
				resource_export_multiplier_modifier = -0.20
			}
		}

		Massive_International_Sanctions = {
			on_add = { log = "[GetDateText]: [Root.GetName]: add idea Massive_International_Sanctions" }

			picture = international_treaty

			modifier = {
				stability_factor = -0.10
				political_power_gain = -0.25
				production_speed_buildings_factor = -0.6
				trade_opinion_factor = -0.75
				resource_export_multiplier_modifier = -0.75
			}
		}

		Struggle_for_power = {
			on_add = { log = "[GetDateText]: [Root.GetName]: add idea Struggle_for_power" }

			picture = great_depression

			allowed = {
				original_tag = BRM
			}

			modifier = {
				stability_weekly = -0.005
				political_power_gain = -0.1
				war_support_weekly = -0.005
			}
		}

		Anti_tatmadaw_sentiment = {
			on_add = { log = "[GetDateText]: [Root.GetName]: add idea Anti_tatmadaw_sentiment" }

			allowed = {
					original_tag = BRM
			}

			picture = scw_intervention_rep

			modifier = {
				stability_weekly = -0.001
				war_support_weekly = -0.001
				conscription_factor = -0.05
				nationalist_drift = -0.02
				production_speed_buildings_factor = -0.1
			}
		}

		State_led_economy = {
			on_add = { log = "[GetDateText]: [Root.GetName]: add idea State_led_economy" }

			picture = State_led_economy

			allowed = {
					original_tag = BRM
			}

			modifier = {
				political_power_gain = -0.1
				production_speed_buildings_factor = 0.10
				consumer_goods_factor = -0.02
				production_factory_efficiency_gain_factor = 0.2
				production_factory_start_efficiency_factor = 0.1
			}
		}

		Buddhism_Official = {
			on_add = { log = "[GetDateText]: [Root.GetName]: add idea Buddhism_Official" }
			allowed = {
					original_tag = BRM
			}

			picture = state_religion_buddhism

			modifier = {
				political_power_gain = -0.2
				stability_weekly = -0.005
				nationalist_drift = 0.02
			}
		}

		The_Anti_Kachin_Offensive = {
			on_add = { log = "[GetDateText]: [Root.GetName]: add idea The_Anti_Kachin_Offensive" }

			picture = The_Anti_Kachin_Offensive

			modifier = {
				war_support_weekly = 0.01
			}

			targeted_modifier = {
					tag = KAC
					attack_bonus_against = 0.3
					defense_bonus_against = 0.3
			}
		}

		The_Anti_Karen_Offensive = {
			on_add = { log = "[GetDateText]: [Root.GetName]: add idea The_Anti_Karen_Offensive" }

			picture = The_Anti_Karen_Offensive

			modifier = {
				war_support_weekly = 0.01
			}

			targeted_modifier = {
					tag = KAR
					attack_bonus_against = 0.3
					defense_bonus_against = 0.3
			}
		}

		The_Anti_Shan_Offensive = {
			on_add = { log = "[GetDateText]: [Root.GetName]: add idea The_Anti_Shan_Offensive" }

			picture = The_Anti_Shan_Offensive

			modifier = {
				war_support_weekly = 0.01
			}

			targeted_modifier = {
					tag = SHN
					attack_bonus_against = 0.3
					defense_bonus_against = 0.3
			}

			targeted_modifier = {
					tag = NHN
					attack_bonus_against = 0.3
					defense_bonus_against = 0.3
			}
		}

		The_Anti_Wa_Offensive = {
			on_add = { log = "[GetDateText]: [Root.GetName]: add idea The_Anti_Wa_Offensive" }

			picture = The_Anti_Wa_Offensive

			modifier = {
				war_support_weekly = 0.01
			}

			targeted_modifier = {
					tag = WAA
					attack_bonus_against = 0.3
					defense_bonus_against = 0.3
			}
		}

		Chinese_Involvement = {
			on_add = { log = "[GetDateText]: [Root.GetName]: add idea Chinese_Involvement" }

			picture = chi_chinese_unity

			modifier = {
				max_dig_in = 0.25
				production_speed_buildings_factor = 0.25
				local_resources_factor = 0.25
			}
		}

		Low_Chinese_Involvement = {
			on_add = { log = "[GetDateText]: [Root.GetName]: add idea Low_Chinese_Involvement" }

			picture = chi_chinese_unity

			modifier = {
				max_dig_in = 0.1
				production_speed_buildings_factor = 0.1
				local_resources_factor = 0.1
			}
		}

		Disrupted_Chinese_Involvement = {
			on_add = { log = "[GetDateText]: [Root.GetName]: add idea Disrupted_Chinese_Involvement" }

			picture = chi_chinese_unity

			modifier = {
				max_dig_in = 0.05
				production_speed_buildings_factor = 0.05
				local_resources_factor = 0.05
			}
		}

		Strategic_Capital = {
			on_add = { log = "[GetDateText]: [Root.GetName]: add idea Strategic_Capital" }

			picture = political_power_bonus

			modifier = {
				max_dig_in = 0.1
				command_power_gain = 0.1
			}
		}

		Nationwide_Ceasefire_Agreement = {
			on_add = { log = "[GetDateText]: [Root.GetName]: add idea Nationwide_Ceasefire_Agreement" }

			picture = national_unity

			modifier = {
				stability_factor = 0.05
				political_power_factor = 0.1
				conscription_factor = -0.05
			}
		}

		WAA_Narcotics_Producer = {
			on_add = { log = "[GetDateText]: [Root.GetName]: add idea WAA_Narcotics_Producer" }

			picture = cartels

			modifier = {
				stability_factor = -0.02
				political_power_factor = 0.25
				custom_modifier_tooltip = WAA_Narcotics_Producer_idea_tt
			}
		}

		BRM_promote_civilian_enterprises_research_boost = {

			picture = GENERIC_public_works

			allowed = {
				original_tag = BRM
			}

			research_bonus = {
				industry = 0.10
			}
		}

		BRM_improve_security_cooperation_with_asean_research_boost = {

			picture = wargaming

			allowed = {
				original_tag = BRM
			}

			modifier = {
				land_doctrine_cost_factor = -0.10
			}
		}

		BRM_loan_refactoring_idea = {
			picture = economic_increase
			allowed = { original_tag = BRM }
			allowed_civil_war = { original_tag = BRM }

			modifier = {
				interest_rate_multiplier_modifier = -2
			}
		}
	}
}
