﻿### European NAME LISTS ###

EUU_member_states = {
	name = "EU Member States"
	for_countries = { ALB ARM AUS AZE BEL BLR BOS BUL CAT CRE CRO CYP CZE DEN ENG EST FIN FRA FYR GEO GER GRE HOL HUN ICE IRE ITA KOS LAT LIT LUX MLT MLV MNT NOR POL POR ROM SCL SCO SER SLO SLV SPR SWE SWI TUR UKR WAS }
	can_use = {
		OR = {
			has_country_flag = USoE
			has_idea = EU_member
		}
	 }
	type = ship
	#link_numbering_with = { EUU_eu_pioneers = { }
	prefix = "ENV "
	fallback_name = "European Naval Vessel %d"
	ordered = {
		1 = { "Austria" }
		2 = { "Belgium" }
		3 = { "Bulgaria" }
		4 = { "Croatia" }
		5 = { "Cyprus" }
		6 = { "Czech Republic" }
		7 = { "Denmark" }
		8 = { "Estonia" }
		9 = { "Finland" }
		10 = { "France" }
		11 = { "Germany" }
		12 = { "Greece" }
		13 = { "Hungary" }
		14 = { "Ireland" }
		15 = { "Italy" }
		16 = { "Lithuania" }
		17 = { "Luxembourg" }
		18 = { "Latvia" }
		19 = { "Malta" }
		20 = { "Netherlands" }
		21 = { "Poland" }
		22 = { "Portugal" }
		23 = { "Romania" }
		24 = { "Spain" }
		25 = { "Sweden" }
		26 = { "Slovenia" }
		27 = { "Slovakia" }
		28 = { "Great Britain" }
		29 = { "Albania" }
		30 = { "Armenia" }
		31 = { "Azerbaijan" }
		32 = { "Belarus" }
		33 = { "Bosnia and Herzegovina" }
		34 = { "Georgia" }
		35 = { "Iceland" }
		36 = { "Kosovo" }
		37 = { "Moldova" }
		38 = { "Montenegro" }
		39 = { "North Macedonia" }
		40 = { "Norway" }
		41 = { "Serbia" }
		42 = { "Switzerland" }
		43 = { "Turkey" }
		44 = { "Ukraine" }
		45 = { "Scotland" }
		46 = { "Wales" }
		47 = { "Catalonia" }
		48 = { "Sicily" }
		49 = { "Crete" }
	}
}

EUU_regions = {
	name = "European Regions"
	for_countries = { ALB ARM AUS AZE BEL BLR BOS BUL CAT CRE CRO CYP CZE DEN ENG EST FIN FRA FYR GEO GER GRE HOL HUN ICE IRE ITA KOS LAT LIT LUX MLT MLV MNT NOR POL POR ROM SCL SCO SER SLO SLV SPR SWE SWI TUR UKR WAS }
	can_use = {
		OR = {
			has_country_flag = USoE
			has_idea = EU_member
		}
	 }
	type = ship
	#link_numbering_with = { EUU_eu_pioneers = { }
	prefix = "ENV "
	fallback_name = "European Naval Vessel %d"
	ordered = {
		1 = { "Bavaria" }
		2 = { "Piedmont" }
		3 = { "Tuscany" }
		4 = { "Banat" }
		5 = { "Baranya" }
		6 = { "Aragon" }
		7 = { "Franconia" }
		8 = { "Swabia" }
		9 = { "Bohemia" }
		10 = { "Brandenburg" }
		11 = { "Burgenland" }
		12 = { "Carinthia" }
		13 = { "Carniola" }
		14 = { "Crisana" }
		15 = { "Dalmatia" }
		16 = { "Dobruja" }
		17 = { "Galicia" }
		18 = { "Cumania" }
		19 = { "Istria" }
		20 = { "Samogitia" }
		21 = { "Masovia" }
		22 = { "Masuria" }
		23 = { "Moldavia" }
		24 = { "Bessarabia" }
		25 = { "Bukovina" }
		26 = { "Moravia" }
		27 = { "Orava" }
		28 = { "Partium" }
		29 = { "Podlasie" }
		30 = { "Podolia" }
		31 = { "Polesie" }
		32 = { "Pomerania" }
		33 = { "Prussia" }
		34 = { "Ruthenia" }
		35 = { "Saxony" }
		36 = { "Silesia" }
		37 = { "Slavonia" }
		38 = { "Styria" }
		39 = { "Sudovia" }
		40 = { "Syrmia" }
		41 = { "Thuringia" }
		42 = { "Transdanubia" }
		43 = { "Transnistria" }
		44 = { "Transylvania" }
		45 = { "Tyrol" }
		46 = { "Trentino" }
		47 = { "Wallachia" }
		48 = { "Warmia" }
		49 = { "Brittany" }
		50 = { "Alsace‎ " }
		51 = { "Burgundy‎" }
		52 = { "Champagne" }
		53 = { "Flanders‎" }
		54 = { "Wallonia" }
		55 = { "Dauphiné" }
		56 = { "Lorraine‎" }
		57 = { "Gascony" }
		58 = { "Languedoc‎" }
		59 = { "Lyonnais‎" }
		60 = { "Normandy‎" }
		61 = { "Orléanais‎" }
		62 = { "Provence‎" }
		63 = { "Andalusia" }
		64 = { "Galicia" }
		65 = { "Castile and León" }
		66 = { "Veneto" }
		67 = { "Extremadura" }
		68 = { "Asturias" }
		69 = { "Navarre" }
		70 = { "Lazio" }
		71 = { "Lombardy" }
		72 = { "Lower Austria" }
		73 = { "Upper Austria" }
		74 = { "Bačka" }
		75 = { "Emilia-Romagna" }
		76 = { "Campania" }
		77 = { "Calabria" }
		78 = { "Apulia" }
		79 = { "Liguria" }
		80 = { "Attica" }
		81 = { "Epirus" }
		82 = { "Peloponnese" }
		83 = { "Macedonia" }
		84 = { "Götaland" }
		85 = { "Svealand" }
		86 = { "Norrland" }
		87 = { "Rhineland" }
		88 = { "Westphalia" }
		89 = { "Brabant" }
		90 = { "Jutland" }
		91 = { "Algarve" }
		92 = { "Beira" }
		93 = { "Alentejo" }
		94 = { "Lapland" }
		95 = { "Karelia" }
		96 = { "Savonia" }
		97 = { "Ostrobothnia" }
		98 = { "Nassau" }
		99 = { "Palatinate" }
		100 = { "Schleswig-Holstein" }
	}
}


EUU_european_cities = {
	name = "European Cities"
	for_countries = { ALB ARM AUS AZE BEL BLR BOS BUL CAT CRE CRO CYP CZE DEN ENG EST FIN FRA FYR GEO GER GRE HOL HUN ICE IRE ITA KOS LAT LIT LUX MLT MLV MNT NOR POL POR ROM SCL SCO SER SLO SLV SPR SWE SWI TUR UKR WAS }
	can_use = {
		OR = {
			has_country_flag = USoE
			has_idea = EU_member
		}
	 }
	type = ship
	#link_numbering_with = { EUU_eu_pioneers = { }
	prefix = "ENV "
	fallback_name = "European Naval Vessel %d"
	ordered = {
		1 = { "Berlin" }
		2 = { "Madrid" }
		3 = { "Rome" }
		4 = { "Bucharest" }
		5 = { "Paris" }
		6 = { "Vienna" }
		7 = { "Hamburg" }
		8 = { "Warsaw" }
		9 = { "Budapest" }
		10 = { "Barcelona" }
		11 = { "Munich" }
		12 = { "Milan" }
		13 = { "Prague" }
		14 = { "Sofia" }
		15 = { "Cologne" }
		16 = { "Stockholm" }
		17 = { "Naples" }
		18 = { "Turin" }
		19 = { "Amsterdam" }
		20 = { "Marseille" }
		21 = { "Zagreb" }
		22 = { "Copenhagen" }
		23 = { "Valencia" }
		24 = { "Kraków" }
		25 = { "Frankfurt" }
		26 = { "Seville" }
		27 = { "Łódź" }
		28 = { "Zaragoza" }
		29 = { "Athens" }
		30 = { "Palermo" }
		31 = { "Rotterdam" }
		32 = { "Helsinki" }
		33 = { "Wrocław" }
		34 = { "Stuttgart" }
		35 = { "Riga" }
		36 = { "Düsseldorf" }
		37 = { "Vilnius" }
		38 = { "Leipzig" }
		39 = { "Dortmund" }
		40 = { "Essen" }
		41 = { "Gothenburg" }
		42 = { "Genoa" }
		43 = { "Málaga" }
		44 = { "Bremen" }
		45 = { "Dresden" }
		46 = { "Dublin" }
		47 = { "The Hague" }
		48 = { "Hanover" }
		49 = { "Poznań" }
		50 = { "Antwerp" }
		51 = { "Nuremberg" }
		52 = { "Lyon" }
		53 = { "Lisbon" }
		54 = { "Duisburg" }
		55 = { "Toulouse" }
		56 = { "Gdańsk" }
		57 = { "Murcia" }
		58 = { "Tallinn" }
		59 = { "Bratislava" }
		60 = { "Palma de Mallorca" }
		61 = { "Szczecin" }
		62 = { "Bologna" }
		63 = { "Brno" }
		64 = { "Iași" }
		65 = { "Florence" }
		66 = { "Las Palmas" }
		67 = { "Bochum" }
		68 = { "Utrecht" }
		69 = { "Wuppertal" }
		70 = { "Aarhus" }
		71 = { "Bydgoszcz" }
		72 = { "Plovdiv" }
		73 = { "Bilbao" }
		74 = { "Malmö" }
		75 = { "Nice" }
		76 = { "Lublin" }
		77 = { "Varna" }
		78 = { "Bielefeld" }
		79 = { "Alicante" }
		80 = { "Timișoara" }
		81 = { "Bonn" }
		82 = { "Córdoba" }
		83 = { "Thessaloniki" }
		84 = { "Cluj-Napoca" }
		85 = { "Bari" }
		86 = { "Constanța" }
		87 = { "Münster" }
		88 = { "Karlsruhe" }
		89 = { "Catania" }
		90 = { "Mannheim" }
		91 = { "Nantes" }
		92 = { "Craiova" }
		93 = { "Galați" }
		94 = { "Kyiv" }
		95 = { "Kharkiv" }
		96 = { "Odessa" }
		97 = { "Istanbul" }
		98 = { "Tekirdağ" }
		99 = { "Belgrade" }
		100 = { "Minsk" }
	}
}

EUU_european_islands = {
	name = "European Islands"
	for_countries = { ALB ARM AUS AZE BEL BLR BOS BUL CAT CRE CRO CYP CZE DEN ENG EST FIN FRA FYR GEO GER GRE HOL HUN ICE IRE ITA KOS LAT LIT LUX MLT MLV MNT NOR POL POR ROM SCL SCO SER SLO SLV SPR SWE SWI TUR UKR WAS }
	can_use = {
		OR = {
			has_country_flag = USoE
			has_idea = EU_member
		}
	 }
	type = ship
	#link_numbering_with = { EUU_eu_pioneers = { }
	prefix = "ENV "
	fallback_name = "European Naval Vessel %d"
	ordered = {
		1 = { "Sicily" }
		2 = { "Zealand" }
		3 = { "Sardinia" }
		4 = { "Tenerife" }
		5 = { "Majorca" }
		6 = { "Gran Canaria" }
		7 = { "Södertörn" }
		8 = { "Crete" }
		9 = { "Fyn" }
		10 = { "IJsselmonde" }
		11 = { "Flevopolder" }
		12 = { "Vendsyssel-Thy" }
		13 = { "Heligoland" }
		14 = { "Corsica" }
		15 = { "Madeira" }
		16 = { "Euboea" }
		17 = { "Portsea Island" }
		18 = { "Vasilievsky Island" }
		19 = { "Amager" }
		20 = { "Hisingen" }
		21 = { "Lanzarote" }
		22 = { "São Miguel Island" }
		23 = { "Ibiza" }
		24 = { "Isle of Wight" }
		25 = { "Rhodes" }
		26 = { "Corfu" }
		27 = { "Fuerteventura" }
		28 = { "Södermalm" }
		29 = { "Menorca" }
		30 = { "Lesbos Island " }
		31 = { "Jersey" }
		32 = { "La Palma" }
		33 = { "Isle of Man" }
		34 = { "Usedom" }
		35 = { "Rügen" }
		36 = { "Anglesey" }
		37 = { "Lolland" }
		38 = { "Guernsey" }
		39 = { "Venice" }
		40 = { "Kungsholmen" }
		41 = { "Värmdö" }
		42 = { "Gotland" }
		43 = { "Ischia" }
		44 = { "Terceira Island" }
		45 = { "Chios " }
		46 = { "Als" }
		47 = { "Chioggia" }
		48 = { "Lidingö" }
		49 = { "Falster" }
		50 = { "Bornholm" }
		51 = { "Kotlin Island" }
		52 = { "Kefalonia" }
		53 = { "Zakynthos" }
		54 = { "Saaremaa" }
		55 = { "Salamis Island" }
		56 = { "Isle of Sheppey" }
		57 = { "Canvey Island" }
		58 = { "Tromsøya" }
		59 = { "Samos " }
		60 = { "Hinnøya" }
		61 = { "Elba" }
		62 = { "Gozo" }
		63 = { "Kos " }
		64 = { "Öland" }
		65 = { "Karmøy" }
		66 = { "Askøy" }
		67 = { "Fasta Åland" }
		68 = { "Lauttasaari" }
		69 = { "Lefkada" }
		70 = { "Streymoy" }
		71 = { "Mors" }
		72 = { "Gdańsk" }
		73 = { "Sylt" }
		74 = { "La Gomera" }
		75 = { "Oléron" }
		76 = { "Lido di Venezia" }
		77 = { "Syros" }
		78 = { "Lewis and Harris" }
		79 = { "Stord" }
		80 = { "Nøtterøy" }
		81 = { "Naxos" }
		82 = { "Wolin" }
		83 = { "Krk" }
		84 = { "Shetland Islands" }
		85 = { "Lemnos" }
		86 = { "Hayling Island" }
		87 = { "Kalymnos " }
		88 = { "Korčula" }
		89 = { "Langøya" }
		90 = { "Ekerö" }
		91 = { "Sotra" }
		92 = { "Orkney Islands" }
		93 = { "Faial Island" }
		94 = { "Île de Ré" }
		95 = { "Pico Island" }
		96 = { "Hammarö" }
		97 = { "Orust" }
		98 = { "Brač" }
		99 = { "Tjörn" }
		100 = { "Langeland" }
		101 = { "Thasos" }
		102 = { "Texel" }
		103 = { "Mykonos" }
		104 = { "Aegina" }
		105 = { "Fehmarn" }
		106 = { "Great Island" }
		107 = { "Paros" }
		108 = { "Capri" }
		109 = { "Formentera" }
		110 = { "Jeløya" }
		111 = { "Santorini" }
		112 = { "Sant'Antioco" }
		113 = { "Walney Island" }
		114 = { "Hvar" }
		115 = { "Hiiumaa" }
		116 = { "Lipari" }
		117 = { "Eysturoy" }
		118 = { "Vestvågøy" }
		119 = { "Procida" }
		120 = { "El Hierro" }
		121 = { "Frösö" }
		122 = { "São Jorge Island" }
		123 = { "Møn" }
		124 = { "Kvaløya" }
	}
}

EUU_historic_leaders = {
	name = "Historic European Leaders"
	for_countries = { ALB ARM AUS AZE BEL BLR BOS BUL CAT CRE CRO CYP CZE DEN ENG EST FIN FRA FYR GEO GER GRE HOL HUN ICE IRE ITA KOS LAT LIT LUX MLT MLV MNT NOR POL POR ROM SCL SCO SER SLO SLV SPR SWE SWI TUR UKR WAS }
	can_use = {
		OR = {
			has_country_flag = USoE
			has_idea = EU_member
		}
	 }
	type = ship
	#link_numbering_with = { EUU_eu_pioneers = { }
	prefix = "ENV "
	fallback_name = "European Naval Vessel %d"
	ordered = {
		1 = { "Alexander the Great" }
		2 = { "Julius Caesar" }
		3 = { "Augustus" }
		4 = { "Constantine the Great" }
		5 = { "Clovis" }
		6 = { "Charlemagne" }
		7 = { "Ferdinand and Isabella" }
		8 = { "Charles V" }
		9 = { "Elizabeth" }
		10 = { "Frederick the Great" }
		11 = { "Napoleon Bonaparte" }
		12 = { "Otto von Bismarck" }
		13 = { "Richelieu" }
		14 = { "Victoria" }
		15 = { "Maria Theresa" }
		16 = { "Prince Eugene" }
		17 = { "Charles Martel" }
		18 = { "John III Sobieski" }
		19 = { "Themistocles" }
		20 = { "Leonidas" }
		21 = { "Charles XII" }
		22 = { "Gustav II Adolph" }
		23 = { "William the Conqueror" }
		24 = { "Richard the Lionheart" }
		25 = { "Giuseppe Garibaldi" }
		26 = { "Arminius" }
	}
}


EUU_eu_pioneers = {
	name = "EU Pioneers"
	for_countries = { ALB ARM AUS AZE BEL BLR BOS BUL CAT CRE CRO CYP CZE DEN ENG EST FIN FRA FYR GEO GER GRE HOL HUN ICE IRE ITA KOS LAT LIT LUX MLT MLV MNT NOR POL POR ROM SCL SCO SER SLO SLV SPR SWE SWI TUR UKR WAS }
	can_use = {
		OR = {
			has_country_flag = USoE
			has_idea = EU_member
		}
	 }
	type = ship
	#link_numbering_with = { EUU_eu_pioneers = { }
	prefix = "ENV "
	fallback_name = "European Naval Vessel %d"
	ordered = {
		1 = { "Konrad Adenauer" }
		2 = { "Winston Churchill" }
		3 = { "Charles de Gaulle" }
		4 = { "Theo Waigel" }
		5 = { "Alcide De Gasperi" }
		6 = { "Ursula Hirschmann" }
		7 = { "Nilde Iotti" }
		8 = { "Marga Klompé" }
		9 = { "Anna Lindh" }
		10 = { "Sicco Mansholt" }
		11 = { "Melina Mercouri" }
		12 = { "Jean Monnet" }
		13 = { "Paul-Henri Spaak" }
		14 = { "Altiero Spinelli" }
		15 = { "Louise Weiss" }
		16 = { "Joseph Bech" }
		17 = { "Johan Willem Beyen" }
		18 = { "Richard von Coudenhove-Kalergi" }
		19 = { "Giuseppe Mazzini" }
		20 = { "Victor Hugo" }
		21 = { "Milan Hodža" }
		22 = { "Lorenzo Natali" }
		23 = { "Willy Brandt" }
		24 = { "Jean-Paul de Dadelsen" }
		25 = { "George C. Marshall" }
		26 = { "Amintore Fanfani" }
		27 = { "Eugen Kogon" }
		28 = { "Theodore de Korwin Szymanowski" }
		29 = { "Alexandre Marc" }
		30 = { "Józef Retinger" }
		31 = { "Denis de Rougemont" }
		32 = { "Arthur Salter" }
		33 = { "Duncan Sandys" }
		34 = { "Max Waechter" }
	}
}

EUU_commission_president = {
	name = "President of the European Commission"
	for_countries = { ALB ARM AUS AZE BEL BLR BOS BUL CAT CRE CRO CYP CZE DEN ENG EST FIN FRA FYR GEO GER GRE HOL HUN ICE IRE ITA KOS LAT LIT LUX MLT MLV MNT NOR POL POR ROM SCL SCO SER SLO SLV SPR SWE SWI TUR UKR WAS }
	can_use = {
		OR = {
			has_country_flag = USoE
			has_idea = EU_member
		}
	 }
	type = ship
	#link_numbering_with = { EUU_eu_pioneers = { }
	prefix = "ENV "
	fallback_name = "European Naval Vessel %d"
	ordered = {
		1 = { "Walter Hallstein" }
		2 = { "Jean Rey" }
		3 = { "Franco Maria Malfatti" }
		4 = { "Sicco Mansholt" }
		5 = { "François-Xavier Ortoli" }
		6 = { "Roy Jenkins" }
		7 = { "Gaston Thorn" }
		8 = { "Jacques Delors" }
		9 = { "Jacques Santer" }
		10 = { "Manuel Marín" }
		11 = { "Romano Prodi" }
		12 = { "José Manuel Barroso" }
		13 = { "Jean-Claude Juncker" }
		14 = { "Ursula von der Leyen" }
	}
}

EUU_council_president = {
	name = "President of the European Council"
	for_countries = { ALB ARM AUS AZE BEL BLR BOS BUL CAT CRE CRO CYP CZE DEN ENG EST FIN FRA FYR GEO GER GRE HOL HUN ICE IRE ITA KOS LAT LIT LUX MLT MLV MNT NOR POL POR ROM SCL SCO SER SLO SLV SPR SWE SWI TUR UKR WAS }
	can_use = {
		OR = {
			has_country_flag = USoE
			has_idea = EU_member
		}
	 }
	type = ship
	#link_numbering_with = { EUU_eu_pioneers = { }
	prefix = "ENV "
	fallback_name = "European Naval Vessel %d"
	ordered = {
		1 = { "Herman Van Rompuy" }
		2 = { "Donald Tusk" }
		3 = { "Charles Michel" }
		4 = { "François Mitterrand" }
		5 = { "Helmut Kohl" }
		6 = { "Margaret Thatcher" }
		7 = { "Helmut Schmidt" }
		8 = { "Pierre Werner" }
		9 = { "Valéry Giscard d'Estaing" }
		10 = { "Liam Cosgrave" }
		11 = { "Aldo Moro" }
		12 = { "Anders Fogh Rasmussen" }
		13 = { "Andreas Papandreou" }
		14 = { "Gaston Thorn" }
		15 = { "Aníbal Cavaco Silva" }
		16 = { "Anker Jørgensen" }
		17 = { "António Guterres" }
		18 = { "Bertie Ahern" }
		19 = { "Bettino Craxi" }
		20 = { "Charles Haughey" }
		21 = { "Angela Merkel" }
		22 = { "Costas Simitis" }
		23 = { "Dries van Agt" }
		24 = { "Felipe González" }
		25 = { "Francesco Cossiga" }
		26 = { "Fredrik Reinfeldt" }
		27 = { "Garret FitzGerald" }
		28 = { "Gerhard Schröder" }
		29 = { "Giulio Andreotti" }
		30 = { "Göran Persson" }
		31 = { "Guy Verhofstadt" }
		32 = { "Jack Lynch" }
		33 = { "Jacques Chirac" }
		34 = { "Jacques Santer" }
		35 = { "James Callaghan" }
		36 = { "Jan Fischer" }
		37 = { "Jan Peter Balkenende" }
		38 = { "Janez Janša" }
		39 = { "Jean-Luc Dehaene" }
		40 = { "John Bruton" }
		41 = { "John Major" }
		42 = { "Joop den Uyl" }
		43 = { "José María Aznar López" }
		44 = { "José Sócrates" }
		45 = { "Lamberto Dini" }
		46 = { "Leo Tindemans" }
		47 = { "Matti Vanhanen" }
		48 = { "Mirek Topolánek" }
		49 = { "Nicolas Sarkozy" }
		50 = { "Paavo Lipponen" }
		51 = { "Poul Nyrup Rasmussen" }
		52 = { "Poul Schlüter" }
		53 = { "Romano Prodi" }
		54 = { "Ruud Lubbers" }
		55 = { "Silvio Berlusconi" }
		56 = { "Tony Blair" }
		57 = { "Viktor Klima" }
		58 = { "Wilfried Martens" }
		59 = { "Wim Kok" }
		60 = { "Wolfgang Schüssel" }
	}
}

EUU_parliament_president = {
	name = "President of the European Parliament"
	for_countries = { ALB ARM AUS AZE BEL BLR BOS BUL CAT CRE CRO CYP CZE DEN ENG EST FIN FRA FYR GEO GER GRE HOL HUN ICE IRE ITA KOS LAT LIT LUX MLT MLV MNT NOR POL POR ROM SCL SCO SER SLO SLV SPR SWE SWI TUR UKR WAS }
	can_use = {
		OR = {
			has_country_flag = USoE
			has_idea = EU_member
		}
	 }
	type = ship
	#link_numbering_with = { EUU_eu_pioneers = { }
	prefix = "ENV "
	fallback_name = "European Naval Vessel %d"
	ordered = {
		1 = { "Robert Schuman" }
		2 = { "Hans Furler" }
		3 = { "Gaetano Martino" }
		4 = { "Jean Duvieusart" }
		5 = { "Victor Leemans" }
		6 = { "Alain Poher" }
		7 = { "Mario Scelba" }
		8 = { "Walter Behrendt" }
		9 = { "Cornelis Berkhouwer" }
		10 = { "Georges Spénale" }
		11 = { "Emilio Colombo" }
		12 = { "Simone Veil" }
		13 = { "Piet Dankert" }
		14 = { "Pierre Pflimlin" }
		15 = { "Henry Plumb" }
		16 = { "Enrique Barón Crespo" }
		17 = { "Egon Klepsch" }
		18 = { "Klaus Hänsch" }
		19 = { "José María Gil-Robles" }
		20 = { "Nicole Fontaine" }
		21 = { "Pat Cox" }
		22 = { "Josep Borrell" }
		23 = { "Hans-Gert Pöttering" }
		24 = { "Jerzy Buzek" }
		25 = { "Martin Schulz" }
		26 = { "Antonio Tajani" }
		27 = { "David Sassoli" }
	}
}

EUU_ecb_president = {
	name = "ECB Presidents"
	for_countries = { ALB ARM AUS AZE BEL BLR BOS BUL CAT CRE CRO CYP CZE DEN ENG EST FIN FRA FYR GEO GER GRE HOL HUN ICE IRE ITA KOS LAT LIT LUX MLT MLV MNT NOR POL POR ROM SCL SCO SER SLO SLV SPR SWE SWI TUR UKR WAS }
	can_use = {
		OR = {
			has_country_flag = USoE
			has_idea = EU_member
		}
	 }
	type = ship
	#link_numbering_with = { EUU_eu_pioneers = { }
	prefix = "ENV "
	fallback_name = "European Naval Vessel %d"
	ordered = {
		1 = { "Wim Duisenberg" }
		2 = { "Jean-Claude Trichet" }
		3 = { "Mario Draghi" }
		4 = { "Christine Lagarde" }
		5 = { "Christian Noyer" }
		6 = { "Lucas Papademos" }
		7 = { "Vítor Constâncio" }
		8 = { "Luis de Guindos" }
	}
}

EUU_diplomats = {
	name = "EU Diplomats"
	for_countries = { ALB ARM AUS AZE BEL BLR BOS BUL CAT CRE CRO CYP CZE DEN ENG EST FIN FRA FYR GEO GER GRE HOL HUN ICE IRE ITA KOS LAT LIT LUX MLT MLV MNT NOR POL POR ROM SCL SCO SER SLO SLV SPR SWE SWI TUR UKR WAS }
	can_use = {
		OR = {
			has_country_flag = USoE
			has_idea = EU_member
		}
	 }
	type = ship
	#link_numbering_with = { EUU_eu_pioneers = { }
	prefix = "ENV "
	fallback_name = "European Naval Vessel %d"
	ordered = {
		1 = { "Jürgen Trumpf" }
		2 = { "Javier Solana" }
		3 = { "Catherine Ashton" }
		4 = { "Federica Mogherini" }
		5 = { "Josep Borrell" }
		6 = { "João Vale de Almeida" }
		7 = { "Olof Skoog" }
		8 = { "Maria Angela Zappia" }
		9 = { "Peter Sørensen" }
		10 = { "Györgyi Margit Martin Zanathy" }
		11 = { "Stephan Klement" }
	}
}

EUU_scientists = {
	name = "European Scientists"
	for_countries = { ALB ARM AUS AZE BEL BLR BOS BUL CAT CRE CRO CYP CZE DEN ENG EST FIN FRA FYR GEO GER GRE HOL HUN ICE IRE ITA KOS LAT LIT LUX MLT MLV MNT NOR POL POR ROM SCL SCO SER SLO SLV SPR SWE SWI TUR UKR WAS }
	can_use = {
		OR = {
			has_country_flag = USoE
			has_idea = EU_member
		}
	 }
	type = ship
	#link_numbering_with = { EUU_eu_pioneers = { }
	prefix = "ENV "
	fallback_name = "European Naval Vessel %d"
	ordered = {
		1 = { "Einstein" }
		2 = { "Galileo Galilei" }
		3 = { "Newton" }
		4 = { "Curie" }
		5 = { "Maxwell" }
		6 = { "Faraday" }
		7 = { "Darwin" }
		8 = { "Pasteur" }
		9 = { "Aristotle" }
		10 = { "Tesla" }
		11 = { "Bohr" }
		12 = { "Hawking" }
		13 = { "Archimedes" }
		14 = { "Leonardo da Vinci" }
		15 = { "Dalton" }
		16 = { "Copernicus" }
		17 = { "Mendel" }
		18 = { "Planck" }
		19 = { "Rutherford" }
		20 = { "Berners-Lee" }
		21 = { "Kepler" }
		22 = { "Volta" }
		23 = { "Kelvin" }
		24 = { "Fleming" }
		25 = { "Franklin" }
		26 = { "Euclid" }
		27 = { "Descartes" }
		28 = { "Pascal" }
		29 = { "Nobel" }
		30 = { "Freud" }
		31 = { "Schrödinger" }
		32 = { "Fermi" }
		33 = { "Heisenberg" }
		34 = { "Crick" }
		35 = { "Pythagoras" }
		36 = { "Hippocrates" }
		37 = { "Huygens" }
		38 = { "Cavendish" }
		39 = { "Laplace" }
		40 = { "Ampère" }
		41 = { "Gauss" }
		42 = { "Ohm" }
		43 = { "Joule" }
		44 = { "Röntgen" }
		45 = { "J.J. Thomson" }
		46 = { "Hertz" }
		47 = { "Hahn" }
		48 = { "Teller" }
		49 = { "Brahe" }
		50 = { "Leibniz" }
		51 = { "Coulomb" }
		52 = { "Watt" }
		53 = { "Gay-Lussac" }
		54 = { "Bunsen" }
		55 = { "Robert Koch" }
		56 = { "Paul Ehrlich" }
		57 = { "Fritz Haber" }
		58 = { "Alan M. Turing" }
		59 = { "Fahrenheit" }
		60 = { "Celsius" }
		61 = { "Messier" }
		62 = { "Lagrange" }
		63 = { "Humboldt" }
		64 = { "Helmholtz" }
		65 = { "Becquerel" }
		66 = { "Diesel" }
		67 = { "Marconi" }
		68 = { "Szilard" }
		69 = { "John von Neumann" }
		70 = { "Bethe" }
		71 = { "Chadwic" }
		72 = { "Meitner" }
		73 = { "Wernher von Braun" }
		74 = { "Higgs" }
		75 = { "Penrose" }
		76 = { "Graf Zeppelin" }
		77 = { "Carl Benz" }
		78 = { "Zuse" }
		79 = { "Johannes Gutenberg" }
		80 = { "Erasmus" }
		81 = { "Paracelsus" }
		82 = { "Kant" }
	}
}

EUU_generals = {
	name = "European Generals"
	for_countries = { ALB ARM AUS AZE BEL BLR BOS BUL CAT CRE CRO CYP CZE DEN ENG EST FIN FRA FYR GEO GER GRE HOL HUN ICE IRE ITA KOS LAT LIT LUX MLT MLV MNT NOR POL POR ROM SCL SCO SER SLO SLV SPR SWE SWI TUR UKR WAS }
	can_use = {
		OR = {
			has_country_flag = USoE
			has_idea = EU_member
		}
	 }
	type = ship
	#link_numbering_with = { EUU_eu_pioneers = { }
	prefix = "ENV "
	fallback_name = "European Naval Vessel %d"
	ordered = {
		1 = { "Foch" }
		2 = { "Moltke" }
		3 = { "Rommel" }
		4 = { "Mannerheim" }
		5 = { "Montgomery" }
		6 = { "Wellington" }
		7 = { "Marlborough" }
		8 = { "Clausewitz" }
		9 = { "Prince Friedrich Karl" }
		10 = { "Black Prince" }
		11 = { "Michel Ney" }
		12 = { "Blücher" }
		13 = { "Schwarzenberg" }
		14 = { "Zieten" }
		15 = { "Schwerin" }
		16 = { "Farnese" }
		17 = { "Montecuccoli" }
		18 = { "Joffre" }
		19 = { "Alexander of Tunis" }
		20 = { "Wallenstein" }
		21 = { "El Cid" }
		22 = { "Scipio Africanus" }
		23 = { "Skanderbeg" }
		24 = { "William Wallace" }
		25 = { "Jeanne d'Arc" }
		26 = { "Flavius Aetius" }
		27 = { "Radetzky" }
		28 = { "de Lattre" }
		29 = { "Mackensen" }
		30 = { "Pizarro" }
		31 = { "Gneisenau" }
		32 = { "Scharnhorst" }
		33 = { "Leclerc" }
		34 = { "Rupprecht of Bavaria" }
	}
}

EUU_admirals = {
	name = "European Admirals"
	for_countries = { ALB ARM AUS AZE BEL BLR BOS BUL CAT CRE CRO CYP CZE DEN ENG EST FIN FRA FYR GEO GER GRE HOL HUN ICE IRE ITA KOS LAT LIT LUX MLT MLV MNT NOR POL POR ROM SCL SCO SER SLO SLV SPR SWE SWI TUR UKR WAS }
	can_use = {
		OR = {
			has_country_flag = USoE
			has_idea = EU_member
		}
	 }
	type = ship
	#link_numbering_with = { EUU_eu_pioneers = { }
	prefix = "ENV "
	fallback_name = "European Naval Vessel %d"
	ordered = {
		1 = { "Nelson" }
		2 = { "Andrea Doria" }
		3 = { "De Ruyter" }
		4 = { "Francis Drake" }
		5 = { "Comte de Tourville" }
		6 = { "Hood" }
		7 = { "Maarten Tromp" }
		8 = { "Piet Hein" }
		9 = { "Suffren" }
		10 = { "Tirpitz" }
		11 = { "Hipper" }
		12 = { "Scheer" }
		13 = { "Rodney" }
		14 = { "Anson" }
		15 = { "Howe" }
		16 = { "De Bazán" }
		17 = { "Cunningham" }
		18 = { "Somerville" }
	}
}

EUU_greek_mythology = {
	name = "Greek Mythology"
	for_countries = { ALB ARM AUS AZE BEL BLR BOS BUL CAT CRE CRO CYP CZE DEN ENG EST FIN FRA FYR GEO GER GRE HOL HUN ICE IRE ITA KOS LAT LIT LUX MLT MLV MNT NOR POL POR ROM SCL SCO SER SLO SLV SPR SWE SWI TUR UKR WAS }
	can_use = {
		OR = {
			has_country_flag = USoE
			has_idea = EU_member
		}
	 }
	type = ship
	#link_numbering_with = { EUU_eu_pioneers = { }
	prefix = "ENV "
	fallback_name = "European Naval Vessel %d"
	ordered = {
		1 = { "Zeus" }
		2 = { "Hera" }
		3 = { "Poseidon" }
		4 = { "Apollo" }
		5 = { "Ares" }
		6 = { "Artemis" }
		7 = { "Athena" }
		8 = { "Hermes" }
		9 = { "Demeter" }
		10 = { "Dionysus" }
		11 = { "Hephaestus" }
		12 = { "Aphrodite" }
		13 = { "Asteria" }
		14 = { "Astraeus" }
		15 = { "Atlas" }
		16 = { "Cronus" }
		17 = { "Hecate" }
		18 = { "Helius" }
		19 = { "Hyperion" }
		20 = { "Iapetus" }
		21 = { "Leto" }
		22 = { "Oceanus" }
		23 = { "Pallas" }
		24 = { "Perses" }
		25 = { "Phoebe" }
		26 = { "Prometheus" }
		27 = { "Rhea" }
		28 = { "Selene" }
		29 = { "Styx" }
		30 = { "Tethys" }
		31 = { "Theia" }
		32 = { "Themis" }
		33 = { "Nemesis" }
		34 = { "Phobos" }
		35 = { "Heracles" }
		36 = { "Theseus" }
		37 = { "Bellerophon" }
		38 = { "Jason" }
		39 = { "Centaur" }
		40 = { "Odysseus" }
		41 = { "Cerberus" }
		42 = { "Perseus" }
		43 = { "Chimaera" }
		44 = { "Argonaut" }
		45 = { "Cyclopes" }
		46 = { "Harpy" }
		47 = { "Hydra" }
		48 = { "Medusa" }
		49 = { "Minotaur" }
		50 = { "Phoenix" }
		51 = { "Pegasus" }
		52 = { "Python" }
		53 = { "Scylla" }
		54 = { "Siren" }
		55 = { "Sphinx" }
		56 = { "Talos" }
		57 = { "Amphitryon" }
		58 = { "Typhon" }
		59 = { "Orion" }
		60 = { "Manticore" }
		61 = { "Triton" }
		62 = { "Nike" }
		63 = { "Daedalus" }
		64 = { "Icarus" }
		65 = { "Pandora" }
		66 = { "Cassandra" }
		67 = { "Hades" }
		68 = { "Chaos" }
		69 = { "Gaia" }
	}
}

EUU_roman_mythology = {
	name = "Roman Mythology"
	for_countries = { ALB ARM AUS AZE BEL BLR BOS BUL CAT CRE CRO CYP CZE DEN ENG EST FIN FRA FYR GEO GER GRE HOL HUN ICE IRE ITA KOS LAT LIT LUX MLT MLV MNT NOR POL POR ROM SCL SCO SER SLO SLV SPR SWE SWI TUR UKR WAS }
	can_use = {
		OR = {
			has_country_flag = USoE
			has_idea = EU_member
		}
	 }
	type = ship
	#link_numbering_with = { EUU_eu_pioneers = { }
	prefix = "ENV "
	fallback_name = "European Naval Vessel %d"
	ordered = {
		1 = { "Jupiter" }
		2 = { "Juno" }
		3 = { "Neptune" }
		4 = { "Mars" }
		5 = { "Diana" }
		6 = { "Minerva" }
		7 = { "Venus" }
		8 = { "Mercury" }
		9 = { "Vulcan" }
		10 = { "Ceres" }
		11 = { "Liber" }
		12 = { "Pax" }
		13 = { "Concordia" }
		14 = { "Vesta" }
		15 = { "Terror" }
		16 = { "Fortuna" }
		17 = { "Latona" }
		18 = { "Justitia" }
		19 = { "Saturn" }
		20 = { "Aurora" }
		21 = { "Sol" }
		22 = { "Luna" }
		23 = { "Invictus" }
		24 = { "Flora" }
		25 = { "Furina" }
		26 = { "Bacchus" }
		27 = { "Nox" }
		28 = { "Pluto" }
		29 = { "Salacia" }
		30 = { "Securitas" }
		31 = { "Veritas" }
		32 = { "Terra" }
	}
}

EUU_nordic_mythology = {
	name = "Nordic Mythology"
	for_countries = { ALB ARM AUS AZE BEL BLR BOS BUL CAT CRE CRO CYP CZE DEN ENG EST FIN FRA FYR GEO GER GRE HOL HUN ICE IRE ITA KOS LAT LIT LUX MLT MLV MNT NOR POL POR ROM SCL SCO SER SLO SLV SPR SWE SWI TUR UKR WAS }
	can_use = {
		OR = {
			has_country_flag = USoE
			has_idea = EU_member
		}
	 }
	type = ship
	#link_numbering_with = { EUU_eu_pioneers = { }
	prefix = "ENV "
	fallback_name = "European Naval Vessel %d"
	ordered = {
		1 = { "Asgard" }
		2 = { "Odin" }
		3 = { "Thor" }
		4 = { "Baldur" }
		5 = { "Frigg" }
		6 = { "Heimdall" }
		7 = { "Tyr" }
		8 = { "Hermod" }
		9 = { "Hoenir" }
		10 = { "Forseti" }
		11 = { "Freya" }
		12 = { "Freyr" }
		13 = { "Njord" }
		14 = { "Nerthus" }
		15 = { "Ragnarok" }
		16 = { "Ymir" }
		17 = { "Fenrir" }
		18 = { "Aegir" }
		19 = { "Yggdrasil" }
		20 = { "Skoll" }
		21 = { "Hati" }
		22 = { "Garm" }
		23 = { "Gungnir" }
		24 = { "Gleipnir" }
		25 = { "Valkyrie" }
		26 = { "Valhalla" }
		27 = { "Hugin and Munin" }
		28 = { "Ask and Embla" }
		29 = { "Midgard" }
		30 = { "Kvasir" }
	}
}

EUU_legends = {
	name = "European Legends"
	for_countries = { ALB ARM AUS AZE BEL BLR BOS BUL CAT CRE CRO CYP CZE DEN ENG EST FIN FRA FYR GEO GER GRE HOL HUN ICE IRE ITA KOS LAT LIT LUX MLT MLV MNT NOR POL POR ROM SCL SCO SER SLO SLV SPR SWE SWI TUR UKR WAS }
	can_use = {
		OR = {
			has_country_flag = USoE
			has_idea = EU_member
		}
	 }
	type = ship
	#link_numbering_with = { EUU_eu_pioneers = { }
	prefix = "ENV "
	fallback_name = "European Naval Vessel %d"
	ordered = {
		1 = { "King Arthur" }
		2 = { "Lancelot" }
		3 = { "Galahad" }
		4 = { "Gawain" }
		5 = { "Percival" }
		6 = { "Tristan" }
		7 = { "Bedivere" }
		8 = { "Mordred" }
		9 = { "Knights of the Round Table" }
		10 = { "Holy Grail" }
		11 = { "Avalon" }
		12 = { "Guinevere" }
		13 = { "Uther Pendragon" }
		14 = { "Morgan le Fay" }
		15 = { "Excalibur" }
		16 = { "Lady of the Lake" }
		17 = { "Camelot" }
		18 = { "Merlin" }
		19 = { "Nibelung" }
		20 = { "Siegfried" }
		21 = { "Kriemhild" }
		22 = { "Brunhild" }
		23 = { "Hagen" }
		24 = { "Gunther" }
		25 = { "Theodoric" }
		26 = { "Hildebrand" }
		27 = { "Giselher" }
		28 = { "Rüdiger" }
		29 = { "Alberich" }
		30 = { "Nibelung" }
		31 = { "Balmung" }
		32 = { "Robin Hood" }
		33 = { "Ivanhoe" }
		34 = { "Little John" }
		35 = { "Maid Marian" }
		36 = { "Friar Tuck" }
		37 = { "Beowulf" }
		38 = { "Grendel" }
		39 = { "Roland" }
		40 = { "Unicorn" }
		41 = { "Leviathan" }
		42 = { "Behemoth" }
	}
}

