defined_text = {
	name = threat_level_flag
	text = { trigger = { has_country_flag = threat_level_negligible }
		localization_key = threat_level_negligible_loc
	}
	text = { trigger = { has_country_flag = threat_level_low }
		localization_key = threat_level_low_loc
	}
	text = { trigger = { has_country_flag = threat_level_moderate }
		localization_key = threat_level_moderate_loc
	}
	text = { trigger = { has_country_flag = threat_level_substantial }
		localization_key = threat_level_substantial_loc
	}
	text = { trigger = { has_country_flag = threat_level_severe }
		localization_key = threat_level_severe_loc
	}
	text = { trigger = { has_country_flag = threat_level_critical }
		localization_key = threat_level_critical_loc
	}
}

defined_text = {
	name = radicalization_loc
	text = { trigger = { check_variable = { radicalization < 10 } }
		localization_key = radicalization_negligible
	}
	text = {
		trigger = {
			check_variable = { radicalization > 9 }
			check_variable = { radicalization < 30 }
		}
		localization_key = radicalization_low
	}
	text = {
		trigger = {
			check_variable = { radicalization > 29 }
			check_variable = { radicalization < 50 }
		}
		localization_key = radicalization_significant
	}
	text = {
		trigger = {
			check_variable = { radicalization > 49 }
		}
		localization_key = radicalization_high
	}
}

defined_text = {
	name = LBA_threat_level_flag

	text = {
		trigger = {
			if = {
				limit = { country_exists = LBA }
				LBA = { has_country_flag = threat_level_negligible }
			}
			else_if = {
				limit = {
					NOT = { country_exists = LBA }
					country_exists = GNA
				}
				GNA = { has_country_flag = threat_level_negligible }
			}
			else_if = {
				limit = {
					NOT = { country_exists = GNA }
					country_exists = HOR
				}
				HOR = { has_country_flag = threat_level_negligible }
			}
		}
		localization_key = threat_level_negligible
	}

	text = {
		trigger = {
			if = {
				limit = { country_exists = LBA }
				LBA = { has_country_flag = threat_level_low }
			}
			else_if = {
				limit = {
					NOT = { country_exists = LBA }
					country_exists = GNA
				}
				GNA = { has_country_flag = threat_level_low }
			}
			else_if = {
				limit = {
					NOT = { country_exists = GNA }
					country_exists = HOR
				}
				HOR = { has_country_flag = threat_level_low }
			}
		}
		localization_key = threat_level_low
	}

	text = {
		trigger = {
			if = {
				limit = { country_exists = LBA }
				LBA = { has_country_flag = threat_level_moderate }
			}
			else_if = {
				limit = {
					NOT = { country_exists = LBA }
					country_exists = GNA
				}
				GNA = { has_country_flag = threat_level_moderate }
			}
			else_if = {
				limit = {
					NOT = { country_exists = GNA }
					country_exists = HOR
				}
				HOR = { has_country_flag = threat_level_moderate }
			}
		}
		localization_key = threat_level_moderate
	}

	text = {
		trigger = {
			if = {
				limit = { country_exists = LBA }
				LBA = { has_country_flag = threat_level_substantial }
			}
			else_if = {
				limit = {
					NOT = { country_exists = LBA }
					country_exists = GNA
				}
				GNA = { has_country_flag = threat_level_substantial }
			}
			else_if = {
				limit = {
					NOT = { country_exists = GNA }
					country_exists = HOR
				}
				HOR = { has_country_flag = threat_level_substantial }
			}
		}
		localization_key = threat_level_substantial
	}

	text = {
		trigger = {
			if = {
				limit = { country_exists = LBA }
				LBA = { has_country_flag = threat_level_severe }
			}
			else_if = {
				limit = {
					NOT = { country_exists = LBA }
					country_exists = GNA
				}
				GNA = { has_country_flag = threat_level_severe }
			}
			else_if = {
				limit = {
					NOT = { country_exists = GNA }
					country_exists = HOR
				}
				HOR = { has_country_flag = threat_level_severe }
			}
		}
		localization_key = threat_level_severe
	}

	text = {
		trigger = {
			if = {
				limit = { country_exists = LBA }
				LBA = { has_country_flag = threat_level_critical }
			}
			else_if = {
				limit = {
					NOT = { country_exists = LBA }
					country_exists = GNA
				}
				GNA = { has_country_flag = threat_level_critical }
			}
			else_if = {
				limit = {
					NOT = { country_exists = GNA }
					country_exists = HOR
				}
				HOR = { has_country_flag = threat_level_critical }
			}
		}
		localization_key = threat_level_critical
	}
}

defined_text = {
	name = LBA_radicalization

	text = {
		trigger = {
			if = {
				limit = { country_exists = LBA }
				LBA = { check_variable = { radicalization < 10 } }
			}
			else_if = {
				limit = {
					NOT = { country_exists = LBA }
					country_exists = GNA
				}
				GNA = { check_variable = { radicalization < 10 } }
			}
			else_if = {
				limit = {
					NOT = { country_exists = GNA }
					country_exists = HOR
				}
				HOR = { check_variable = { radicalization < 10 } }
			}
		}
		localization_key = radicalization_negligible
	}

	text = {
		trigger = {
			if = {
				limit = { country_exists = LBA }
				LBA = {
					check_variable = { radicalization > 9 }
					check_variable = { radicalization < 30 }
				}
			}
			else_if = {
				limit = {
					NOT = { country_exists = LBA }
					country_exists = GNA
				}
				GNA = {
					check_variable = { radicalization > 9 }
					check_variable = { radicalization < 30 }
				}
			}
			else_if = {
				limit = {
					NOT = { country_exists = GNA }
					country_exists = HOR
				}
				HOR = {
					check_variable = { radicalization > 9 }
					check_variable = { radicalization < 30 }
				}
			}
		}
		localization_key = radicalization_low
	}

	text = {
		trigger = {
			if = {
				limit = { country_exists = LBA }
				LBA = {
					check_variable = { radicalization > 29 }
					check_variable = { radicalization < 50 }
				}
			}
			else_if = {
				limit = {
					NOT = { country_exists = LBA }
					country_exists = GNA
				}
				GNA = {
					check_variable = { radicalization > 29 }
					check_variable = { radicalization < 50 }
				}
			}
			else_if = {
				limit = {
					NOT = { country_exists = GNA }
					country_exists = HOR
				}
				HOR = {
					check_variable = { radicalization > 29 }
					check_variable = { radicalization < 50 }
				}
			}
		}
		localization_key = radicalization_significant
	}

	text = {
		trigger = {
			if = {
				limit = { country_exists = LBA }
				LBA = {
					check_variable = { radicalization > 49 }
				}
			}
			else_if = {
				limit = {
					NOT = { country_exists = LBA }
					country_exists = GNA
				}
				GNA = {
					check_variable = { radicalization > 49 }
				}
			}
			else_if = {
				limit = {
					NOT = { country_exists = GNA }
					country_exists = HOR
				}
				HOR = {
					check_variable = { radicalization > 49 }
				}
			}
		}
		localization_key = radicalization_high
	}
}
