state = {
	id = 1073
	name = "STATE_1073"

	history = {
		owner = PER
		add_core_of = PER
		victory_points = {
			14622 5
		}
		victory_points = {
			4637 2
		}
		victory_points = {
			14623 1
		}
		buildings = {
			infrastructure = 1
			internet_station = 1
			4609 = {
				naval_base = 3

			}
		}
		2017.1.1 = {
			add_manpower = 149633
		}
	}

	provinces = {
		4609 4637 14618 14619 14622 14623
	}
	manpower = 2380000
	buildings_max_level_factor = 1.000
	state_category = state_02
}