state = {
	id = 570
	name = "STATE_570"
	manpower = 53725269
	state_category = state_17

	resources = {
		aluminium = 1
		tungsten = 7
	}

	history = {
		owner = CHI
		victory_points = {
			4619 10
		}
		victory_points = {
			1036 3
		}
		victory_points = {
			4631 1
		}
		victory_points = {
			12467 1
		}
		victory_points = {
			7167 1
		}
		victory_points = {
			10462 1
		}
		victory_points = {
			4130 1
		}
		victory_points = {
			7625 1
		}
		victory_points = {
			10757 5
		}
		victory_points = {
			12086 5
		}
		victory_points = {
			4009 5
		}
		victory_points = {
			7019 5
		}
		victory_points = {
			9934 1
		}
		victory_points = {
			5030 1
		}
		victory_points = {
			12414 1
		}
		victory_points = {
			1612 1
		}
		victory_points = {
			7609 1
		}
		victory_points = {
			7637 1
		}
		buildings = {
			infrastructure = 2
			internet_station = 1
			industrial_complex = 5
			arms_factory = 2
			offices = 1
			air_base = 10
			missile_silo = 1
		}
		add_core_of = CHI
		add_core_of = TAI
		2017.1.1 = {
			add_manpower = 2000000
			add_manpower = 2000000
			add_manpower = 1402304
			buildings = {
				industrial_complex = 7
				arms_factory = 5
				offices = 2
				infrastructure = 3
				internet_station = 4
				missile_silo = 3
			}
		}
	}

	provinces = {
		1036 1612 4009 4130 4619 4631 5030 7019 7167 7201 7580 7596 7609 7625 7637 8072 9934 9959 10462 10474 10757 12086 12408 12414 12467 3095 3098 3106 3135 14031 14032
	}
}