#Written by Hiddengearz
technologies = {

	@1965 = 0
	@1985 = 2
	@2005 = 4
	@2025 = 6
	@2035 = 8

	#Y Axis
	@row1 = -4
	@row2 = 0
	@row3 = 4
	@row4 = 8
	@row5 = 12
	@row6 = 16
	@row7 = 20

	#1965
	Anti_tank_0 = {
		on_research_complete = { log = "[GetDateText]: [Root.GetName]: add tech Anti_tank_0" }

		enable_equipments = {
			Anti_tank_0
		}
		enable_equipment_modules = {
			helicopter_atgm_gen1
			helicopter_multiple_atgm_gen1
		}

		path = {
			leads_to_tech = AT_upgrade_1
			research_cost_coeff = 1
		}

		sub_technologies = {
			Heavy_Anti_tank_0
		}

		research_cost = 1.3
		start_year = 1965

		folder = {
			name = artillery_folder
			position = { x = 10 y = @1965 }
		}

		categories = {
			CAT_inf
			CAT_at
			CAT_l_at
		}

		ai_will_do = {
			factor = 20
		}
	}
	#1965
	Heavy_Anti_tank_0 = {
		on_research_complete = { log = "[GetDateText]: [Root.GetName]: add tech Heavy_Anti_tank_0" }

		enable_equipments = {
			Heavy_Anti_tank_0
		}
		enable_equipment_modules = {
			smoothbore_atgm_gen1
			afv_atgm_gen1
			helicopter_heavy_atgm_gen1
		}

		research_cost = 1.6

		categories = {
			CAT_at
			CAT_h_at
		}

		ai_will_do = {
			factor = 1
		}
	}
	#1985
	AT_upgrade_1 = {
		on_research_complete = { log = "[GetDateText]: [Root.GetName]: add tech AT_upgrade_1" }

		category_all_infantry = {
			hard_attack = 0.05
		}
		category_tanks = {
			hard_attack = 0.05
		}

		path = {
			leads_to_tech = Anti_tank_1
			research_cost_coeff = 1
		}

		research_cost = 1
		xp_research_type = army
		xp_boost_cost = 50
		xp_research_bonus = 1.50
		start_year = 1980

		folder = {
			name = artillery_folder
			position = { x = 10 y = @1985 }
		}

		categories = {
			CAT_at
		}

		ai_will_do = {
			factor = 1
		}
	}
	#2005
	AT_upgrade_2 = {
		on_research_complete = { log = "[GetDateText]: [Root.GetName]: add tech AT_upgrade_2" }

		category_all_infantry = {
			defense = 0.05
		}
		category_tanks = {
			defense = 0.05
		}

		path = {
			leads_to_tech = Anti_tank_2
			research_cost_coeff = 1
		}

		research_cost = 1
		start_year = 2000
		xp_research_type = army
		xp_boost_cost = 50
		xp_research_bonus = 1.50

		folder = {
			name = artillery_folder
			position = { x = 10 y = @2005 }
		}

		categories = {
			CAT_at
		}

		ai_will_do = {
			factor = 1
		}
	}
	#2025
	AT_upgrade_3 = {
		on_research_complete = { log = "[GetDateText]: [Root.GetName]: add tech AT_upgrade_3" }

		category_all_infantry = {
			breakthrough = 0.05
		}
		category_tanks = {
			breakthrough = 0.05
		}

		path = {
			leads_to_tech = Anti_tank_3
			research_cost_coeff = 1
		}

		research_cost = 1
		start_year = 2020
		xp_research_type = army
		xp_boost_cost = 50
		xp_research_bonus = 1.50

		folder = {
			name = artillery_folder
			position = { x = 9 y = @2025 }
		}

		categories = {
			CAT_at
		}

		ai_will_do = {
			factor = 1
			modifier = {
				factor = 0.5
				date < 2025.01.01
			}
			modifier = {
				factor = 0.2
				date < 2020.01.01
			}
		}
	}
	#2035
	AT_upgrade_4 = {
		on_research_complete = { log = "[GetDateText]: [Root.GetName]: add tech AT_upgrade_4" }

		category_all_infantry = {
			hard_attack = 0.05
		}
		category_tanks = {
			hard_attack = 0.05
		}

		path = {
			leads_to_tech = Anti_tank_4
			research_cost_coeff = 1
		}

		research_cost = 1
		start_year = 2030
		xp_research_type = army
		xp_boost_cost = 50
		xp_research_bonus = 1.50

		folder = {
			name = artillery_folder
			position = { x = 11 y = @2035 }
		}

		categories = {
			CAT_at
		}

		ai_will_do = {
			factor = 1
			modifier = {
				factor = 0.5
				date < 2030.01.01
			}
			modifier = {
				factor = 0.2
				date < 2027.01.01
			}
		}
	}

	#1985
	Anti_tank_1 = {
		on_research_complete = { log = "[GetDateText]: [Root.GetName]: add tech Anti_tank_1" }

		enable_equipments = {
			Anti_tank_1
		}
		enable_equipment_modules = {
			helicopter_atgm_gen2
			helicopter_multiple_atgm_gen2
		}

		path = {
			leads_to_tech = AT_upgrade_2
			research_cost_coeff = 1
		}

		sub_technologies = {
			Heavy_Anti_tank_1
		}

		research_cost = 1.4
		start_year = 1985

		folder = {
			name = artillery_folder
			position = { x = 8 y = @1985 }
		}

		categories = {
			CAT_inf
			CAT_at
			CAT_l_at
		}

		ai_will_do = {
			factor = 1
		}
	}
	#1985
	Heavy_Anti_tank_1 = {
		on_research_complete = { log = "[GetDateText]: [Root.GetName]: add tech Heavy_Anti_tank_1" }

		enable_equipments = {
			Heavy_Anti_tank_1
		}
		enable_equipment_modules = {
			smoothbore_atgm_gen2
			afv_atgm_gen2
			helicopter_heavy_atgm_gen2
		}

		research_cost = 1.7

		categories = {
			CAT_at
			CAT_h_at
		}

		ai_will_do = {
			factor = 1
		}
	}
	#2005
	Anti_tank_2 = {
		on_research_complete = { log = "[GetDateText]: [Root.GetName]: add tech Anti_tank_2" }

		enable_equipments = {
			Anti_tank_2
		}
		enable_equipment_modules = {
			helicopter_atgm_gen3
			helicopter_multiple_atgm_gen3
		}

		path = {
			leads_to_tech = AT_upgrade_3
			research_cost_coeff = 1
		}

		sub_technologies = {
			Heavy_Anti_tank_2
		}

		research_cost = 1.5
		start_year = 2005

		folder = {
			name = artillery_folder
			position = { x = 12 y = @2005 }
		}

		categories = {
			CAT_inf
			CAT_at
			CAT_l_at
		}

		ai_will_do = {
			factor = 1
			modifier = {
				factor = 0.5
				date < 2005.01.01
			}
			modifier = {
				factor = 0.2
				date < 2002.01.01
			}
		}
	}
	#2005
	Heavy_Anti_tank_2 = {
		on_research_complete = { log = "[GetDateText]: [Root.GetName]: add tech Heavy_Anti_tank_2" }

		enable_equipments = {
			Heavy_Anti_tank_2
		}
		enable_equipment_modules = {
			smoothbore_atgm_gen3
			afv_atgm_gen3
			helicopter_heavy_atgm_gen3
		}

		research_cost = 1.8

		categories = {
			CAT_at
			CAT_h_at
		}

		ai_will_do = {
			factor = 1
			modifier = {
				factor = 0.5
				date < 2005.01.01
			}
			modifier = {
				factor = 0.2
				date < 2002.01.01
			}
		}
	}
	#2025
	Anti_tank_3 = {
		on_research_complete = { log = "[GetDateText]: [Root.GetName]: add tech Anti_tank_3" }

		enable_equipments = {
			Anti_tank_3
		}
		enable_equipment_modules = {
			helicopter_atgm_gen4
			helicopter_multiple_atgm_gen4
		}

		path = {
			leads_to_tech = AT_upgrade_4
			research_cost_coeff = 1
		}
		# path = {
			# leads_to_tech = AT_upgrade_2
			# research_cost_coeff = 1
		# }

		sub_technologies = {
			Heavy_Anti_tank_3
		}

		research_cost = 1.6
		start_year = 2025

		folder = {
			name = artillery_folder
			position = { x = 11 y = @2025 }
		}

		categories = {
			CAT_inf
			CAT_at
			CAT_l_at
		}

		ai_will_do = {
			factor = 1
			modifier = {
				factor = 0.5
				date < 2025.01.01
			}
			modifier = {
				factor = 0.2
				date < 2020.01.01
			}
		}
	}
	#2025
	Heavy_Anti_tank_3 = {
		on_research_complete = { log = "[GetDateText]: [Root.GetName]: add tech Heavy_Anti_tank_3" }

		enable_equipments = {
			Heavy_Anti_tank_3
		}
		enable_equipment_modules = {
			smoothbore_atgm_gen4
			afv_atgm_gen4
			helicopter_heavy_atgm_gen4
		}

		research_cost = 1.9

		categories = {
			CAT_at
			CAT_h_at
		}

		ai_will_do = {
			factor = 1
			modifier = {
				factor = 0.5
				date < 2025.01.01
			}
			modifier = {
				factor = 0.2
				date < 2020.01.01
			}
		}
	}
	#2035
	Anti_tank_4 = {
		on_research_complete = { log = "[GetDateText]: [Root.GetName]: add tech Anti_tank_4" }

		enable_equipments = {
			Anti_tank_4
		}
		enable_equipment_modules = {
			helicopter_atgm_gen5
			helicopter_multiple_atgm_gen5
		}

		# path = {
			# leads_to_tech = AT_upgrade_1
			# research_cost_coeff = 1
		# }
		# path = {
			# leads_to_tech = AT_upgrade_2
			# research_cost_coeff = 1
		# }

		sub_technologies = {
			Heavy_Anti_tank_4
		}

		research_cost = 1.7
		start_year = 2035

		folder = {
			name = artillery_folder
			position = { x = 9 y = @2035 }
		}

		categories = {
			CAT_inf
			CAT_at
			CAT_l_at
		}

		ai_will_do = {
			factor = 1
			modifier = {
				factor = 0.5
				date < 2035.01.01
			}
			modifier = {
				factor = 0.2
				date < 2030.01.01
			}
		}
	}
	#2035
	Heavy_Anti_tank_4 = {
		on_research_complete = { log = "[GetDateText]: [Root.GetName]: add tech Heavy_Anti_tank_4" }

		enable_equipments = {
			Heavy_Anti_tank_4
		}
		enable_equipment_modules = {
			smoothbore_atgm_gen5
			afv_atgm_gen5
			helicopter_heavy_atgm_gen5
		}

		research_cost = 2

		categories = {
			CAT_at
			CAT_h_at
		}

		ai_will_do = {
			factor = 1
			modifier = {
				factor = 0.5
				date < 2035.01.01
			}
			modifier = {
				factor = 0.2
				date < 2030.01.01
			}
		}
	}
}