﻿##Author: Angriest Bird
focus_tree = {
	id = csa_focus
	country = {
		factor = 0 
		modifier = { 
			add = 0
			original_tag = CSA
		}
	}
	
	continuous_focus_position = { x = 50 y = 1100 }
	
	#Army Focuses 
	focus = {
		id = CSA_army_of_the_confedracy
		#icon 
		
		x = 2
		y = 1 
		
		cost = 10
		cancel_if_invalid = yes
		continue_if_invalid = no
		available_if_capitulated = no 

		completion_reward = { }
		
		ai_will_do = { 
			factor = 1
		}
	}
	
	focus = {
		id = CSA_every_blade_of_grass
		#icon 
		
		x = -2
		y = 1
		relative_position_id = CSA_army_of_the_confedracy
		cost = 10

		prerequisite = { focus = CSA_army_of_the_confedracy }

		cancel_if_invalid = yes
		continue_if_invalid = no
		available_if_capitulated = no 

		completion_reward = { }
		
		ai_will_do = { 
			factor = 1
		}
	}
	
	focus = {
		id = CSA_decentralized_warfare
		#icon 
		
		x = 0
		y = 1
		relative_position_id = CSA_army_of_the_confedracy
		
		cost = 10
		
		prerequisite = { focus = CSA_army_of_the_confedracy }
		
		cancel_if_invalid = yes
		continue_if_invalid = no
		available_if_capitulated = no 

		completion_reward = { }
		
		ai_will_do = { 
			factor = 1
		}
	}
	
	focus = {
		id = CSA_command_structure
		#icon 
		
		x = 2 
		y = 1
		relative_position_id = CSA_army_of_the_confedracy
		
		cost = 10
		
		prerequisite = { focus = CSA_army_of_the_confedracy }
		
		cancel_if_invalid = yes
		continue_if_invalid = no
		available_if_capitulated = no 

		completion_reward = { }
		
		ai_will_do = { 
			factor = 1
		}
	}
	
	focus = {
		id = CSA_virginia_armories
		#icon 
		
		x = 4
		y = 1
		relative_position_id = CSA_army_of_the_confedracy
		
		cost = 10
		
		prerequisite = { focus = CSA_army_of_the_confedracy }
		
		cancel_if_invalid = yes
		continue_if_invalid = no
		available_if_capitulated = no 

		completion_reward = { }
		
		ai_will_do = { 
			factor = 1
		}
	}
	
	focus = {
		id = CSA_loyalists_brigades
		#icon 
		
		x = -2
		y = 2
		relative_position_id = CSA_army_of_the_confedracy
		
		cost = 10
		
		prerequisite = { focus = CSA_every_blade_of_grass } 
		
		cancel_if_invalid = yes
		continue_if_invalid = no
		available_if_capitulated = no 

		completion_reward = { }
		
		ai_will_do = { 
			factor = 1
		}
	}
	
	focus = {
		id = CSA_low_cost_equipment
		#icon 
		
		x = 0
		y = 2
		relative_position_id = CSA_army_of_the_confedracy
		
		cost = 10
		
		prerequisite = { focus = CSA_decentralized_warfare }
		
		cancel_if_invalid = yes
		continue_if_invalid = no
		available_if_capitulated = no 

		completion_reward = { }
		
		ai_will_do = { 
			factor = 1
		}
	}
	
	focus = {
		id = CSA_armored_doctrine
		#icon 
		
		x = 2
		y = 2
		relative_position_id = CSA_army_of_the_confedracy
		
		cost = 10
		
		prerequisite = { focus = CSA_decentralized_warfare }
		prerequisite = { focus = CSA_virginia_armories }
		
		cancel_if_invalid = yes
		continue_if_invalid = no
		available_if_capitulated = no 

		completion_reward = { }
		
		ai_will_do = { 
			factor = 1
		}
	}
	
	focus = {
		id = CSA_confederate_made
		#icon 
		
		x = -1
		y = 3
		relative_position_id = CSA_army_of_the_confedracy
		
		cost = 10
		
		prerequisite = { focus = CSA_loyalists_brigades }
		prerequisite = { focus = CSA_low_cost_equipment } 
		
		cancel_if_invalid = yes
		continue_if_invalid = no
		available_if_capitulated = no 

		completion_reward = { }
		
		ai_will_do = { 
			factor = 1
		}
	}
	
	focus = {
		id = CSA_support_ifvs
		#icon 
		
		x = 2
		y = 3
		relative_position_id = CSA_army_of_the_confedracy
		
		cost = 10
		
		prerequisite = { focus = CSA_armored_doctrine } 
		
		cancel_if_invalid = yes
		continue_if_invalid = no
		available_if_capitulated = no 

		completion_reward = { }
		
		ai_will_do = { 
			factor = 1
		}
	}
	
	##The South Rises Again
	focus = {
		id = CSA_the_south_rises_again
		#icon 
		
		x = 9
		y = 0
		
		cost = 10 
		
		cancel_if_invalid = yes
		continue_if_invalid = no
		available_if_capitulated = no 

		completion_reward = { }
		
		ai_will_do = { 
			factor = 1
		}
	}
	
	focus = {
		id = CSA_the_threat
		#icon 
		
		x = -2
		y = 1
		relative_position_id = CSA_the_south_rises_again
		
		cost = 10 
		
		prerequisite = { focus = CSA_the_south_rises_again } 
		
		cancel_if_invalid = yes
		continue_if_invalid = no
		available_if_capitulated = no 

		completion_reward = { }
		
		ai_will_do = { 
			factor = 1
		}
	}
	
	focus = {
		id = CSA_the_new_government
		#icon 
		
		x = 0
		y = 1
		relative_position_id = CSA_the_south_rises_again
		
		cost = 10 
		
		prerequisite = { focus = CSA_the_south_rises_again } 
		
		cancel_if_invalid = yes
		continue_if_invalid = no
		available_if_capitulated = no 

		completion_reward = { }
		
		ai_will_do = { 
			factor = 1
		}
	}

	
	focus = {
		id = CSA_reorganized_southern_guard
		#icon 
		
		x = 2
		y = 1
		relative_position_id = CSA_the_south_rises_again
		
		cost = 10 
		
		prerequisite = { focus = CSA_the_south_rises_again }
		
		cancel_if_invalid = yes
		continue_if_invalid = no
		available_if_capitulated = no 

		completion_reward = { }
		
		ai_will_do = { 
			factor = 1
		}
	}
	
	focus = {
		id = CSA_capitol_decision
		#icon 
		
		x = -1
		y = 2
		relative_position_id = CSA_the_south_rises_again
		
		cost = 10 
		
		prerequisite = { focus = CSA_the_threat }
		prerequisite = { focus = CSA_the_new_government }
		
		cancel_if_invalid = yes
		continue_if_invalid = no
		available_if_capitulated = no 

		completion_reward = { }
		
		ai_will_do = { 
			factor = 1
		}
	}
	
	focus = {
		id = CSA_border_entrenchments
		#icon 
		
		x = 1
		y = 2
		relative_position_id = CSA_the_south_rises_again
		
		cost = 10 
		
		prerequisite = { focus = CSA_reorganized_southern_guard }
		prerequisite = { focus = CSA_the_new_government }
		
		cancel_if_invalid = yes
		continue_if_invalid = no
		available_if_capitulated = no 

		completion_reward = { }
		
		ai_will_do = { 
			factor = 1
		}
	}
	
	focus = {
		id = CSA_capitol_industry
		#icon 
		
		x = -3
		y = 3
		relative_position_id = CSA_the_south_rises_again
		
		cost = 10 
		
		prerequisite = { focus = CSA_virginia_armories }
		prerequisite = { focus = CSA_capitol_decision }
		
		cancel_if_invalid = yes
		continue_if_invalid = no
		available_if_capitulated = no 

		completion_reward = { }
		
		ai_will_do = { 
			factor = 1
		}
	}
	
	focus = {
		id = CSA_proclaim_the_csa
		#icon 
		
		x = 0
		y = 3
		relative_position_id = CSA_the_south_rises_again
		
		cost = 10 
		
		prerequisite = { focus = CSA_capitol_decision }
		prerequisite = { focus = CSA_border_entrenchments }
		
		cancel_if_invalid = yes
		continue_if_invalid = no
		available_if_capitulated = no 

		completion_reward = { }
		
		ai_will_do = { 
			factor = 1
		}
	}
	
	focus = {
		id = CSA_stabilize_the_states
		#icon 
		
		x = -1
		y = 4
		relative_position_id = CSA_the_south_rises_again
		
		cost = 10 
		
		prerequisite = { focus = CSA_proclaim_the_csa }
		prerequisite = { focus = CSA_capitol_decision }
		
		cancel_if_invalid = yes
		continue_if_invalid = no
		available_if_capitulated = no 

		completion_reward = { }
		
		ai_will_do = { 
			factor = 1
		}
	}
	
	focus = {
		id = CSA_representation
		#icon 
		
		x = 1
		y = 4
		relative_position_id = CSA_the_south_rises_again
		
		cost = 10 
		
		prerequisite = { focus = CSA_proclaim_the_csa }
		prerequisite = { focus = CSA_border_entrenchments }
		
		cancel_if_invalid = yes
		continue_if_invalid = no
		available_if_capitulated = no 

		completion_reward = { }
		
		ai_will_do = { 
			factor = 1
		}
	}
	
	focus = {
		id = CSA_neo_confedrate_ideas
		#icon 
		
		x = 0
		y = 5
		relative_position_id = CSA_the_south_rises_again
		
		cost = 10 
		
		prerequisite = { focus = CSA_stabilize_the_states }
		prerequisite = { focus = CSA_representation }
		
		cancel_if_invalid = yes
		continue_if_invalid = no
		available_if_capitulated = no 

		completion_reward = { }
		
		ai_will_do = { 
			factor = 1
		}
	}
	
	##Reconquer the Union
	focus = {
		id = CSA_reconquer_the_union
		#icon 
		
		x = 18
		y = 1
		
		cost = 10 
		
		cancel_if_invalid = yes
		continue_if_invalid = no
		available_if_capitulated = no 

		completion_reward = { }
		
		ai_will_do = { 
			factor = 1
		}
	}
	
	focus = {
		id = CSA_question_of_the_flag
		#icon 
		
		x = -4
		y = 1
		relative_position_id = CSA_reconquer_the_union
		
		cost = 10 
		
		prerequisite = { focus = CSA_reconquer_the_union }
		
		cancel_if_invalid = yes
		continue_if_invalid = no
		available_if_capitulated = no 

		completion_reward = { }
		
		ai_will_do = { 
			factor = 1
		}
	}
	
	focus = {
		id = CSA_rise_of_arizona
		#icon 
		
		x = -2
		y = 1
		relative_position_id = CSA_reconquer_the_union
		
		cost = 10 
		
		prerequisite = { focus = CSA_reconquer_the_union }
		
		cancel_if_invalid = yes
		continue_if_invalid = no
		available_if_capitulated = no 

		completion_reward = { }
		
		ai_will_do = { 
			factor = 1
		}
	}
	
	focus = {
		id = CSA_west_virginia
		#icon 
		
		x = 0
		y = 1
		relative_position_id = CSA_reconquer_the_union
		
		cost = 10 
		
		prerequisite = { focus = CSA_reconquer_the_union }
		
		cancel_if_invalid = yes
		continue_if_invalid = no
		available_if_capitulated = no 

		completion_reward = { }
		
		ai_will_do = { 
			factor = 1
		}
	}
	
	focus = {
		id = CSA_bayou_naval_bases
		#icon 
		
		x = 2
		y = 1
		relative_position_id = CSA_reconquer_the_union
		
		cost = 10 
		
		prerequisite = { focus = CSA_reconquer_the_union }
		
		cancel_if_invalid = yes
		continue_if_invalid = no
		available_if_capitulated = no 

		completion_reward = { }
		
		ai_will_do = { 
			factor = 1
		}
	}
	
	focus = {
		id = CSA_invasion_of_utah
		#icon 
		
		x = -5
		y = 2
		relative_position_id = CSA_reconquer_the_union
		
		cost = 10 
		
		prerequisite = { focus = CSA_rise_of_arizona }
		prerequisite = { focus = CSA_border_entrenchments } 
		
		cancel_if_invalid = yes
		continue_if_invalid = no
		available_if_capitulated = no 

		completion_reward = { }
		
		ai_will_do = { 
			factor = 1
		}
	}
	
	focus = {
		id = CSA_new_mexican_frontier
		#icon 
		
		x = -2
		y = 2
		relative_position_id = CSA_reconquer_the_union
		
		cost = 10 
		
		prerequisite = { focus = CSA_rise_of_arizona }	
		
		cancel_if_invalid = yes
		continue_if_invalid = no
		available_if_capitulated = no 

		completion_reward = { }
		
		ai_will_do = { 
			factor = 1
		}
	}
	
	focus = {
		id = CSA_reclaim_northern_border_states
		#icon 
		
		x = 0
		y = 2
		relative_position_id = CSA_reconquer_the_union
		
		cost = 10 
		
		prerequisite = { focus = CSA_west_virginia }	
		
		cancel_if_invalid = yes
		continue_if_invalid = no
		available_if_capitulated = no 

		completion_reward = { }
		
		ai_will_do = { 
			factor = 1
		}
	}
	
	focus = {
		id = CSA_reclaim_american_carribean_holdings
		#icon 
		
		x = 2
		y = 2
		relative_position_id = CSA_reconquer_the_union
		
		cost = 10 
		
		prerequisite = { focus = CSA_bayou_naval_bases }	
		
		cancel_if_invalid = yes
		continue_if_invalid = no
		available_if_capitulated = no 

		completion_reward = { }
		
		ai_will_do = { 
			factor = 1
		}
	}
	
	focus = {
		id = CSA_florida_armories
		#icon 
		
		x = -5
		y = 3
		relative_position_id = CSA_reconquer_the_union
		
		cost = 10 
		
		prerequisite = { focus = CSA_invasion_of_utah }
		prerequisite = { focus = CSA_new_mexican_frontier }
		
		cancel_if_invalid = yes
		continue_if_invalid = no
		available_if_capitulated = no 

		completion_reward = { }
		
		ai_will_do = { 
			factor = 1
		}
	}
	
	focus = {
		id = CSA_reclaim_the_west_coast
		#icon 
		
		x = -3
		y = 3
		relative_position_id = CSA_reconquer_the_union
		
		cost = 10 
		
		prerequisite = { focus = CSA_invasion_of_utah }
		prerequisite = { focus = CSA_new_mexican_frontier }
		
		cancel_if_invalid = yes
		continue_if_invalid = no
		available_if_capitulated = no 

		completion_reward = { }
		
		ai_will_do = { 
			factor = 1
		}
	}
	
	focus = {
		id = CSA_border_consolidation
		#icon 
		
		x = 1
		y = 3
		relative_position_id = CSA_reconquer_the_union
		
		cost = 10 
		
		prerequisite = { focus = CSA_reclaim_american_carribean_holdings }
		prerequisite = { focus = CSA_reclaim_northern_border_states }
		
		cancel_if_invalid = yes
		continue_if_invalid = no
		available_if_capitulated = no 

		completion_reward = { }
		
		ai_will_do = { 
			factor = 1
		}
	}
	
	focus = {
		id = CSA_the_great_northern_offensive
		#icon 
		
		x = -1
		y = 4
		relative_position_id = CSA_reconquer_the_union
		
		cost = 10 
		
		prerequisite = { focus = CSA_reclaim_the_west_coast }
		prerequisite = { focus = CSA_border_consolidation }
		
		cancel_if_invalid = yes
		continue_if_invalid = no
		available_if_capitulated = no 

		completion_reward = { }
		
		ai_will_do = { 
			factor = 1
		}
	}
	
	focus = {
		id = CSA_begin_reconstruction
		#icon 
		
		x = -1
		y = 5
		relative_position_id = CSA_reconquer_the_union
		
		cost = 10 
		
		prerequisite = { focus = CSA_the_great_northern_offensive }
		
		cancel_if_invalid = yes
		continue_if_invalid = no
		available_if_capitulated = no 

		completion_reward = { }
		
		ai_will_do = { 
			factor = 1
		}
	}
	
	focus = {
		id = CSA_the_west
		#icon 
		
		x = -3
		y = 6
		relative_position_id = CSA_reconquer_the_union
		
		cost = 10 
		
		prerequisite = { focus = CSA_begin_reconstruction }
		
		cancel_if_invalid = yes
		continue_if_invalid = no
		available_if_capitulated = no 

		completion_reward = { }
		
		ai_will_do = { 
			factor = 1
		}
	}
	
	focus = {
		id = CSA_the_midwest
		#icon 
		
		x = -1
		y = 6
		relative_position_id = CSA_reconquer_the_union
		
		cost = 10 
		
		prerequisite = { focus = CSA_begin_reconstruction }
		
		cancel_if_invalid = yes
		continue_if_invalid = no
		available_if_capitulated = no 

		completion_reward = { }
		
		ai_will_do = { 
			factor = 1
		}
	}
	
	focus = {
		id = CSA_the_north
		#icon 
		
		x = 1
		y = 6
		relative_position_id = CSA_reconquer_the_union
		
		cost = 10 
		
		prerequisite = { focus = CSA_begin_reconstruction }
		
		cancel_if_invalid = yes
		continue_if_invalid = no
		available_if_capitulated = no 

		completion_reward = { }
		
		ai_will_do = { 
			factor = 1
		}
	}
	
	focus = {
		id = CSA_finish_reconstruction
		#icon 
		
		x = -1
		y = 7
		relative_position_id = CSA_reconquer_the_union
		
		cost = 10 
		
		prerequisite = { focus = CSA_the_midwest }
		prerequisite = { focus = CSA_the_north }
		prerequisite = { focus = CSA_the_west }
		
		cancel_if_invalid = yes
		continue_if_invalid = no
		available_if_capitulated = no 

		completion_reward = { }
		
		ai_will_do = { 
			factor = 1
		}
	}
	
	##Red Monday
	focus = {
		id = CSA_red_monday
		#icon 
		
		x = 24
		y = 0
	
		cost = 10 

		cancel_if_invalid = yes
		continue_if_invalid = no
		available_if_capitulated = no 

		completion_reward = { }
		
		ai_will_do = { 
			factor = 1
		}
	}
	
	focus = {
		id = CSA_strength_under_christ
		#icon 
		
		x = -2
		y = 1
		relative_position_id = CSA_red_monday
		
		cost = 10 
		
		prerequisite = { focus = CSA_red_monday }
		
		cancel_if_invalid = yes
		continue_if_invalid = no
		available_if_capitulated = no 

		completion_reward = { }
		
		ai_will_do = { 
			factor = 1
		}
	}
	
	focus = {
		id = CSA_anti_marx_propganda
		#icon 
		
		x = 0
		y = 1
		relative_position_id = CSA_red_monday
		
		cost = 10 
		
		prerequisite = { focus = CSA_red_monday }
		
		cancel_if_invalid = yes
		continue_if_invalid = no
		available_if_capitulated = no 

		completion_reward = { }
		
		ai_will_do = { 
			factor = 1
		}
	}
	
	focus = {
		id = CSA_southern_upbringing
		#icon 
		
		x = 2
		y = 1
		relative_position_id = CSA_red_monday
		
		cost = 10 
		
		prerequisite = { focus = CSA_red_monday }
		
		cancel_if_invalid = yes
		continue_if_invalid = no
		available_if_capitulated = no 

		completion_reward = { }
		
		ai_will_do = { 
			factor = 1
		}
	}
	
	focus = {
		id = CSA_state_with_church
		#icon 
		
		x = -2
		y = 2
		relative_position_id = CSA_red_monday
		
		cost = 10 
		
		prerequisite = { focus = CSA_strength_under_christ }
		
		cancel_if_invalid = yes
		continue_if_invalid = no
		available_if_capitulated = no 

		completion_reward = { }
		
		ai_will_do = { 
			factor = 1
		}
	}
	
	focus = {
		id = CSA_southern_militias
		#icon 
		
		x = 0
		y = 2
		relative_position_id = CSA_red_monday
		
		cost = 10 
		
		prerequisite = { focus = CSA_anti_marx_propganda }
		
		cancel_if_invalid = yes
		continue_if_invalid = no
		available_if_capitulated = no 

		completion_reward = { }
		
		ai_will_do = { 
			factor = 1
		}
	}
	
	focus = {
		id = CSA_instill_traditional_values
		#icon 
		
		x = 2
		y = 2
		relative_position_id = CSA_red_monday
		
		cost = 10 
		
		prerequisite = { focus = CSA_southern_upbringing }
		
		cancel_if_invalid = yes
		continue_if_invalid = no
		available_if_capitulated = no 

		completion_reward = { }
		
		ai_will_do = { 
			factor = 1
		}
	}
	
	focus = {
		id = CSA_christian_education
		#icon 
		
		x = -2
		y = 3
		relative_position_id = CSA_red_monday
		
		cost = 10 
		
		prerequisite = { focus = CSA_state_with_church }
		
		cancel_if_invalid = yes
		continue_if_invalid = no
		available_if_capitulated = no 

		completion_reward = { }
		
		ai_will_do = { 
			factor = 1
		}
	}
	
	focus = {
		id = CSA_a_modern_confedarcy
		#icon 
		
		x = 0
		y = 3
		relative_position_id = CSA_red_monday
		
		cost = 10 
		
		prerequisite = { focus = CSA_southern_militias }
		
		cancel_if_invalid = yes
		continue_if_invalid = no
		available_if_capitulated = no 

		completion_reward = { }
		
		ai_will_do = { 
			factor = 1
		}
	}
	
	focus = {
		id = CSA_progression_with_regression
		#icon 
		
		x = 2
		y = 3
		relative_position_id = CSA_red_monday
		
		cost = 10 
		
		prerequisite = { focus = CSA_instill_traditional_values }
		
		cancel_if_invalid = yes
		continue_if_invalid = no
		available_if_capitulated = no 

		completion_reward = { }
		
		ai_will_do = { 
			factor = 1
		}
	}
	
	focus = {
		id = CSA_the_new_republic
		#icon 
		
		x = -2
		y = 4
		relative_position_id = CSA_red_monday
		
		cost = 10 
		
		prerequisite = { focus = CSA_christian_education }
		prerequisite = { focus = CSA_a_modern_confedarcy }
		mutually_exclusive = { focus = CSA_the_southern_dictatorship }
		
		cancel_if_invalid = yes
		continue_if_invalid = no
		available_if_capitulated = no 

		completion_reward = { }
		
		ai_will_do = { 
			factor = 1
		}
	}
	
	focus = {
		id = CSA_the_southern_dictatorship
		#icon 
		
		x = 2
		y = 4
		relative_position_id = CSA_red_monday
		
		cost = 10 
		
		prerequisite = { focus = CSA_progression_with_regression }
		prerequisite = { focus = CSA_a_modern_confedarcy }
		mutually_exclusive = { focus = CSA_the_new_republic }
		
		cancel_if_invalid = yes
		continue_if_invalid = no
		available_if_capitulated = no 

		completion_reward = { }
		
		ai_will_do = { 
			factor = 1
		}
	}
	
	focus = {
		id = CSA_guaranteed_elections
		#icon 
		
		x = -2
		y = 5
		relative_position_id = CSA_red_monday
		
		cost = 10 
		
		prerequisite = { focus = CSA_the_new_republic }
		
		cancel_if_invalid = yes
		continue_if_invalid = no
		available_if_capitulated = no 

		completion_reward = { }
		
		ai_will_do = { 
			factor = 1
		}
	}
	
	focus = {
		id = CSA_revise_the_second_amendment
		#icon 
		
		x = 0
		y = 5
		relative_position_id = CSA_red_monday
		
		cost = 10 
		
		prerequisite = { 
			focus = CSA_the_southern_dictatorship 
			focus = CSA_the_new_republic
		}
		
		cancel_if_invalid = yes
		continue_if_invalid = no
		available_if_capitulated = no 

		completion_reward = { }
		
		ai_will_do = { 
			factor = 1
		}
	}
	
	focus = {
		id = CSA_a_firm_grip
		#icon 
		
		x = 2
		y = 5
		relative_position_id = CSA_red_monday
		
		cost = 10 
		
		prerequisite = { focus = CSA_the_southern_dictatorship }
		
		cancel_if_invalid = yes
		continue_if_invalid = no
		available_if_capitulated = no 

		completion_reward = { }
		
		ai_will_do = { 
			factor = 1
		}
	}
	
	focus = {
		id = CSA_each_person_voter
		#icon 
		
		x = -3
		y = 6
		relative_position_id = CSA_red_monday
		
		cost = 10 
		
		prerequisite = { focus = CSA_guaranteed_elections }
		
		cancel_if_invalid = yes
		continue_if_invalid = no
		available_if_capitulated = no 

		completion_reward = { }
		
		ai_will_do = { 
			factor = 1
		}
	}
	
	focus = {
		id = CSA_chrisitan_parties
		#icon 
		
		x = -1
		y = 6
		relative_position_id = CSA_red_monday
		
		cost = 10 
		
		prerequisite = { focus = CSA_guaranteed_elections }
		
		cancel_if_invalid = yes
		continue_if_invalid = no
		available_if_capitulated = no 

		completion_reward = { }
		
		ai_will_do = { 
			factor = 1
		}
	}
	
	focus = {
		id = CSA_the_confedrate_states
		#icon 
		
		x = 1
		y = 6
		relative_position_id = CSA_red_monday
		
		cost = 10 
		
		prerequisite = { focus = CSA_a_firm_grip }
		
		cancel_if_invalid = yes
		continue_if_invalid = no
		available_if_capitulated = no 

		completion_reward = { }
		
		ai_will_do = { 
			factor = 1
		}
	}
	
	focus = {
		id = CSA_question_of_the_klan
		#icon 
		
		x = 3
		y = 6
		relative_position_id = CSA_red_monday
		
		cost = 10 
		
		prerequisite = { focus = CSA_a_firm_grip }
		
		cancel_if_invalid = yes
		continue_if_invalid = no
		available_if_capitulated = no 

		completion_reward = { }
		
		ai_will_do = { 
			factor = 1
		}
	}
	
	focus = {
		id = CSA_the_golden_circle
		#icon 
		
		x = 0
		y = 7
		relative_position_id = CSA_red_monday
		
		cost = 10 
		
		prerequisite = { 
			focus = CSA_each_person_voter
			focus = CSA_chrisitan_parties
			focus = CSA_the_confedrate_states
			focus = CSA_question_of_the_klan
		}
		
		cancel_if_invalid = yes
		continue_if_invalid = no
		available_if_capitulated = no 

		completion_reward = { }
		
		ai_will_do = { 
			factor = 1
		}
	}
	
	focus = {
		id = CSA_the_bay_of_pigs
		#icon 
		
		x = -2
		y = 8
		relative_position_id = CSA_red_monday
		
		cost = 10 
		
		will_lead_to_war_with = CUB
		
		prerequisite = { focus = CSA_the_golden_circle }

		available = {
			CUB = {
				OR = {
					NOT = { is_subject_of = CSA }
					exists = yes
				}
			}
		}
		
		cancel_if_invalid = yes
		continue_if_invalid = no
		available_if_capitulated = no 

		completion_reward = { }
		
		ai_will_do = { 
			factor = 1
		}
	}
	
	focus = {
		id = CSA_seize_the_yucatan
		#icon 
		
		x = 0
		y = 8
		relative_position_id = CSA_red_monday
		
		cost = 10 
		
		prerequisite = { focus = CSA_the_golden_circle }
		
		cancel_if_invalid = yes
		continue_if_invalid = no
		available_if_capitulated = no 

		completion_reward = { }
		
		ai_will_do = { 
			factor = 1
		}
	}
	
	focus = {
		id = CSA_carribbean_dominance
		#icon 
		
		x = 2
		y = 8
		relative_position_id = CSA_red_monday
		
		cost = 10 
		
		prerequisite = { focus = CSA_the_golden_circle }
		
		cancel_if_invalid = yes
		continue_if_invalid = no
		available_if_capitulated = no 

		completion_reward = { }
		
		ai_will_do = { 
			factor = 1
		}
	}
}