#########################################################################
# OPINION MODIFIERS
##########################################################################
# value
# min_trust
# max_trust
# decay
# months/years/days = timer
# trade = yes/no
opinion_modifiers = {
	annexed_crimea = {
		value = -40
		months = 40
		decay = 1
	}
	annexed_ukraine = {
		value = -40
	}
	annexed_ukraine_trade = {
		value = -75
		trade = yes
	}
	enemy_number_one = {
		value = -100
		trade = yes
	}
	union_stated = {
		value = 5
		months = 40
	}
	bad_revoult = {
		value = -100
		months = 60
	}
}