﻿add_namespace = italy_news

#Italy turns Fascist again
news_event = {
	id = italy_news.1
	title = italy_news.1.t
	desc = italy_news.1.d
	picture = GFX_news_Italian_Fascist

	is_triggered_only = yes

	option = {
		name = italy_news.1.o1
		log = "[GetDateText]: [This.GetName]: italy_news.1.o1 executed"
		trigger = {
			tag = ITA
		}
	}
	option = {
		name = italy_news.1.o2
		log = "[GetDateText]: [This.GetName]: italy_news.1.o2 executed"
		trigger = {
			NOT = { tag = ITA }
			has_idea = EU_member
		}
	}
	option = {
		name = italy_news.1.o3
		log = "[GetDateText]: [This.GetName]: italy_news.1.o3 executed"
		trigger = {
			NOT = { tag = ITA }
			NOT = { has_idea = EU_member }
		}
	}
}
#Italy Kingdom Restored
news_event = {
	id = italy_news.2
	title = italy_news.2.t
	desc = italy_news.2.d
	picture = GFX_news_Italian_Savoia

	is_triggered_only = yes

	option = {
		name = italy_news.2.o1
		log = "[GetDateText]: [This.GetName]: italy_news.2.o1 executed"
		trigger = {
			tag = ITA
		}
	}
	option = {
		name = italy_news.2.o2
		log = "[GetDateText]: [This.GetName]: italy_news.2.o2 executed"
		trigger = {
			NOT = { tag = ITA }
		}
	}
}
#Roman Empire comes back to life
news_event = {
	id = italy_news.3
	title = italy_news.3.t
	desc = italy_news.3.d
	picture = GFX_news_Italian_Romani

	is_triggered_only = yes

	option = {
		name = italy_news.3.o1
		log = "[GetDateText]: [This.GetName]: italy_news.3.o1 executed"
		trigger = {
			tag = ITA
			NOT = { tag = FRA }
			NOT = { tag = GER }
		}
	}
	option = {
		name = italy_news.3.o2
		log = "[GetDateText]: [This.GetName]: italy_news.3.o2 executed"
		trigger = {
			NOT = { tag = ITA }
			tag = FRA
			NOT = { tag = GER }
		}
	}
	option = {
		name = italy_news.3.o3
		log = "[GetDateText]: [This.GetName]: italy_news.3.o3 executed"
		trigger = {
			NOT = { tag = ITA }
			NOT = { tag = FRA }
			tag = GER
		}
	}
	option = {
		name = italy_news.3.o4
		log = "[GetDateText]: [This.GetName]: italy_news.3.o4 executed"
		trigger = {
			NOT = { tag = ITA }
			NOT = { tag = FRA }
			NOT = { tag = GER }
		}
	}
}
#Italy pursues European Policy
news_event = {
	id = italy_news.4
	title = italy_news.4.t
	desc = italy_news.4.d
	picture = GFX_news_Italian_EU_Flags

	is_triggered_only = yes

	option = {	#Ok
		name = italy_news.4.o1
		log = "[GetDateText]: [This.GetName]: italy_news.4.o1 executed"

	}
}
#The European Speech
news_event = {
	id = italy_news.5
	title = italy_news.5.t
	desc = italy_news.5.d
	picture = GFX_news_Italian_Europe

	is_triggered_only = yes

	option = {	#Good-a-job Italy
		name = italy_news.5.o1
		log = "[GetDateText]: [This.GetName]: italy_news.5.o1 executed"
		trigger = {
			has_idea = EU_member
			NOT = { original_tag = ITA }
		}
	}

	option = {	#Whatever
		name = italy_news.5.o2
		log = "[GetDateText]: [This.GetName]: italy_news.5.o2 executed"
		trigger = {
			NOT = { has_idea = EU_member }
			NOT = { original_tag = ITA }
		}
	}

	option = {	#Italy
		name = italy_news.5.o3
		log = "[GetDateText]: [This.GetName]: italy_news.5.o3 executed"
		trigger = {
			original_tag = ITA
		}
	}
}

#Italy prepares Unification Treaties
news_event = {
	id = italy_news.6
	title = italy_news.6.t
	desc = italy_news.6.d
	picture = GFX_news_Italian_EU_Flags

	is_triggered_only = yes
	major = yes

	option = {	#Ok
		name = italy_news.6.o1
		log = "[GetDateText]: [This.GetName]: italy_news.6.o1 executed"
	}
}

#Italy: War on Mafia
news_event = {
	id = italy_news.7
	title = italy_news.7.t
	desc = italy_news.7.d
	picture = GFX_news_Italian_Police_ITA

	is_triggered_only = yes

	option = {
		name = italy_news.7.o1
		log = "[GetDateText]: [This.GetName]: italy_news.7.o1 executed"
		trigger = {
			original_tag = ITA
		}
	}
	option = {
		name = italy_news.7.o2
		log = "[GetDateText]: [This.GetName]: italy_news.7.o2 executed"
		trigger = {
			NOT = { original_tag = ITA }
		}
	}
}

#Italy: War on Mafia - success
news_event = {
	id = italy_news.8
	title = italy_news.8.t
	desc = italy_news.8.d
	picture = GFX_news_Italian_Victory_Over_Mafia

	is_triggered_only = yes

	option = {
		name = italy_news.8.o1
		log = "[GetDateText]: [This.GetName]: italy_news.8.o1 executed"
		trigger = {
			original_tag = ITA
		}
	}
	option = {
		name = italy_news.8.o2
		log = "[GetDateText]: [This.GetName]: italy_news.8.o2 executed"
		trigger = {
			NOT = { original_tag = ITA }
		}
	}
}

#Italy: War on Mafia - failure
news_event = {
	id = italy_news.9
	title = italy_news.9.t
	desc = italy_news.9.d
	picture = GFX_news_Italian_Mafia_Victory

	is_triggered_only = yes

	option = {
		name = italy_news.9.o1
		log = "[GetDateText]: [This.GetName]: italy_news.9.o1 executed"
		trigger = {
			original_tag = ITA
		}
	}
	option = {
		name = italy_news.9.o2
		log = "[GetDateText]: [This.GetName]: italy_news.9.o2 executed"
		trigger = {
			NOT = { original_tag = ITA }
		}
	}
}