﻿add_namespace = wot
add_namespace = wotnews

#Major Terrorist attacks timetable
country_event = {
	id = wot.1
	is_triggered_only = yes
	hidden = yes
	trigger = {
		NOT = { has_government = fascism } #Just incase some tomfoolery happens
		original_tag = USA
	}
	immediate = {
		log = "[GetDateText]: [This.GetName]: wot.1.a executed"
		news_event = { hours = 18 id = wotnews.1 }
		country_event = { id = wot.2 hours = 12 }
		if = {
			limit = { NOT = { has_country_flag = USA_increased_intelligence_efforts } }
			random_list = {
				5 = { set_country_flag = major_terrorist_attacks_discovered }
				80 = { set_country_flag = terrorist_attacks_succeed_no_fourth_plane }
				15 = { set_country_flag = terrorist_attacks_succeed_fourth_plane }
			}
		}
		if = {
			limit = { has_country_flag = USA_increased_intelligence_efforts }
			random_list = {
				15 = { set_country_flag = major_terrorist_attacks_discovered }
				75 = { set_country_flag = terrorist_attacks_succeed_no_fourth_plane }
				10 = { set_country_flag = terrorist_attacks_succeed_fourth_plane }
			}
		}
	}
}

#Proceeds the things
country_event = {
	id = wot.2
	title = wot.2.t
	desc = {
		text = wot.2.da
		trigger = { has_country_flag = major_terrorist_attacks_discovered }
	}

	desc = {
		text = wot.2.db
		trigger = { has_country_flag = terrorist_attacks_succeed_no_fourth_plane }
	}

	desc = {
		text = wot.2.dc
		trigger = { has_country_flag = terrorist_attacks_succeed_fourth_plane }
	}
	picture = GFX_nine_eleven

	is_triggered_only = yes
	fire_only_once = yes

	immediate = {
		hidden_effect = {
			set_country_flag = USA_911_happened
			mark_focus_tree_layout_dirty = yes
			every_other_country = {							#September 12th: International Reactions
				limit = {
					OR = {
						has_idea = NATO_member
						tag = ENG
						tag = AST
						tag = GER
						tag = FRA
						tag = POL
						tag = IRQ
					}
				}
				country_event = { id = wot.3 days = 1 }
			}
			country_event = { id = wot.4 days = 2 }	#September 13th: Hillary Clinton backs the post-9/11
			country_event = { id = wot.5 days = 3 }	#September 14th: National Prayer Service
			country_event = { id = wot.6 days = 4 }	#September 15th: Murder of Balbir Singh Sondhi
			country_event = { id = wot.7 days = 7 }	#September 18th: Anthrax Attacks
			country_event = { id = wot.8 days = 9 }	#September 20th: The War on Terror Speech
			CAN = { country_event = { id = canada_md_politics.2 days = 1 }  }
		}
	}


	option = {
		name = wot.2.a
		trigger = { has_country_flag = major_terrorist_attacks_discovered }
		log = "[GetDateText]: [This.GetName]: wot.2.a executed"
		ai_chance = { factor = 100 }
		add_stability = -0.05
	}

	option = {
		name = wot.2.b
		trigger = { has_country_flag = terrorist_attacks_succeed_no_fourth_plane }
		log = "[GetDateText]: [This.GetName]: wot.2.b executed"
		ai_chance = { factor = 100 }
		add_stability = -0.10
	}

	option = {
		name = wot.2.c
		trigger = { has_country_flag = terrorist_attacks_succeed_fourth_plane }
		log = "[GetDateText]: [This.GetName]: wot.2.c executed"
		ai_chance = { factor = 100 }
		add_stability = -0.15
	}
}

#Diplomatic Response to 9/11
country_event = {
	id = wot.3
	title = wot.3.t
	desc = wot.3.d
	picture = GFX_report_event_schroeder_and_bush

	is_triggered_only = yes

	option = {
		name = wot.3.a
		log = "[GetDateText]: [This.GetName]: wot.3.a executed"
		ai_chance = {
			factor = 90
			modifier = {
				factor = 0
				original_tag = IRQ
				NOT = { has_government = democratic }
			}
		}
		USA = {
			add_opinion_modifier = {
				target = ROOT
				modifier = nine_eleven_total_loyalty
			}
		}
		add_political_power = -20
		add_stability = -0.01
		hidden_effect = {
			set_country_flag = fully_supported_us_nine_eleven
		}
	}
	option = {
		name = wot.3.b
		log = "[GetDateText]: [This.GetName]: wot.3.b executed"
		ai_chance = {
			factor = 10
			modifier = {
				factor = 2
				original_tag = IRQ
				NOT = { has_government = democratic }
			}
		}
		USA = {
			add_opinion_modifier = {
				target = ROOT
				modifier = nine_eleven_loyalty
			}
		}
		add_stability = 0.01
		hidden_effect = {
			set_country_flag = partially_supported_us_nine_eleven
		}
	}
	option = {
		name = wot.3.c
		log = "[GetDateText]: [This.GetName]: wot.3.c executed"
		ai_chance = {
			factor = 0
			modifier = {
				add = 80
				original_tag = IRQ
				NOT = { has_government = democratic }
			}
		}
		USA = {
			add_opinion_modifier = {
				target = ROOT
				modifier = imminent_danger_to_national_security
			}
		}
		add_popularity = { ideology = fascism popularity = 0.05 }
		add_popularity = { ideology = nationalist popularity = 0.05 }
		hidden_effect = {
			set_country_flag = not_supported_us_nine_eleven
		}
	}
}

#Opposition politician backs the government
country_event = {
	id = wot.4
	title = wot.4.t
	desc = {
		text = wot.4.da
		trigger = { is_in_array = { array = ruling_party value = 1 } }
	}
	desc = {
		text = wot.4.db
		trigger = { is_in_array = { array = ruling_party value = 2 } }
	}
	picture = GFX_hillary_clinton_young

	is_triggered_only = yes

	trigger = {
		has_government = democratic
		OR = {	#Either Republicans or Democrats in office
			is_in_array = {
				array = ruling_party
				value = 1
			}
			is_in_array = {
				array = ruling_party
				value = 2
			}
		}
	}

	option = {	#We stand united
		name = wot.4.a
		log = "[GetDateText]: [This.GetName]: wot.4.a executed"
		ai_chance = { factor = 90 }
		add_stability = 0.03
		# hidden_effect = {
			# news_event = {
				# id = wotnews.2
				# hours = 6
			# }
		# }
		#Increase the popularities of the ruling coalition by 10%, and the main opposition party by 5%
		custom_effect_tooltip = TT_OEF_RAISE_POPULARITIES
		for_each_loop = {
			array = ruling_party
			value = v
			multiply_variable = { party_pop_array^v = 1.1 }
		}
		for_each_loop = {
			array = gov_coalition_array
			value = v
			multiply_variable = { party_pop_array^v = 1.1 }
		}
		if = {
			limit = {
				is_in_array = {
					array = ruling_party
					value = 1
				}
			}
			multiply_variable = { party_pop_array^2 = 1.05 }
		}
		if = {
			limit = {
				is_in_array = {
					array = ruling_party
					value = 2
				}
			}
			multiply_variable = { party_pop_array^1 = 1.05 }
		}
		hidden_effect = {
			recalculate_party = yes
		}
	}
	option = {	#They're trying to benefit from a tragedy
		name = wot.4.b
		log = "[GetDateText]: [This.GetName]: wot.4.b executed"
		ai_chance = { factor = 10 }
		#Decrease the popularities of the ruling coalition by 5%, and the main opposition party by 10%
		custom_effect_tooltip = TT_OEF_LOWER_POPULARITIES
		for_each_loop = {
			array = ruling_party
			value = v
			multiply_variable = { party_pop_array^v = 0.95 }
		}
		for_each_loop = {
			array = gov_coalition_array
			value = v
			multiply_variable = { party_pop_array^v = 0.95 }
		}
		if = {
			limit = {
				is_in_array = {
					array = ruling_party
					value = 1
				}
			}
			multiply_variable = { party_pop_array^2 = 0.9 }
		}
		if = {
			limit = {
				is_in_array = {
					array = ruling_party
					value = 2
				}
			}
			multiply_variable = { party_pop_array^1 = 0.9 }
		}
		hidden_effect = {
			recalculate_party = yes
		}
	}
}

#National Prayer Service
country_event = {
	id = wot.5
	title = wot.5.t
	desc = wot.5.d
	picture = GFX_national_prayer_service_2001

	is_triggered_only = yes

	option = {
		name = wot.5.a
		log = "[GetDateText]: [This.GetName]: wot.5.a executed"
		ai_chance = { factor = 90 }
		lose_pp_for_month = yes
		add_stability = 0.05
		add_war_support = 0.05
		# hidden_effect = {
			# news_event = {
				# id = wotnews.3
				# hours = 6
			# }
		# }
	}
	option = {
		name = wot.5.b
		log = "[GetDateText]: [This.GetName]: wot.5.b executed"
		ai_chance = { factor = 10 }
	}
}

#Murder of Balbir Singh Sodhi
country_event = {
	id = wot.6
	title = wot.6.t
	desc = wot.6.d
	picture = GFX_balbir_singh_sodhi

	is_triggered_only = yes

	option = {
		name = wot.6.a
		log = "[GetDateText]: [This.GetName]: wot.6.a executed"
		ai_chance = { factor = 95 }
		add_political_power = -5
		# hidden_effect = {
			# news_event = {
				# id = wotnews.4
				# hours = 6
			# }
		# }
	}
	option = {
		name = wot.6.b
		log = "[GetDateText]: [This.GetName]: wot.6.b executed"
		ai_chance = { factor = 5 }
		add_political_power = -100
		add_popularity = { ideology = nationalist popularity = 0.03 }
		hidden_effect = {
			news_event = {
				id = wotnews.4
				hours = 6
			}
		}
	}
}

#Anthrax Attacks
country_event = {
	id = wot.7
	title = wot.7.t
	desc = wot.7.d
	picture = GFX_fbi

	is_triggered_only = yes

	option = {
		name = wot.7.a
		log = "[GetDateText]: [This.GetName]: wot.7.a executed"
		ai_chance = { factor = 80 }
		add_stability = -0.03
		# hidden_effect = {
			# news_event = {
				# id = wotnews.5
				# hours = 6
			# }
		# }
	}
	option = {
		name = wot.7.b
		log = "[GetDateText]: [This.GetName]: wot.7.b executed"
		ai_chance = { factor = 20 }
		lose_pp_for_15_days = yes
		hidden_effect = {
			news_event = {
				id = wotnews.5
				hours = 6
			}
		}
	}
}

#The War on Terror Speech
country_event = {
	id = wot.8
	title = wot.8.t
	desc = wot.8.d
	picture = GFX_george_w_bush

	is_triggered_only = yes

	immediate = {
		set_country_flag = war_on_terror_speech
	}

	option = {
		name = wot.8.a
		log = "[GetDateText]: [This.GetName]: wot.8.a executed"
		ai_chance = { factor = 50 }
		add_stability = 0.045
		hidden_effect = {
			news_event = {
				id = wotnews.6
				hours = 6
			}
		}
		add_country_leader_trait = war_on_terror_leader
	}
	option = {
		name = wot.8.b
		log = "[GetDateText]: [This.GetName]: wot.8.a executed"
		ai_chance = { factor = 50 }
		add_war_support = 0.045
		hidden_effect = {
			news_event = {
				id = wotnews.6
				hours = 6
			}
		}
		add_country_leader_trait = war_on_terror_leader
	}
}

#US Demands extradition of bin Laden
country_event = {
	id = wot.9
	title = wot.9.t
	desc = wot.9.d
	picture = GFX_bin_laden

	is_triggered_only = yes

	option = {
		name = wot.9.a
		log = "[GetDateText]: [This.GetName]: wot.9.a executed"
		ai_chance = { factor = 95 }
		FROM = { country_event = { id = wot.10 days = 3 } }
		USA = {
			add_opinion_modifier = {
				target = ROOT
				modifier = terrorist_menace
			}
			add_opinion_modifier = {
				target = ROOT
				modifier = terrorist_menace_trade
			}
		}
	}
	option = {
		name = wot.9.b
		log = "[GetDateText]: [This.GetName]: wot.9.a executed"
		ai_chance = { factor = 5 }
		FROM = { country_event = { id = wot.11 days = 3 } }
		add_stability = -0.10
		USA = {
			add_opinion_modifier = {
				target = ROOT
				modifier = military_cooperation
			}
		}
	}

}

#Taliban decline to extradite bin Laden
country_event = {
	id = wot.10
	title = wot.10.t
	desc = wot.10.d
	picture = GFX_bin_laden

	is_triggered_only = yes

	option = {
		name = wot.10.a
		log = "[GetDateText]: [This.GetName]: wot.10.a executed"
		ai_chance = { factor = 100 }
		set_country_flag = bin_Laden_stays_home
		if = {
			limit = { USA = { is_ai = yes } }
			add_political_power = 500 #Failsafe to try and encourage the AI to do enduring freedom
		}
	}

}

#Taliban agree to extradite bin Laden
country_event = {
	id = wot.11
	title = wot.11.t
	desc = wot.11.d
	picture = GFX_bin_laden

	is_triggered_only = yes

	option = {
		name = wot.11.a
		log = "[GetDateText]: [This.GetName]: wot.11.a executed"
		ai_chance = { factor = 100 }
		set_country_flag = Cooperation_with_taleban
		hidden_effect = {
			random_list = {
				90 = {
					country_event = { id = wot.20 days = 7 }	#bin Laden escapes
				}
				10 = {
					country_event = { id = wot.21 days = 7 }	#bin Laden captured
				}
			}
		}
	}

}

#US Requests help in Afghanistan
country_event = {
	id = wot.12
	title = wot.12.t
	desc = wot.12.d
	picture = GFX_afghanistan_war

	is_triggered_only = yes

	option = {
		name = wot.12.a		#Send troops
		log = "[GetDateText]: [This.GetName]: wot.12.a executed"
		ai_chance = {
			factor = 30
			modifier = {
				factor = 3
				OR = {
					original_tag = ENG
					original_tag = CAN
					original_tag = AST
				}
			}
			modifier = {
				factor = 0.5
				num_divisions < 10
			}
		}
		lose_pp_for_month = yes
		if = {
			limit = {
				NOT = {
					has_idea = intervention_regional_interventionism
					has_idea = intervention_global_interventionism
					has_idea = intervention_neo_imperialism
				}
			}
			add_ideas = intervention_regional_interventionism
		}
		if = {
			limit = { is_ai = yes }
			add_ai_strategy = {
				type = send_volunteers_desire
				id = AFG
				value = 200
			}
			add_ai_strategy = {
				type = befriend
				id = AFG
				value = 200
			}
			add_ai_strategy = {
				type = support
				id = AFG
				value = 200
			}
		}
		#
		if = {
			limit = {
				original_tag = GER
			}
			GER = {
				newline = yes
				set_country_flag = GER_sent_troops
				set_country_flag = GER_war_on_terror_started
				custom_effect_tooltip = GER_war_on_terror_TT
				newline = yes
				country_event = {
					id = Germany.400
				}
			}
		}
	}
	option = {
		name = wot.12.b		#Only provide equipment
		log = "[GetDateText]: [This.GetName]: wot.12.b executed"
		if = {
			limit = {
				original_tag = GER
			}
			GER = {
				set_country_flag = GER_sent_troops
			}
		}
		ai_chance = {
			factor = 50
			modifier = {
				factor = 0.5
				OR = {
					original_tag = ENG
					original_tag = CAN
					original_tag = AST
				}
			}
			modifier = {
				factor = 2
				num_divisions < 10
			}
		}
		lose_pp_for_15_days = yes
		if = {
			limit = { is_ai = yes }
			add_ai_strategy = {
				type = befriend
				id = AFG
				value = 100
			}
			add_ai_strategy = {
				type = support
				id = AFG
				value = 100
			}
		}
	}
	option = {
		name = wot.12.c		#We'll provide moral support
		log = "[GetDateText]: [This.GetName]: wot.12.c executed"
		ai_chance = {
			factor = 20
			modifier = {
				factor = 0.5
				OR = {
					original_tag = ENG
					original_tag = CAN
					original_tag = AST
				}
			}
		}
		add_stability = -0.03
	}
}

# Set up new administration in Afghanistan
country_event = {
	id = wot.13
	title = wot.13.t
	desc = {
		text = wot.13.da
		trigger = { AFG = { NOT = { has_country_flag = Massoud_dead } } }
	}
	desc = {
		text = wot.13.db
		trigger = { AFG = { has_country_flag = Massoud_dead } }
	}
	picture = GFX_bonn_agreement

	is_triggered_only = yes

	immediate = {
		hidden_effect = { news_event = { id = wotnews.8 hours = 6 } }
	}

	option = {
		name = wot.13.a		#Hamid Karzai (make Afghanistan Western)
		log = "[GetDateText]: [This.GetName]: wot.13.a executed"
		ai_chance = { factor = 70 }
		custom_effect_tooltip = TT_AFGHANISTAN_NEW_ADMINISTRATION_KARZAI
		AFG = {
			set_country_flag = AFG_new_administration_Karzai
			country_event = { id = Afghanistan.4 }
			set_temp_variable = { percent_change = 20 }
			set_temp_variable = { tag_index = ROOT.id }
			set_temp_variable = { influence_target = THIS.id }
			change_influence_percentage = yes
		}
	}
	option = {
		name = wot.13.b 	#Burhanuddin Rabbani
		log = "[GetDateText]: [This.GetName]: wot.13.b executed"
		ai_chance = { factor = 15 }
		custom_effect_tooltip = TT_AFGHANISTAN_NEW_ADMINISTRATION_RABBANI
		AFG = {
			set_country_flag = AFG_new_administration_Rabbani
			country_event = { id = Afghanistan.4 }
			set_temp_variable = { percent_change = 20 }
			set_temp_variable = { tag_index = ROOT.id }
			set_temp_variable = { influence_target = THIS.id }
			change_influence_percentage = yes
		}
	}
	option = {
		name = wot.13.c 	#Ahmad Shah Massoud
		log = "[GetDateText]: [This.GetName]: wot.13.c executed"
		trigger = { AFG = { NOT = { has_country_flag = Massoud_dead } } }
		ai_chance = { factor = 150 }
		custom_effect_tooltip = TT_AFGHANISTAN_NEW_ADMINISTRATION_MASSOUD
		AFG = {
			set_country_flag = AFG_new_administration_Massoud
			country_event = { id = Afghanistan.4 }
			set_temp_variable = { percent_change = 20 }
			set_temp_variable = { tag_index = ROOT.id }
			set_temp_variable = { influence_target = THIS.id }
			change_influence_percentage = yes
		}
	}
	option = {
		name = wot.13.d 	#Mohammed Zahir Shah
		log = "[GetDateText]: [This.GetName]: wot.13.d executed"
		ai_chance = { factor = 5 }
		custom_effect_tooltip = TT_AFGHANISTAN_NEW_ADMINISTRATION_ZAHIR_SHAH
		AFG = {
			set_country_flag = AFG_new_administration_Zahir_Shah
			country_event = { id = Afghanistan.4 }
			set_temp_variable = { percent_change = 20 }
			set_temp_variable = { tag_index = ROOT.id }
			set_temp_variable = { influence_target = THIS.id }
			change_influence_percentage = yes
		}
	}
}

#US Petitions invasion of Iraq
country_event = {
	id = wot.14
	title = wot.14.t
	desc = wot.14.d
	picture = GFX_iraq_war3

	is_triggered_only = yes

	option = {
		name = wot.14.a
		log = "[GetDateText]: [This.GetName]: wot.14.a executed"
		ai_chance = {
			factor = 5
			modifier = {
				factor = 5
				original_tag = ENG
			}
		}
		set_country_flag = voted_in_favor_of_iraq_invasion
	}
	option = {
		name = wot.14.b
		log = "[GetDateText]: [This.GetName]: wot.14.b executed"
		ai_chance = {
			factor = 95
			modifier = {
				factor = 0.8
				original_tag = ENG
			}
		}
		set_country_flag = voted_against_of_iraq_invasion
	}

}

#Petition denied
country_event = {
	id = wot.15
	title = wot.15.t
	desc = wot.15.d
	picture = GFX_iraq_war3

	fire_only_once = yes

	trigger = {
		has_country_flag = US_UN_vote_on_iraq
		OR = {
			ENG = { has_country_flag = voted_against_of_iraq_invasion }
			CHI = { has_country_flag = voted_against_of_iraq_invasion }
			SOV = { has_country_flag = voted_against_of_iraq_invasion }
			FRA = { has_country_flag = voted_against_of_iraq_invasion }
		}
	}

	mean_time_to_happen = {
		days = 7
	}

	option = {
		name = wot.15.a
		log = "[GetDateText]: [This.GetName]: wot.15.a executed"
		ai_chance = { factor = 95 }
		set_country_flag = us_prepare_for_iraq_invasion
	}
	option = {
		name = wot.15.b
		log = "[GetDateText]: [This.GetName]: wot.15.b executed"
		ai_chance = { factor = 5 }
	}

}

#Petition approved
country_event = {
	id = wot.16
	title = wot.16.t
	desc = wot.16.d
	picture = GFX_iraq_war3

	fire_only_once = yes

	trigger = {
		has_country_flag = US_UN_vote_on_iraq
		ENG = { has_country_flag = voted_in_favor_of_iraq_invasion }
		CHI = { has_country_flag = voted_in_favor_of_iraq_invasion }
		SOV = { has_country_flag = voted_in_favor_of_iraq_invasion }
		FRA = { has_country_flag = voted_in_favor_of_iraq_invasion }
	}

	mean_time_to_happen = {
		days = 7
	}

	option = {
		name = wot.16.a
		log = "[GetDateText]: [This.GetName]: wot.16.a executed"
		ai_chance = { factor = 100 }
		set_country_flag = Operation_iraqi_freedom
		create_wargoal = {
			type = puppet_wargoal_focus
			target = IRQ
		}
		add_ai_strategy = {
			type = declare_war
			id = "IRQ"
			value = 200
		}
		hidden_effect = { news_event = { id = wotnews.10 hours = 6 } }
	}

}

#Asking countries to join Invasion of Iraq
country_event = {
	id = wot.17
	title = wot.17.t
	desc = wot.17.d
	picture = GFX_iraq_war3

	is_triggered_only = yes

	option = {
		name = wot.17.a		#Send troops
		log = "[GetDateText]: [This.GetName]: wot.17.a executed"
		ai_chance = {
			factor = 30
			modifier = {
				factor = 3
				OR = {
					original_tag = ENG
					original_tag = POL
					original_tag = AST
				}
			}
			modifier = {
				factor = 0.5
				num_divisions < 10
			}
		}
		lose_pp_for_month = yes
		if = {
			limit = {
				NOT = {
					has_idea = intervention_regional_interventionism
					has_idea = intervention_global_interventionism
					has_idea = intervention_neo_imperialism
				}
			}
			add_ideas = intervention_regional_interventionism
		}
		if = {
			limit = { is_ai = yes }
			add_ai_strategy = {
				type = send_volunteers_desire
				id = USA
				value = 200
			}
		}
	}
	option = {
		name = wot.17.b		#We don't want to take part
		log = "[GetDateText]: [This.GetName]: wot.17.b executed"
		ai_chance = {
			factor = 50
			modifier = {
				factor = 0.5
				OR = {
					original_tag = ENG
					original_tag = POL
					original_tag = AST
				}
			}
			modifier = {
				factor = 2
				num_divisions < 10
			}
		}
	}

}

#Capture of Saddam Hussein Trigger
country_event = {
	id = wot.18
	hidden = yes

	fire_only_once = yes

	trigger = {
		has_global_flag = success_of_operation_iraqi_freedom
		IRQ = { is_subject_of = USA }
		date > 2003.12.12
		date < 2006.12.30
	}

	immediate = {
		set_global_flag = saddam_hussein_captured
	}

	option = {
		log = "[GetDateText]: [This.GetName]: wot.18 executed"
		news_event = {
			id = wotnews.12
			hours = 6
		}
	}
}

#Saddam Hussein Sentenced to Death Trigger
country_event = {
	id = wot.19
	hidden = yes

	fire_only_once = yes

	trigger = {
		date > 2006.12.29
		date < 2015.1.1
		has_global_flag = success_of_operation_iraqi_freedom
		IRQ = { is_subject_of = USA }
	}

	option = {
		log = "[GetDateText]: [This.GetName]: wot.19 executed"
		news_event = {
			id = wotnews.13
			hours = 6
		}
	}
}

#bin Laden escapes
country_event = {
	id = wot.20
	title = wot.20.t
	desc = wot.20.d
	picture = GFX_bin_laden

	is_triggered_only = yes

	option = {
		name = wot.20.a
		log = "[GetDateText]: [This.GetName]: wot.20.a executed"
		ai_chance = { factor = 100 }
		add_stability = -0.05

		set_party_index_to_ruling_party = yes
		set_temp_variable = { party_popularity_increase = -0.10 }
		set_temp_variable = { temp_outlook_increase = -0.10 }
		add_relative_party_popularity = yes

		#If there is a salafist country, bin Laden goes there
		if = {
			limit = {
				any_country = {
					NOT = { original_tag = TAL }
					NOT = { original_tag = AFG }
					NOT = { original_tag = SAU }
					has_government = fascism
				}
			}
			random_country = {
				limit = {
					NOT = { original_tag = TAL }
					NOT = { original_tag = AFG }
					NOT = { original_tag = SAU }
					has_government = fascism
					has_idea = sunni
				}
				save_global_event_target_as = hideout_of_bin_laden
				set_country_flag = hideout_of_bin_laden
			}
		}
		#If no Salafist countries, go to a random Sunni country, with priority on Pakistan
		else_if = {
			limit = { country_exists = PAK }
			random_list = {
				70 = {
					PAK = {
						save_global_event_target_as = hideout_of_bin_laden
						set_country_flag = hideout_of_bin_laden
					}
				}
				30 = {
					random_country = {
						limit = {
							NOT = { original_tag = TAL }
							NOT = { original_tag = AFG }
							NOT = { original_tag = PAK }
							has_idea = sunni
						}
						save_global_event_target_as = hideout_of_bin_laden
						set_country_flag = hideout_of_bin_laden
					}
				}
			}
		}
		#If Pakistan doesn't exist, just go to a random Sunni country
		else_if = {
			limit = { NOT = { country_exists = PAK } }
			random_country = {
				limit = {
					NOT = { original_tag = TAL }
					NOT = { original_tag = AFG }
					has_idea = sunni
				}
				save_global_event_target_as = hideout_of_bin_laden
				set_country_flag = hideout_of_bin_laden
			}
		}
	}

}

#bin Laden captured
country_event = {
	id = wot.21
	title = wot.21.t
	desc = wot.21.d
	picture = GFX_bin_laden

	is_triggered_only = yes

	option = {
		name = wot.21.a
		log = "[GetDateText]: [This.GetName]: wot.21.a executed"
		ai_chance = { factor = 100 }
		add_stability = 0.05

		set_temp_variable_to_ruling_party = yes
		set_temp_variable = { party_popularity_increase = 0.10 }
		set_temp_variable = { temp_outlook_increase = 0.10 }
		add_relative_party_popularity = yes
		hidden_effect = { news_event = { id = wotnews.15 hours = 6 } }
		set_global_flag = bin_laden_out_of_the_game
	}

}

#bin Laden found by security services
country_event = {
	id = wot.22
	title = wot.22.t
	desc = wot.22.d
	picture = GFX_bin_laden

	trigger = {
		original_tag = USA
		any_country = {
			exists = yes
			has_country_flag = hideout_of_bin_laden
		}
	}

	fire_only_once = yes

	mean_time_to_happen = {
		months = 144
	}

	option = {
		name = wot.22.a
		log = "[GetDateText]: [This.GetName]: wot.22.a executed"
		ai_chance = { factor = 90 }
		event_target:hideout_of_bin_laden = { country_event = { id = wot.23 days = 1 } }
	}

	option = {
		name = wot.22.b
		log = "[GetDateText]: [This.GetName]: wot.22.b executed"
		ai_chance = { factor = 10 }
	}

}

#US asks permission for operation against bin Laden
country_event = {
	id = wot.23
	title = wot.23.t
	desc = wot.23.d
	picture = GFX_bin_laden

	is_triggered_only = yes

	option = {
		name = wot.23.a		#Allow the operation
		log = "[GetDateText]: [This.GetName]: wot.23.a executed"
		ai_chance = {
			factor = 80
			modifier = {
				factor = 4
				has_government = democratic
			}
			modifier = {
				factor = 0.8
				OR = {
					has_government = communism
					has_government = nationalist
				}
			}
			modifier = {
				factor = 0.1
				has_government = fascism
			}
		}
		FROM = { country_event = { id = wot.24 days = 1 } }
	}

	option = {
		name = wot.23.b		#Disallow the operation
		log = "[GetDateText]: [This.GetName]: wot.23.b executed"
		ai_chance = {
			factor = 20
			modifier = {
				factor = 0.25
				has_government = democratic
			}
			modifier = {
				factor = 1.25
				OR = {
					has_government = communism
					has_government = nationalist
				}
			}
			modifier = {
				factor = 10
				has_government = fascism
			}
		}
		FROM = { country_event = { id = wot.25 days = 1 } }
	}

}

#Country agrees to operation
country_event = {
	id = wot.24
	title = wot.24.t
	desc = wot.24.d
	picture = GFX_bin_laden

	is_triggered_only = yes

	option = {
		name = wot.24.a		#
		log = "[GetDateText]: [This.GetName]: wot.24.a executed"
		ai_chance = { factor = 100 }
		hidden_effect = { news_event = { id = wotnews.16 days = 4 } }
	}

}

#Country doesn't allow operation
country_event = {
	id = wot.25
	title = wot.25.t
	desc = wot.25.d
	picture = GFX_bin_laden

	is_triggered_only = yes

	option = {
		name = wot.25.a		#
		log = "[GetDateText]: [This.GetName]: wot.25.a executed"
		ai_chance = { factor = 100 }

		add_political_power = -100
		add_stability = -0.05

		set_party_index_to_ruling_party = yes
		set_temp_variable = { party_popularity_increase = -0.05 }
		set_temp_variable = { temp_outlook_increase = -0.05 }
		add_relative_party_popularity = yes
	}
	option = {
		name = wot.25.b		#
		log = "[GetDateText]: [This.GetName]: wot.25.b executed"
		ai_chance = { factor = 100 }

		log = "[GetDateText]: [Root.GetName]: diplomatic action embargo"
		set_country_flag = embargo@FROM
		add_opinion_modifier = { target = FROM modifier = embargo }
		reverse_add_opinion_modifier = { target = FROM modifier = embargo }
		add_opinion_modifier = { target = FROM modifier = embargo_opinion }
		reverse_add_opinion_modifier = { target = FROM modifier = embargo_opinion }
		if = {
			limit = {
				FROM = { has_idea = USA_usaid }
			}
			THIS = { remove_ideas = USA_usaid }
		}
	}

}


### NEWS EVENTS ###
#9/11 News Event
news_event = {
	id = wotnews.1
	title = wotnews.1.t
	desc = {
		text = wotnews.1.da
		trigger = { FROM = { has_country_flag = major_terrorist_attacks_discovered } }
	}
	desc = {
		text = wotnews.1.db
		trigger = { FROM = { has_country_flag = terrorist_attacks_succeed_no_fourth_plane } }
	}
	desc = {
		text = wotnews.1.dc
		trigger = { FROM = { has_country_flag = terrorist_attacks_succeed_fourth_plane } }
	}
	picture = GFX_news_nine_eleven

	major = yes

	is_triggered_only = yes

	option = {
		name = wotnews.1.o1
		log = "[GetDateText]: [This.GetName]: wotnews.1.o1 executed"
		trigger = { original_tag = USA }
	}

	option = {
		name = wotnews.1.o2
		log = "[GetDateText]: [This.GetName]: wotnews.1.o2 executed"
		trigger = {
			has_idea = NATO_member
			NOT = { original_tag = USA }
		}
	}

	option = {
		name = wotnews.1.o3
		log = "[GetDateText]: [This.GetName]: wotnews.1.o3 executed"
		trigger = {
			NOT = { has_idea = NATO_member }
			NOT = { original_tag = USA }
			NOT = { has_government = fascism }
		}
	}

	option = {
		name = wotnews.1.o4
		log = "[GetDateText]: [This.GetName]: wotnews.1.o4 executed"
		trigger = {
			NOT = { original_tag = USA }
			has_government = fascism
		}
	}
}

#Democrats rally behind the Republican Government after 9/11
news_event = {
	id = wotnews.2
	title = wotnews.2.t
	desc = wotnews.2.d
	picture = GFX_news_hillary_clinton_young

	is_triggered_only = yes
	major = yes

	option = {
		name = wotnews.2.a
		log = "[GetDateText]: [This.GetName]: wotnews.2.a executed"
	}
}

#National Prayer Service
news_event = {
	id = wotnews.3
	title = wotnews.3.t
	desc = wotnews.3.d
	picture = GFX_news_national_prayer_service_2001

	is_triggered_only = yes
	major = yes

	option = {
		name = wotnews.3.a
		log = "[GetDateText]: [This.GetName]: wotnews.3.a executed"
	}
}

#Murder of Balbir Singh Sodhi
news_event = {
	id = wotnews.4
	title = wotnews.4.t
	desc = wotnews.4.d
	picture = GFX_news_balbir_singh_sodhi

	is_triggered_only = yes
	major = yes

	option = {
		name = wotnews.4.a
		log = "[GetDateText]: [This.GetName]: wotnews.4 executed"
	}
}

#Anthrax Attacks
news_event = {
	id = wotnews.5
	title = wotnews.5.t
	desc = wotnews.5.d
	picture = GFX_news_fbi

	is_triggered_only = yes
	major = yes

	option = {
		name = wotnews.5.a
		log = "[GetDateText]: [This.GetName]: wotnews.5.a executed"
	}
}

#The War on Terror Speech
news_event = {
	id = wotnews.6
	title = wotnews.6.t
	desc = wotnews.6.d
	picture = GFX_american_flag

	is_triggered_only = yes
	major = yes

	option = {
		name = wotnews.6.a
		log = "[GetDateText]: [This.GetName]: wotnews.6.a executed"
	}
}

#Bush announces the Invasion of Afghanistan
news_event = {
	id = wotnews.7
	title = wotnews.7.t
	desc = wotnews.7.d
	picture = GFX_operation_enduring_freedom

	is_triggered_only = yes
	major = yes

	option = {
		name = wotnews.7.a
		log = "[GetDateText]: [This.GetName]: wotnews.7.a executed"
	}
}

#Bonn Agreement
news_event = {
	id = wotnews.8
	title = wotnews.8.t
	desc = wotnews.8.d
	picture = GFX_news_bonn_agreement

	is_triggered_only = yes
	major = yes

	option = {
		name = wotnews.8.a
		log = "[GetDateText]: [This.GetName]: wotnews.8.a executed"
	}
}

#Guantanamo bay
news_event = {
	id = wotnews.9
	title = wotnews.9.t
	desc = wotnews.9.d
	picture = GFX_guantanamo_bay

	is_triggered_only = yes
	major = yes

	option = {
		name = wotnews.9.a
		log = "[GetDateText]: [This.GetName]: wotnews.9.a executed"
	}
}

#Invasion of Iraq appoved by the UN
news_event = {
	id = wotnews.10
	title = wotnews.10.t
	desc = wotnews.10.d
	picture = GFX_news_fate_of_iraq

	is_triggered_only = yes
	major = yes

	option = {
		name = wotnews.10.a
		log = "[GetDateText]: [This.GetName]: wotnews.10.a executed"
	}
}

#Invasion of Iraq
news_event = {
	id = wotnews.11
	title = wotnews.11.t
	desc = wotnews.11.d
	picture = GFX_news_fate_of_iraq

	is_triggered_only = yes
	major = yes

	option = {
		name = wotnews.11.a
		log = "[GetDateText]: [This.GetName]: wotnews.11.a executed"
	}
}

#Saddam captured
news_event = {
	id = wotnews.12
	title = wotnews.12.t
	desc = wotnews.12.d
	picture = GFX_news_saddam_captured

	is_triggered_only = yes
	major = yes

	option = {
		name = wotnews.12.a
		log = "[GetDateText]: [This.GetName]: wotnews.12.a executed"
	}
}

#Saddam sentenced to death
news_event = {
	id = wotnews.13
	title = wotnews.13.t
	desc = wotnews.13.d
	picture = GFX_news_saddam_captured

	is_triggered_only = yes
	major = yes

	option = {
		name = wotnews.13.a
		log = "[GetDateText]: [This.GetName]: wotnews.13.a executed"
	}
}

#US withdraws from Iraq
news_event = {
	id = wotnews.14
	title = wotnews.14.t
	desc = wotnews.14.d
	picture = GFX_news_fate_of_iraq

	is_triggered_only = yes
	major = yes

	option = {
		name = wotnews.14.a
		log = "[GetDateText]: [This.GetName]: wotnews.14.a executed"
	}
}

#Osama bin Laden captured
news_event = {
	id = wotnews.15
	title = wotnews.15.t
	desc = wotnews.15.d
	picture = GFX_news_bin_laden_captured

	is_triggered_only = yes
	major = yes

	option = {
		name = wotnews.15.a
		log = "[GetDateText]: [This.GetName]: wotnews.15.a executed"
	}
}
#Osama bin Laden killed
news_event = {
	id = wotnews.16
	title = wotnews.16.t
	desc = wotnews.16.d
	picture = GFX_news_bin_laden_captured

	is_triggered_only = yes
	major = yes

	option = {
		name = wotnews.16.a
		log = "[GetDateText]: [This.GetName]: wotnews.16.a executed"
		if = { limit = { original_tag = USA }
			set_global_flag = bin_laden_out_of_the_game
		}
		if = {
			limit = { has_country_flag = hideout_of_bin_laden }
			clear_global_event_target = hideout_of_bin_laden
			clr_global_flag = hideout_of_bin_laden
			add_popularity = { ideology = democratic popularity = -0.10 }
		}
		if = { limit = { is_in_array = { global.ct_states = ROOT } }
			set_temp_variable = { threat_change = -5 }
			modify_terror_threat_effect = yes
		}
	}
}