set_leader_FRA = {
	if = { limit = { has_country_flag = set_liberalism }
		if = { limit = { check_variable = { liberalism_leader = 0 } }
			add_to_variable = { liberalism_leader = 1 }
			hidden_effect = { kill_country_leader = yes }

			create_country_leader = {
				name = "François Bayrou"
				picture = "Francois_Bayrou.dds"
				ideology = liberalism
				traits = {
					western_liberalism
					career_politician
				}
			}

			if = { limit = { has_country_flag = do_not_retire } subtract_from_variable = { liberalism_leader = 1 } }
			if = { limit = { date < 2016.1.2 } set_temp_variable = { b = 1 } } #skip if 2017
		}
		if = { limit = { check_variable = { liberalism_leader = 1 } NOT = { check_variable = { b = 1 } } }
			add_to_variable = { liberalism_leader = 1 }
			hidden_effect = { kill_country_leader = yes }

			create_country_leader = {
				name = "Emmanuel Macron"
				picture = "Emmanuel_Macron.dds"
				ideology = liberalism
				traits = {
					western_liberalism
					businessman
					polished
					stubborn
				}
			}

			if = { limit = { has_country_flag = do_not_retire } subtract_from_variable = { liberalism_leader = 1 } }
			set_temp_variable = { b = 1 }
		}
		if = { limit = { check_variable = { liberalism_leader = 2 } NOT = { check_variable = { b = 1 } } }
			add_to_variable = { liberalism_leader = 1 }
			hidden_effect = { kill_country_leader = yes }

			create_country_leader = {
				name = "Édouard Philippe"
				picture = "Edouard_Philippe.dds"
				ideology = liberalism
				traits = {
					western_liberalism
					lawyer
				}
			}

			if = { limit = { has_country_flag = do_not_retire } subtract_from_variable = { liberalism_leader = 1 } }
			set_temp_variable = { b = 1 }
		}
		if = { limit = { check_variable = { liberalism_leader = 3 } NOT = { check_variable = { b = 1 } } }
			add_to_variable = { liberalism_leader = 1 }
			hidden_effect = { kill_country_leader = yes }

			create_country_leader = {
				name = "Cédric Villani"
				picture = "Cedric_Villani.dds"
				ideology = liberalism
				traits = {
					western_liberalism
					scientist
				}
			}

			if = { limit = { has_country_flag = do_not_retire } subtract_from_variable = { liberalism_leader = 1 } }
			set_temp_variable = { b = 1 }
		}
		if = { limit = { check_variable = { liberalism_leader = 4 } NOT = { check_variable = { b = 1 } } }
			add_to_variable = { liberalism_leader = 1 }
			hidden_effect = { kill_country_leader = yes }

			create_country_leader = {
				name = "Gerald Darmanin"
				picture = "gerald_darmanin.dds"
				ideology = liberalism
				traits = {
					western_liberalism
					ruthless
					career_politician
				}
			}

			if = { limit = { has_country_flag = do_not_retire } subtract_from_variable = { liberalism_leader = 1 } }
			set_temp_variable = { b = 1 }
		}
		if = { limit = { check_variable = { liberalism_leader = 5 } NOT = { check_variable = { b = 1 } } }
			add_to_variable = { liberalism_leader = 1 }
			hidden_effect = { kill_country_leader = yes }

			create_country_leader = {
				name = "Christiane Taubira"
				picture = "Taubira.dds"
				ideology = liberalism
				traits = {
					western_liberalism
					economist
				}
			}

			if = { limit = { has_country_flag = do_not_retire } subtract_from_variable = { liberalism_leader = 1 } }
			set_temp_variable = { b = 1 }
		}
		if = { limit = { check_variable = { liberalism_leader = 6 } NOT = { check_variable = { b = 1 } } }
			add_to_variable = { liberalism_leader = 1 }
			hidden_effect = { kill_country_leader = yes }

			create_country_leader = {
				name = "Aurore Bergé"
				picture = "Aurore_Berge.dds"
				ideology = liberalism
				traits = {
					western_liberalism
				}
			}

			if = { limit = { has_country_flag = do_not_retire } subtract_from_variable = { liberalism_leader = 1 } }
			set_temp_variable = { b = 1 }
		}
		if = { limit = { check_variable = { liberalism_leader = 7 } NOT = { check_variable = { b = 1 } } }
			add_to_variable = { liberalism_leader = 1 }
			hidden_effect = { kill_country_leader = yes }

			create_country_leader = {
				name = "Gabriel Attal"
				picture = "gabriel_attal.dds"
				ideology = liberalism
				traits = {
					western_liberalism
					inexperienced
				}
			}

			if = { limit = { has_country_flag = do_not_retire } subtract_from_variable = { liberalism_leader = 1 } }
			set_temp_variable = { b = 1 }
		}
		if = { limit = { check_variable = { liberalism_leader = 8 } NOT = { check_variable = { b = 1 } } }
			add_to_variable = { liberalism_leader = 1 }
			hidden_effect = { kill_country_leader = yes }

			create_country_leader = {
				name = "Cécile Muschotti"
				picture = "Cecile_Muschotti.dds"
				ideology = liberalism
				traits = {
					western_liberalism
				}
			}

			if = { limit = { has_country_flag = do_not_retire } subtract_from_variable = { liberalism_leader = 1 } }
			set_temp_variable = { b = 1 }
		}
		if = { limit = { check_variable = { liberalism_leader = 9 } NOT = { check_variable = { b = 1 } } }
			add_to_variable = { liberalism_leader = 1 }
			hidden_effect = { kill_country_leader = yes }

			create_country_leader = {
				name = "Mounir Mahjoubi"
				picture = "Mounir_Mahjoubi.dds"
				ideology = liberalism
				traits = {
					western_liberalism
					tech_savy
				}
			}

			if = { limit = { has_country_flag = do_not_retire } subtract_from_variable = { liberalism_leader = 1 } }
			set_temp_variable = { b = 1 }
		}
		if = { limit = { check_variable = { liberalism_leader = 10 } NOT = { check_variable = { b = 1 } } }
			add_to_variable = { liberalism_leader = 1 }
			hidden_effect = { kill_country_leader = yes }

			create_country_leader = {
				name = "Aude Amadou"
				picture = "Aude_Amadou.dds"
				ideology = liberalism
				traits = {
					western_liberalism
				}
			}

			if = { limit = { has_country_flag = do_not_retire } subtract_from_variable = { liberalism_leader = 1 } }
			set_temp_variable = { b = 1 }
		}
		if = { limit = { check_variable = { liberalism_leader = 11 } NOT = { check_variable = { b = 1 } } }
			add_to_variable = { liberalism_leader = 1 }
			hidden_effect = { kill_country_leader = yes }

			create_country_leader = {
				name = "Cathy Racon-Bouzon"
				picture = "Cathy_Racon-Bouzon.dds"
				ideology = liberalism
				traits = {
					western_liberalism
				}
			}

			if = { limit = { has_country_flag = do_not_retire } subtract_from_variable = { liberalism_leader = 1 } }
			set_temp_variable = { b = 1 }
		}
		if = { limit = { check_variable = { liberalism_leader = 12 } NOT = { check_variable = { b = 1 } } }
			add_to_variable = { liberalism_leader = 1 }
			hidden_effect = { kill_country_leader = yes }

			create_country_leader = {
				name = "Typhanie Degois"
				picture = "Typhanie_Degois.dds"
				ideology = liberalism
				traits = {
					western_liberalism
					lawyer
				}
			}

			if = { limit = { has_country_flag = do_not_retire } subtract_from_variable = { liberalism_leader = 1 } }
			set_temp_variable = { b = 1 }
		}
	}
	else_if = { limit = { has_country_flag = set_conservatism }
		if = { limit = { check_variable = { conservatism_leader = 0 } }
			add_to_variable = { conservatism_leader = 1 }
			hidden_effect = { kill_country_leader = yes }

			create_country_leader = {
				name = "Nicolas Sarkozy"
				picture = "Cons_Nicolas_Sarkozy.dds"
				ideology = conservatism
				traits = {
					western_conservatism
					lawyer
					rash
					polished
					deceitful
					pro_american
				}
			}

			if = { limit = { has_country_flag = do_not_retire } subtract_from_variable = { conservatism_leader = 1 } }
			if = { limit = { date < 2016.1.2 } set_temp_variable = { b = 1 } } #skip if 2017
		}
		if = { limit = { check_variable = { conservatism_leader = 1 } NOT = { check_variable = { b = 1 } } }
			add_to_variable = { conservatism_leader = 1 }
			hidden_effect = { kill_country_leader = yes }

			create_country_leader = {
				name = "Alain Juppe"
				picture = "Cons_Alain_Juppe.dds"
				ideology = conservatism
				traits = {
					western_conservatism
					career_politician
				}
			}

			if = { limit = { has_country_flag = do_not_retire } subtract_from_variable = { conservatism_leader = 1 } }
			if = { limit = { date < 2016.1.2 } set_temp_variable = { b = 1 } } #skip if 2017
		}
		if = { limit = { check_variable = { conservatism_leader = 2 } NOT = { check_variable = { b = 1 } } }
			add_to_variable = { conservatism_leader = 1 }
			hidden_effect = { kill_country_leader = yes }

			create_country_leader = {
				name = "François Fillon"
				picture = "Cons_Francois_Fillon.dds"
				ideology = conservatism
				traits = {
					western_conservatism
					career_politician
				}
			}

			if = { limit = { has_country_flag = do_not_retire } subtract_from_variable = { conservatism_leader = 1 } }
			set_temp_variable = { b = 1 }
		}
		if = { limit = { check_variable = { conservatism_leader = 3 } NOT = { check_variable = { b = 1 } } }
			add_to_variable = { conservatism_leader = 1 }
			hidden_effect = { kill_country_leader = yes }

			create_country_leader = {
				name = "Christine Lagarde"
				picture = "Christine_Lagarde.dds"
				ideology = conservatism
				traits = {
					western_conservatism
					lawyer
				}
			}

			if = { limit = { has_country_flag = do_not_retire } subtract_from_variable = { conservatism_leader = 1 } }
			set_temp_variable = { b = 1 }
		}
		if = { limit = { check_variable = { conservatism_leader = 4 } NOT = { check_variable = { b = 1 } } }
			add_to_variable = { conservatism_leader = 1 }
			hidden_effect = { kill_country_leader = yes }

			create_country_leader = {
				name = "Dominique de Villepin"
				picture = "Dominique_de_Villepin.dds"
				ideology = conservatism
				traits = {
					western_conservatism
					honest
					diplomat
				}
			}

			if = { limit = { has_country_flag = do_not_retire } subtract_from_variable = { conservatism_leader = 1 } }
			set_temp_variable = { b = 1 }
		}
		if = { limit = { check_variable = { conservatism_leader = 5 } NOT = { check_variable = { b = 1 } } }
			add_to_variable = { conservatism_leader = 1 }
			hidden_effect = { kill_country_leader = yes }

			create_country_leader = {
				name = "Jean-François Copé"
				picture = "Jean-Francois_Cope.dds"
				ideology = conservatism
				traits = {
					western_conservatism
					lawyer
				}
			}

			if = { limit = { has_country_flag = do_not_retire } subtract_from_variable = { conservatism_leader = 1 } }
			set_temp_variable = { b = 1 }
		}
		if = { limit = { check_variable = { conservatism_leader = 6 } NOT = { check_variable = { b = 1 } } }
			add_to_variable = { conservatism_leader = 1 }
			hidden_effect = { kill_country_leader = yes }

			create_country_leader = {
				name = "Frédéric Mitterrand"
				picture = "Frederic_Mitterrand.dds"
				ideology = conservatism
				traits = {
					western_conservatism
					writer
				}
			}

			if = { limit = { has_country_flag = do_not_retire } subtract_from_variable = { conservatism_leader = 1 } }
			set_temp_variable = { b = 1 }
		}
		if = { limit = { check_variable = { conservatism_leader = 7 } NOT = { check_variable = { b = 1 } } }
			add_to_variable = { conservatism_leader = 1 }
			hidden_effect = { kill_country_leader = yes }

			create_country_leader = {
				name = "Nathalie Kosciusko-Morizet"
				picture = "Nathalie_Kosciusko_Morizet.dds"
				ideology = conservatism
				traits = {
					western_conservatism
					cautious
				}
			}

			if = { limit = { has_country_flag = do_not_retire } subtract_from_variable = { conservatism_leader = 1 } }
			set_temp_variable = { b = 1 }
		}
		if = { limit = { check_variable = { conservatism_leader = 8 } NOT = { check_variable = { b = 1 } } }
			add_to_variable = { conservatism_leader = 1 }
			hidden_effect = { kill_country_leader = yes }

			create_country_leader = {
				name = "Eric Ciotti"
				picture = "eric_ciotti.dds"
				ideology = conservatism
				traits = {
					western_conservatism
					career_politician
				}
			}

			if = { limit = { has_country_flag = do_not_retire } subtract_from_variable = { conservatism_leader = 1 } }
			set_temp_variable = { b = 1 }
		}
		if = { limit = { check_variable = { conservatism_leader = 9 } NOT = { check_variable = { b = 1 } } }
			add_to_variable = { conservatism_leader = 1 }
			hidden_effect = { kill_country_leader = yes }

			create_country_leader = {
				name = "Rama Yade"
				picture = "Rama_Yade.dds"
				ideology = conservatism
				traits = {
					western_conservatism
				}
			}

			if = { limit = { has_country_flag = do_not_retire } subtract_from_variable = { conservatism_leader = 1 } }
			set_temp_variable = { b = 1 }
		}
	}
	else_if = { limit = { has_country_flag = set_socialism }
		if = { limit = { check_variable = { socialism_leader = 0 } }
			add_to_variable = { socialism_leader = 1 }
			hidden_effect = { kill_country_leader = yes }

			create_country_leader = {
				name = "Lionel Jospin"
				picture = "Lionel_Jospin.dds"
				ideology = socialism
				traits = {
					western_socialism
					diplomat
				}
			}

			if = { limit = { has_country_flag = do_not_retire } subtract_from_variable = { socialism_leader = 1 } }
			if = { limit = { date < 2016.1.2 } set_temp_variable = { b = 1 } } #skip if 2017
		}
		if = { limit = { check_variable = { socialism_leader = 1 } NOT = { check_variable = { b = 1 } } }
			add_to_variable = { socialism_leader = 1 }
			hidden_effect = { kill_country_leader = yes }

			create_country_leader = {
				name = "Ségolène Royal"
				picture = "Segolene_Royal.dds"
				ideology = socialism
				traits = {
					western_socialism
					lawyer
				}
			}

			if = { limit = { has_country_flag = do_not_retire } subtract_from_variable = { socialism_leader = 1 } }
			if = { limit = { date < 2016.1.2 } set_temp_variable = { b = 1 } } #skip if 2017
		}
		if = { limit = { check_variable = { socialism_leader = 2 } NOT = { check_variable = { b = 1 } } }
			add_to_variable = { socialism_leader = 1 }
			hidden_effect = { kill_country_leader = yes }

			create_country_leader = {
				name = "Francois Hollande"
				picture = "Francois_Hollande.dds"
				ideology = socialism
				traits = {
					career_politician
					western_socialism
					emotional
					cautious

				}
			}

			if = { limit = { has_country_flag = do_not_retire } subtract_from_variable = { socialism_leader = 1 } }
			if = { limit = { date < 2016.1.2 } set_temp_variable = { b = 1 } } #skip if 2017
		}
		if = { limit = { check_variable = { socialism_leader = 3 } NOT = { check_variable = { b = 1 } } }
			add_to_variable = { socialism_leader = 1 }
			hidden_effect = { kill_country_leader = yes }

			create_country_leader = {
				name = "Benoit Hamon"
				picture = "Benoit_Hamon.dds"
				ideology = socialism
				traits = {
					western_socialism
					cautious
				}
			}

			if = { limit = { has_country_flag = do_not_retire } subtract_from_variable = { socialism_leader = 1 } }
			set_temp_variable = { b = 1 }
		}
		if = { limit = { check_variable = { socialism_leader = 4 } NOT = { check_variable = { b = 1 } } }
			add_to_variable = { socialism_leader = 1 }
			hidden_effect = { kill_country_leader = yes }

			create_country_leader = {
				name = "Dominique Strauss-Kahn"
				picture = "Dominique_Strauss-Kahn.dds"
				ideology = socialism
				traits = {
					businessman
					western_socialism
					sly
					greedy
				}
			}

			if = { limit = { has_country_flag = do_not_retire } subtract_from_variable = { socialism_leader = 1 } }
			set_temp_variable = { b = 1 }
		}
		if = { limit = { check_variable = { socialism_leader = 5 } NOT = { check_variable = { b = 1 } } }
			add_to_variable = { socialism_leader = 1 }
			hidden_effect = { kill_country_leader = yes }

			create_country_leader = {
				name = "Anne Hidalgo"
				picture = "Anne_Hidalgo.dds"
				ideology = socialism
				traits = {
					western_socialism
					career_politician
				}
			}

			if = { limit = { has_country_flag = do_not_retire } subtract_from_variable = { socialism_leader = 1 } }
			set_temp_variable = { b = 1 }
		}
		if = { limit = { check_variable = { socialism_leader = 6 } NOT = { check_variable = { b = 1 } } }
			add_to_variable = { socialism_leader = 1 }
			hidden_effect = { kill_country_leader = yes }

			create_country_leader = {
				name = "Ségolène Royal"
				picture = "Segolene_Royal.dds"
				ideology = socialism
				traits = {
					western_socialism
					lawyer
				}
			}

			if = { limit = { has_country_flag = do_not_retire } subtract_from_variable = { socialism_leader = 1 } }
			set_temp_variable = { b = 1 }
		}
		if = { limit = { check_variable = { socialism_leader = 7 } NOT = { check_variable = { b = 1 } } }
			add_to_variable = { socialism_leader = 1 }
			hidden_effect = { kill_country_leader = yes }

			create_country_leader = {
				name = "Manuel Valls"
				picture = "manuel_valls.dds"
				ideology = socialism
				traits = {
					western_socialism
					career_politician
					greedy
				}
			}

			if = { limit = { has_country_flag = do_not_retire } subtract_from_variable = { socialism_leader = 1 } }
			set_temp_variable = { b = 1 }
		}
		if = { limit = { check_variable = { socialism_leader = 8 } NOT = { check_variable = { b = 1 } } }
			add_to_variable = { socialism_leader = 1 }
			hidden_effect = { kill_country_leader = yes }

			create_country_leader = {
				name = "Olivier Faure"
				picture = "olivier_faure.dds"
				ideology = socialism
				traits = {
					western_socialism
					lawyer
					rational
				}
			}

			if = { limit = { has_country_flag = do_not_retire } subtract_from_variable = { socialism_leader = 1 } }
			set_temp_variable = { b = 1 }
		}
		if = { limit = { check_variable = { socialism_leader = 9 } NOT = { check_variable = { b = 1 } } }
			add_to_variable = { socialism_leader = 1 }
			hidden_effect = { kill_country_leader = yes }

			create_country_leader = {
				name = "Aurélie Filippetti"
				picture = "Aurelie_Filippetti.dds"
				ideology = socialism
				traits = {
					western_socialism
					writer
				}
			}

			if = { limit = { has_country_flag = do_not_retire } subtract_from_variable = { socialism_leader = 1 } }
			set_temp_variable = { b = 1 }
		}
	}
	else_if = { limit = { has_country_flag = set_Communist-State }
		if = { limit = { check_variable = { Communist-State_leader = 0 } }
			add_to_variable = { Communist-State_leader = 1 }
			hidden_effect = { kill_country_leader = yes }

			create_country_leader = {
				name = "Robert Hue"
				picture = "Robert_Hue.dds"
				ideology = Communist-State
				traits = {
					emerging_Communist-State
					doctor
				}
			}

			if = { limit = { has_country_flag = do_not_retire } subtract_from_variable = { Communist-State_leader = 1 } }
			if = { limit = { date < 2016.1.2 } set_temp_variable = { b = 1 } } #skip if 2017
		}
		if = { limit = { check_variable = { Communist-State_leader = 0 } NOT = { check_variable = { b = 1 } } }
			add_to_variable = { Communist-State_leader = 1 }
			hidden_effect = { kill_country_leader = yes }

			create_country_leader = {
				name = "Pierre Laurent"
				picture = "Pierre_Laurent.dds"
				ideology = Communist-State
				traits = {
					emerging_Communist-State
					journalist
				}
			}

			if = { limit = { has_country_flag = do_not_retire } subtract_from_variable = { Communist-State_leader = 1 } }
			set_temp_variable = { b = 1 }
		}
		if = { limit = { check_variable = { Communist-State_leader = 1 } NOT = { check_variable = { b = 1 } } }
			add_to_variable = { Communist-State_leader = 1 }
			hidden_effect = { kill_country_leader = yes }

			create_country_leader = {
				name = "Marie Georges buffet"
				picture = "marie_george_buffet.dds"
				ideology = Communist-State
				traits = {
					emerging_Communist-State
					career_politician
				}
			}

			if = { limit = { has_country_flag = do_not_retire } subtract_from_variable = { Communist-State_leader = 1 } }
			set_temp_variable = { b = 1 }
		}
		if = { limit = { check_variable = { Communist-State_leader = 2 } NOT = { check_variable = { b = 1 } } }
			add_to_variable = { Communist-State_leader = 1 }
			hidden_effect = { kill_country_leader = yes }

			create_country_leader = {
				name = "Ian Brossat"
				picture = "ian_bossat.dds"
				ideology = Communist-State
				traits = {
					emerging_Communist-State
					inexperienced
				}
			}

			if = { limit = { has_country_flag = do_not_retire } subtract_from_variable = { Communist-State_leader = 1 } }
			set_temp_variable = { b = 1 }
		}
	}
	else_if = { limit = { has_country_flag = set_anarchist_communism }
		if = { limit = { check_variable = { anarchist_communism_leader = 0 } }
			add_to_variable = { anarchist_communism_leader = 1 }
			hidden_effect = { kill_country_leader = yes }

			create_country_leader = {
				name = "Arlette Laguiller"
				picture = "Arlette_Laguiller.dds"
				ideology = anarchist_communism
				traits = {
					emerging_anarchist_communism
				}
			}

			if = { limit = { has_country_flag = do_not_retire } subtract_from_variable = { anarchist_communism_leader = 1 } }
			if = { limit = { date < 2016.1.2 } set_temp_variable = { b = 1 } } #skip if 2017
		}
		if = { limit = { check_variable = { anarchist_communism_leader = 1 } NOT = { check_variable = { b = 1 } } }
			add_to_variable = { anarchist_communism_leader = 1 }
			hidden_effect = { kill_country_leader = yes }

			create_country_leader = {
				name = "Nathalie Arthaud"
				picture = "Nathalie_Arthaud.dds"
				ideology = anarchist_communism
				traits = {
					emerging_anarchist_communism
					educator
				}
			}

			if = { limit = { has_country_flag = do_not_retire } subtract_from_variable = { anarchist_communism_leader = 1 } }
			if = { limit = { date < 2016.1.2 } set_temp_variable = { b = 1 } } #skip if 2017
		}
		if = { limit = { check_variable = { anarchist_communism_leader = 2 } NOT = { check_variable = { b = 1 } } }
			add_to_variable = { anarchist_communism_leader = 1 }
			hidden_effect = { kill_country_leader = yes }

			create_country_leader = {
				name = "Philippe Poutou"
				picture = "Philippe_Poutou.dds"
				ideology = anarchist_communism
				traits = {
					emerging_anarchist_communism
					union_man
				}
			}

			if = { limit = { has_country_flag = do_not_retire } subtract_from_variable = { anarchist_communism_leader = 1 } }
			set_temp_variable = { b = 1 }
		}
		if = { limit = { check_variable = { anarchist_communism_leader = 3 } NOT = { check_variable = { b = 1 } } }
			add_to_variable = { anarchist_communism_leader = 1 }
			hidden_effect = { kill_country_leader = yes }

			create_country_leader = {
				name = "Jean Pierre Mercier"
				picture = "jean_pierre_merceri.dds"
				ideology = anarchist_communism
				traits = {
					emerging_anarchist_communism
					union_man
				}
			}

			if = { limit = { has_country_flag = do_not_retire } subtract_from_variable = { anarchist_communism_leader = 1 } }
			set_temp_variable = { b = 1 }
		}
	}
	else_if = { limit = { has_country_flag = set_Neutral_conservatism }
		if = { limit = { check_variable = { Neutral_conservatism_leader = 0 } }
			add_to_variable = { Neutral_conservatism_leader = 1 }
			hidden_effect = { kill_country_leader = yes }

			create_country_leader = {
				name = "Charles Pasqua"
				picture = "Charles_Pasqua.dds"
				ideology = Neutral_conservatism
				traits = {
					neutrality_Neutral_conservatism
					judiciary
				}
			}

			if = { limit = { has_country_flag = do_not_retire } subtract_from_variable = { Neutral_conservatism_leader = 1 } }
			if = { limit = { date < 2016.1.2 } set_temp_variable = { b = 1 } } #skip if 2017
		}
		if = { limit = { check_variable = { Neutral_conservatism_leader = 1 } NOT = { check_variable = { b = 1 } } }
			add_to_variable = { Neutral_conservatism_leader = 1 }
			hidden_effect = { kill_country_leader = yes }

			create_country_leader = {
				name = "Nicolas Dupont-Aignan"
				picture = "Nicolas_Dupont-Aignan.dds"
				ideology = Neutral_conservatism
				traits = {
					neutrality_Neutral_conservatism
					career_politician
				}
			}

			if = { limit = { has_country_flag = do_not_retire } subtract_from_variable = { Neutral_conservatism_leader = 1 } }
			set_temp_variable = { b = 1 }
			}
			if = { limit = { check_variable = { Neutral_conservatism_leader = 2 } NOT = { check_variable = { b = 1 } } }
				add_to_variable = { Neutral_conservatism_leader = 1 }
				hidden_effect = { kill_country_leader = yes }

				create_country_leader = {
					name = "François Asselineau"
					picture = "francois_asselinue.dds"
					ideology = Neutral_conservatism
					traits = {
						neutrality_Neutral_conservatism
						career_politician
					}
				}

				if = { limit = { has_country_flag = do_not_retire } subtract_from_variable = { Neutral_conservatism_leader = 1 } }
				set_temp_variable = { b = 1 }
		}
	}
	else_if = { limit = { has_country_flag = set_Neutral_Muslim_Brotherhood }
		if = { limit = { check_variable = { Neutral_Muslim_Brotherhood_leader = 0 } }
			add_to_variable = { Neutral_Muslim_Brotherhood_leader = 1 }
			hidden_effect = { kill_country_leader = yes }

			create_country_leader = {
				name = "Mohamed Ennacer Latrèche"
				picture = "Mohamed_Ennacer_Latreche.dds"
				ideology = Neutral_Muslim_Brotherhood
				traits = {
					neutrality_Neutral_Muslim_Brotherhood
				}
			}

			if = { limit = { has_country_flag = do_not_retire } subtract_from_variable = { Neutral_Muslim_Brotherhood_leader = 1 } }
			set_temp_variable = { b = 1 }
		}
		if = { limit = { check_variable = { Neutral_Muslim_Brotherhood_leader = 1 } NOT = { check_variable = { b = 1 } } }
			add_to_variable = { Neutral_Muslim_Brotherhood_leader = 1 }
			hidden_effect = { kill_country_leader = yes }

			create_country_leader = {
				name = "Maryam Pougetoux"
				picture = "Maryam_Pougetoux.dds"
				ideology = Neutral_Muslim_Brotherhood
				traits = {
					neutrality_Neutral_Muslim_Brotherhood
				}
			}

			if = { limit = { has_country_flag = do_not_retire } subtract_from_variable = { Neutral_Muslim_Brotherhood_leader = 1 } }
			set_temp_variable = { b = 1 }
		}
	}
	else_if = { limit = { has_country_flag = set_Neutral_green }
		if = { limit = { check_variable = { Neutral_green_leader = 0 } }
			add_to_variable = { Neutral_green_leader = 1 }
			hidden_effect = { kill_country_leader = yes }

			create_country_leader = {
				name = "Dominique Voynet"
				picture = "Dominique_Voynet.dds"
				ideology = Neutral_green
				traits = {
					neutrality_Neutral_green
					doctor
				}
			}

			if = { limit = { has_country_flag = do_not_retire } subtract_from_variable = { Neutral_green_leader = 1 } }
			if = { limit = { date < 2016.1.2 } set_temp_variable = { b = 1 } } #skip if 2017
		}
		if = { limit = { check_variable = { Neutral_green_leader = 1 } NOT = { check_variable = { b = 1 } } }
			add_to_variable = { Neutral_green_leader = 1 }
			hidden_effect = { kill_country_leader = yes }

			create_country_leader = {
				name = "Eva Joly"
				picture = "Eva_Joly.dds"
				ideology = Neutral_green
				traits = {
					neutrality_Neutral_green
					lawyer
				}
			}

			if = { limit = { has_country_flag = do_not_retire } subtract_from_variable = { Neutral_green_leader = 1 } }
			if = { limit = { date < 2016.1.2 } set_temp_variable = { b = 1 } } #skip if 2017
		}
		if = { limit = { check_variable = { Neutral_green_leader = 2 } NOT = { check_variable = { b = 1 } } }
			add_to_variable = { Neutral_green_leader = 1 }
			hidden_effect = { kill_country_leader = yes }

			create_country_leader = {
				name = "Yannick Jadot"
				picture = "Yannick_Jadot.dds"
				ideology = Neutral_green
				traits = {
					neutrality_Neutral_green
					cautious
					career_politician
				}
			}

			if = { limit = { has_country_flag = do_not_retire } subtract_from_variable = { Neutral_green_leader = 1 } }
			set_temp_variable = { b = 1 }
		}
		if = { limit = { check_variable = { Neutral_green_leader = 3 } NOT = { check_variable = { b = 1 } } }
			add_to_variable = { Neutral_green_leader = 1 }
			hidden_effect = { kill_country_leader = yes }

			create_country_leader = {
				name = "Cécile Duflot"
				picture = "Cecile_Duflot.dds"
				ideology = Neutral_green
				traits = {
					neutrality_Neutral_green
				}
			}

			if = { limit = { has_country_flag = do_not_retire } subtract_from_variable = { Neutral_green_leader = 1 } }
			set_temp_variable = { b = 1 }
		}
		if = { limit = { check_variable = { Neutral_green_leader = 4 } NOT = { check_variable = { b = 1 } } }
			add_to_variable = { Neutral_green_leader = 1 }
			hidden_effect = { kill_country_leader = yes }

			create_country_leader = {
				name = "Emmanuelle Cosse"
				picture = "emmanuelle_cosse.dds"
				ideology = Neutral_green
				traits = {
					neutrality_Neutral_green
					journalist
				}
			}

			if = { limit = { has_country_flag = do_not_retire } subtract_from_variable = { Neutral_green_leader = 1 } }
			set_temp_variable = { b = 1 }
		}
	}

	else_if = { limit = { has_country_flag = set_Neutral_social }
		if = { limit = { check_variable = { Neutral_social_leader = 0 } }
			add_to_variable = { Neutral_social_leader = 1 }
			hidden_effect = { kill_country_leader = yes }

			create_country_leader = {
				name = "Jean-Luc Melenchon"
				picture = "Jean-Luc_Melenchon.dds"
				ideology = Neutral_social
				traits = {
					neutrality_neutral_Social
					career_politician
					ecological_economist
					stubborn
				}
			}
			if = { limit = { has_country_flag = do_not_retire } subtract_from_variable = { Neutral_social_leader = 1 } }
			set_temp_variable = { b = 1 }
		}
		if = { limit = { check_variable = { Neutral_social_leader = 1 } NOT = { check_variable = { b = 1 } } }
			add_to_variable = { Neutral_social_leader = 1 }
			hidden_effect = { kill_country_leader = yes }

			create_country_leader = {
				name = "Adrien Quatennens"
				picture = "adrien_quatennnens.dds"
				ideology = Neutral_social
				traits = {
					neutrality_neutral_Social
					emotional
				}
			}
			if = { limit = { has_country_flag = do_not_retire } subtract_from_variable = { Neutral_social_leader = 1 } }
			set_temp_variable = { b = 1 }
		}
		if = { limit = { check_variable = { Neutral_social_leader = 2 } NOT = { check_variable = { b = 1 } } }
			add_to_variable = { Neutral_social_leader = 1 }
			hidden_effect = { kill_country_leader = yes }

			create_country_leader = {
				name = "François Ruffin"
				picture = "francois_ruffin.dds"
				ideology = Neutral_social
				traits = {
					neutrality_neutral_Social
					rational
					likeable
					ecological_economist
					journalist
				}
			}
			if = { limit = { has_country_flag = do_not_retire } subtract_from_variable = { Neutral_social_leader = 1 } }
			set_temp_variable = { b = 1 }
		}
	}
	else_if = { limit = { has_country_flag = set_Nat_Populism }
		if = { limit = { check_variable = { Nat_Populism_leader = 0 } }
			add_to_variable = { Nat_Populism_leader = 1 }
			hidden_effect = { kill_country_leader = yes }

			create_country_leader = {
				name = "Jean-Marie Le Pen"
				picture = "Jean-Marie_Le_Pen.dds"
				ideology = Nat_Populism
				traits = {
					nationalist_Nat_Populism
					pro_russia
					islamophobe
					ruthless
					military_career
				}
			}

			if = { limit = { has_country_flag = do_not_retire } subtract_from_variable = { Nat_Populism_leader = 1 } }
			if = { limit = { date < 2016.1.2 } set_temp_variable = { b = 1 } } #skip if 2017
		}
		if = { limit = { check_variable = { Nat_Populism_leader = 1 } NOT = { check_variable = { b = 1 } } }
			add_to_variable = { Nat_Populism_leader = 1 }
			hidden_effect = { kill_country_leader = yes }

			create_country_leader = {
				name = "Marine Le Pen"
				picture = "Nationalist_1_Marine_Le_Pen.dds"
				ideology = Nat_Populism
				traits = {
					nationalist_Nat_Populism
					pro_russia
					career_politician
				}
			}


			if = { limit = { has_country_flag = do_not_retire } subtract_from_variable = { Nat_Populism_leader = 1 } }
			set_temp_variable = { b = 1 }
			}
			if = { limit = { check_variable = { Nat_Populism_leader = 2 } NOT = { check_variable = { b = 1 } } }
				add_to_variable = { Nat_Populism_leader = 1 }
				hidden_effect = { kill_country_leader = yes }

				create_country_leader = {
					name = "Bruno Gollnisch"
					picture = "bruno_gollnisch.dds"
					ideology = Nat_Populism
					traits = {
						nationalist_Nat_Populism
						lawyer
					}
				}

				if = { limit = { has_country_flag = do_not_retire } subtract_from_variable = { Nat_Populism_leader = 1 } }
				set_temp_variable = { b = 1 }
		}
		if = { limit = { check_variable = { Nat_Populism_leader = 3 } NOT = { check_variable = { b = 1 } } }
			add_to_variable = { Nat_Populism_leader = 1 }
			hidden_effect = { kill_country_leader = yes }

			create_country_leader = {
				name = "Marion Marechal-Le Pen"
				picture = "Nationalist_2_Marion_Marechal-Le_Pen.dds"
				ideology = Nat_Populism
				traits = {
					nationalist_Nat_Populism
					pro_russia
					islamophobe
					likeable
					ruthless
				}
			}

			if = { limit = { has_country_flag = do_not_retire } subtract_from_variable = { Nat_Populism_leader = 1 } }
			set_temp_variable = { b = 1 }
			}
			if = { limit = { check_variable = { Nat_Populism_leader = 4 } NOT = { check_variable = { b = 1 } } }
				add_to_variable = { Nat_Populism_leader = 1 }
				hidden_effect = { kill_country_leader = yes }

				create_country_leader = {
					name = "Florian Philippot"
					picture = "florian_philippot.dds"
					ideology = Nat_Populism
					traits = {
						nationalist_Nat_Populism
						career_politician
						pro_russia
					}
				}

				if = { limit = { has_country_flag = do_not_retire } subtract_from_variable = { Nat_Populism_leader = 1 } }
				set_temp_variable = { b = 1 }
		}

		if = { limit = { check_variable = { Nat_Populism_leader = 5 } NOT = { check_variable = { b = 1 } } }
			add_to_variable = { Nat_Populism_leader = 1 }
			hidden_effect = { kill_country_leader = yes }

			create_country_leader = {
				name = "Jordan Bardella"
				picture = "Jordan_Bardella.dds"
				ideology = Nat_Populism
				traits = {
					nationalist_Nat_Populism
					career_politician
				}
			}

			if = { limit = { has_country_flag = do_not_retire } subtract_from_variable = { Nat_Populism_leader = 1 } }
			set_temp_variable = { b = 1 }
		}
		if = { limit = { check_variable = { Nat_Populism_leader = 6 } NOT = { check_variable = { b = 1 } } }
			add_to_variable = { Nat_Populism_leader = 1 }
			hidden_effect = { kill_country_leader = yes }

			create_country_leader = {
				name = "Steeve Briois"
				picture = "steve_briois.dds"
				ideology = Nat_Populism
				traits = {
					nationalist_Nat_Populism
					career_politician
				}
			}

			if = { limit = { has_country_flag = do_not_retire } subtract_from_variable = { Nat_Populism_leader = 1 } }
			set_temp_variable = { b = 1 }
		}
		if = { limit = { check_variable = { Nat_Populism_leader = 7 } NOT = { check_variable = { b = 1 } } }
			add_to_variable = { Nat_Populism_leader = 1 }
			hidden_effect = { kill_country_leader = yes }

			create_country_leader = {
				name = "Stéphane Ravier"
				picture = "stephanie_ravier.dds"
				ideology = Nat_Populism
				traits = {
					nationalist_Nat_Populism
					career_politician
				}
			}

			if = { limit = { has_country_flag = do_not_retire } subtract_from_variable = { Nat_Populism_leader = 1 } }
			set_temp_variable = { b = 1 }
		}
		if = { limit = { check_variable = { Nat_Populism_leader = 8 } NOT = { check_variable = { b = 1 } } }
			add_to_variable = { Nat_Populism_leader = 1 }
			hidden_effect = { kill_country_leader = yes }

			create_country_leader = {
				name = "Manon Bouquin"
				picture = "Manon_Bouquin.dds"
				ideology = Nat_Populism
				traits = {
					nationalist_Nat_Populism
					pro_russia
				}
			}

			if = { limit = { has_country_flag = do_not_retire } subtract_from_variable = { Nat_Populism_leader = 1 } }
			set_temp_variable = { b = 1 }
		}
	}
	else_if = { limit = { has_country_flag = set_Monarchist }
		if = { limit = { check_variable = { Monarchist_leader = 0 } }
			add_to_variable = { Monarchist_leader = 1 }
			hidden_effect = { kill_country_leader = yes }

			create_country_leader = {
				name = "Louis XX de Bourbon"
				picture = "Louis_XX_de_Bourbon.dds"
				ideology = Monarchist
				traits = {
					nationalist_Monarchist
				}
			}

			if = { limit = { has_country_flag = do_not_retire } subtract_from_variable = { Monarchist_leader = 1 } }
			set_temp_variable = { b = 1 }
		}
	}
	else_if = { limit = { has_country_flag = set_Nat_Autocracy }
		if = { limit = { check_variable = { Nat_Autocracy_leader = 0 } }
			add_to_variable = { Nat_Autocracy_leader = 1 }
			hidden_effect = { kill_country_leader = yes }

			create_country_leader = {
				name = "Jean-Pierre Kelche"
				picture = "jean_pierre_kelche.dds"
				ideology = Nat_Autocracy
				traits = {
					nationalist_Nat_Autocracy
				}
			}

			if = { limit = { has_country_flag = do_not_retire } subtract_from_variable = { Nat_Autocracy_leader = 1 } }
			set_temp_variable = { b = 1 }
		}
	}
	#Salafist Movements
	else_if = { limit = { has_country_flag = set_Caliphate }
		if = { limit = { check_variable = { Caliphate_leader = 0 } }
			add_to_variable = { Caliphate_leader = 1 }
			hidden_effect = { kill_country_leader = yes }

			create_country_leader = {
				name = "El Hadi Doudi"
				picture = "El_Hadi_Doudi.dds"
				ideology = Caliphate
				traits = {
					salafist_Caliphate
				}
			}

			if = { limit = { has_country_flag = do_not_retire } subtract_from_variable = { Caliphate_leader = 1 } }
			set_temp_variable = { b = 1 }
		}
	}
}
