﻿division_template = {
	name = "Atayin Kuchter Battalion"

	regiments = {
		Special_Forces = { x = 0 y = 0 }
	}
	priority = 2
}

division_template = {
	name = "Motoatkichtar Elum Battalion"

	regiments = {
		Arm_Inf_Bat = { x = 0 y = 0 }
		Arm_Inf_Bat = { x = 0 y = 1 }
		Mech_Inf_Bat = { x = 0 y = 2 }
		armor_Bat = { x = 0 y = 3 }
		Arty_Bat = { x = 0 y = 4 }
	}

	support = {
		armor_Recce_Comp = { x = 0 y = 0 }
		SP_Arty_Battery = { x = 0 y = 1 }
	}
}

units = {
	division = {
		name = "Atayin Kuchter Battalion"
		location = 7706
		division_template = "Atayin Kuchter Battalion"
		start_experience_factor = 0.7
		start_equipment_factor = 0.01
	}

	division = {
		name = "1 Motoatkichtar Elum Battalion"
		location = 7706
		division_template = "Motoatkichtar Elum Battalion"
		start_experience_factor = 0.5
		start_equipment_factor = 0.01
	}

	division = {
		name = "2 Motoatkichtar Elum Battalion"
		location = 7706
		division_template = "Motoatkichtar Elum Battalion"
		start_experience_factor = 0.5
		start_equipment_factor = 0.01
	}
}

instant_effect = {
	add_equipment_to_stockpile = {
		type = L_Strike_fighter2		#L-39
		amount = 3
		producer = CZE
	}
	add_equipment_to_stockpile = {
		type = infantry_weapons
		amount = 1100
		producer = SOV
	}
	add_equipment_to_stockpile = {
		type = Anti_tank_0			#AT-3
		amount = 30
		producer = SOV
	}
	add_equipment_to_stockpile = {
		type = Anti_tank_1			#AT-4
		amount = 30
		producer = SOV
	}
	add_equipment_to_stockpile = {
		type = Heavy_Anti_tank_0			#AT-3
		amount = 25
		producer = SOV
	}
	add_equipment_to_stockpile = {
		type = Heavy_Anti_tank_1			#AT-5
		amount = 25
		producer = SOV
	}
	add_equipment_to_stockpile = {
		type = Anti_Air_0
		amount = 100
		producer = SOV
	}
	add_equipment_to_stockpile = {
		type = command_control_equipment
		amount = 200
		producer = SOV
	}
	add_equipment_to_stockpile = {
		type = mbt_hull_1
		variant_name = "T-72B"
		amount = 150
		producer = SOV
	}
	add_equipment_to_stockpile = {
		type = Rec_tank_0		#BRDM-2
		#version_name = "BRDM-2"
		amount = 30
		producer = SOV
	}
	add_equipment_to_stockpile = {
		type = IFV_1		#BMP-1
		amount = 230
		producer = SOV
	}
	add_equipment_to_stockpile = {
		type = IFV_3		#BMP-2
		amount = 90
		producer = SOV
	}
	add_equipment_to_stockpile = {
		type = APC_3		#BTR-70
		amount = 35
		producer = SOV
	}
	add_equipment_to_stockpile = {
		type = APC_4		#BTR-80
		amount = 10
		producer = SOV
	}
	add_equipment_to_stockpile = {
		type = SP_arty_0		#2S1
		#version_name = "2S1 Gvozdika"
		amount = 18
		producer = SOV
	}
	add_equipment_to_stockpile = {
		type = SP_R_arty_0		#BM-21
		amount = 15
		producer = SOV
	}
	add_equipment_to_stockpile = {
		type = SP_R_arty_1		#BM-27
		amount = 6
		producer = SOV
	}
	add_equipment_to_stockpile = {
		type = artillery_0		#D-30
		amount = 72
		producer = SOV
	}
	add_equipment_to_stockpile = {
		type = transport_helicopter1 #Hip
		amount = 8
		producer = SOV
	}
	add_equipment_to_stockpile = {
		type = attack_helicopter1 #Hind
		amount = 2
		producer = SOV
	}
	add_equipment_to_stockpile = {
		type = transport_plane1
		amount = 6
		producer = SOV
	}
}