﻿division_template = {
	name = "Panzerbrigade"

	regiments = {
		armor_Bat = { x = 0 y = 0 }
		Mech_Inf_Bat = { x = 0 y = 1 }
		Mech_Inf_Bat = { x = 0 y = 2 }
		Arm_Inf_Bat = { x = 1 y = 0 }
		Arm_Inf_Bat = { x = 1 y = 1 }
		SP_Arty_Bat = { x = 1 y = 2 }
	}
}

division_template = {
	name = "Leichte Panzerbrigade"

	regiments = {
		Mech_Inf_Bat = { x = 0 y = 0 }
		Mech_Inf_Bat = { x = 0 y = 1 }
		SP_Arty_Bat = { x = 0 y = 2 }
		SP_Arty_Bat = { x = 0 y = 3 }
	}
}

division_template = {
	name = "Spezialkräfte Brigade"

	regiments = {
		Special_Forces = { x = 0 y = 0 }
		Special_Forces = { x = 0 y = 1 }
	}

	priority = 2
}

division_template = {
	name = "Infanteriebrigade"

	regiments = {
		Mech_Inf_Bat = { x = 0 y = 0 }
		Mech_Inf_Bat = { x = 0 y = 1 }
		L_Inf_Bat = { x = 0 y = 2 }
		Mech_Inf_Bat = { x = 1 y = 0 }
		Mech_Inf_Bat = { x = 1 y = 1 }
	}
}

division_template = {
	name = "Gebirgsinfanteriebrigade"

	regiments = {
		L_Inf_Bat = { x = 0 y = 0 }
		L_Inf_Bat = { x = 0 y = 1 }
		L_Inf_Bat = { x = 0 y = 2 }
		L_Inf_Bat = { x = 1 y = 0 }
		L_Inf_Bat = { x = 1 y = 1 }
	}
}

division_template = {
	name = "Kombinierte Brigade"

	regiments = {
		L_Inf_Bat = { x = 0 y = 0 }
		L_Inf_Bat = { x = 0 y = 1 }
		L_Inf_Bat = { x = 0 y = 2 }
		Mech_Inf_Bat = { x = 1 y = 0 }
		Mech_Inf_Bat = { x = 1 y = 1 }
	}
}

units = {
	division = {
		name = "Brigade Mécanisée 1"
		location = 6666		#Morges
		division_template = "Panzerbrigade"
		start_experience_factor = 0.65
		start_equipment_factor = 0.01
	}

	division = {
		name = "Panzerbrigade 11"
		location = 663		#Winterthur
		division_template = "Panzerbrigade"
		start_experience_factor = 0.65
		start_equipment_factor = 0.01
	}

	division = {
		name = "Panzerbrigade 4"
		location = 11604		#Aarau
		division_template = "Leichte Panzerbrigade"
		start_experience_factor = 0.65
		start_equipment_factor = 0.01
	}

	division = {
		name = "Spezialkräfte Brigade"
		location = 663
		division_template = "Spezialkräfte Brigade"
		start_experience_factor = 0.9
		start_equipment_factor = 0.01
	}

	division = {
		name = "Territoriale Division 2"
		location = 11604		#Kriens
		division_template = "Infanteriebrigade"
		start_experience_factor = 0.65
		start_equipment_factor = 0.01
	}

	division = {
		name = "Territoriale Division 3"
		location = 11601		#Altdorf
		division_template = "Gebirgsinfanteriebrigade"
		start_experience_factor = 0.65
		start_equipment_factor = 0.01
	}

	division = {
		name = "Territoriale Division 4"
		location = 11623		#St. Gallen
		division_template = "Kombinierte Brigade"
		start_experience_factor = 0.65
		start_equipment_factor = 0.01
	}

	division = {
		name = "Division Territoriale 1"
		location = 6666		#Morges
		division_template = "Kombinierte Brigade"
		start_experience_factor = 0.65
		start_equipment_factor = 0.01
	}
}

instant_effect = {
	add_equipment_to_stockpile = {
		type = SP_arty_0	 #M109
		amount = 577
		producer = USA
	}

	add_equipment_to_stockpile = {
		type = MBT_4	 	#Leopard 2A4
		amount = 380
		producer = GER
	}

	add_equipment_to_stockpile = {
		type = APC_2		 	#M113
		amount = 507
		producer = USA
	}

	add_equipment_to_stockpile = {
		type = APC_4		 	#Mowag Piranha 8x8 (Piranha III)
		amount = 500
		producer = SWI
	}

	add_equipment_to_stockpile = {
		type = APC_2		 	#Mowag Piranha 6x6 (Piranha I)
		amount = 100
		producer = SWI
	}

	add_equipment_to_stockpile = {
		type = util_vehicle_3		 #Mowag Eagle
		amount = 300
		producer = SWI
	}

	add_equipment_to_stockpile = {
		type = util_vehicle_2		 #Mowag Duro
		amount = 520
		producer = SWI
	}

	add_equipment_to_stockpile = {
		type = IFV_5			 #CV90 MkII
		amount = 200
		producer = SWE
	}

	add_equipment_to_stockpile = {
		type = infantry_weapons2			 #SIG SG 550
		amount = 65000
		producer = SWI
	}

	add_equipment_to_stockpile = {
		type = Anti_tank_0			 #M47 Dragon
		amount = 100
		producer = USA
	}

	add_equipment_to_stockpile = {
		type = Heavy_Anti_tank_0
		amount = 100
		producer = USA
	}

	add_equipment_to_stockpile = {
		type = Anti_Air_1			 #Stinger
		amount = 100
		producer = USA
	}

   add_equipment_to_stockpile = {
		type = command_control_equipment
		amount = 600
		producer = SWI
	}

	add_equipment_to_stockpile = {
		type = MR_Fighter1		 #F-5
		amount = 42
		producer = USA
	}

	add_equipment_to_stockpile = {
		type = CV_MR_Fighter3	 #F/A-18 Hornet
		amount = 26
		producer = USA
	}

	add_equipment_to_stockpile = {
		type = transport_helicopter1	 #AS332 Super Puma
		amount = 15
		producer = FRA
	}

	add_equipment_to_stockpile = {
		type = transport_helicopter2	 #AS532 Cougar
		amount = 10
		producer = FRA
	}
}