﻿units = {

	### Naval OOB ###
	fleet = {
	   name = "Marinha do Uruguay"
	   naval_base = 10362
		task_force = {
			name = "Marinha do Uruguay"
			location = 10362
			ship = { name = "General Artigas" definition = frigate start_experience_factor = 0.30 equipment = { frigate_1 = { amount = 1 owner = URG creator = FRA } } }
			ship = { name = "Montevideo" definition = frigate start_experience_factor = 0.30 equipment = { frigate_1 = { amount = 1 owner = URG creator = FRA } } }
			ship = { name = "Uruguay" definition = frigate start_experience_factor = 0.30 equipment = { frigate_1 = { amount = 1 owner = URG creator = FRA } } }
		}
	}
}
