﻿division_template = {
	name = "Stryker Brigade"
	division_names_group = USA_MECHINF_01
	regiments = {
		Mech_Inf_Bat = { x = 0 y = 0 }
		Mech_Inf_Bat = { x = 0 y = 1 }
		Mech_Inf_Bat = { x = 0 y = 2 }
		Mech_Inf_Bat = { x = 0 y = 3 }
		SP_Arty_Bat = { x = 1 y = 0 }
		Mech_Inf_Bat = { x = 1 y = 1 }
	}
		support = {
		H_Engi_Comp = { x = 0 y = 0 }
		Mot_Recce_Comp = { x = 0 y = 1 }
		helicopter_combat_service_support = { x = 0 y = 2 }
	}
}
division_template = {
	name = "Infantry Brigade"
	division_names_group = USA_INF_01
	regiments = {
		Mot_Inf_Bat = { x = 0 y = 0 }
		Mot_Inf_Bat = { x = 0 y = 1 }
		Mot_Inf_Bat = { x = 0 y = 2 }
		Mot_Inf_Bat = { x = 0 y = 3 }
		Arty_Bat = { x = 1 y = 0 }
		Mot_Inf_Bat = { x = 1 y = 1 }
		Mot_Inf_Bat = { x = 1 y = 2 }
	}
		support = {
		L_Engi_Comp = { x = 0 y = 0 }
		Mot_Recce_Comp = { x = 0 y = 1 }
		helicopter_combat_service_support = { x = 0 y = 2 }
	}
}
division_template = {
	name = "Armored Infantry Brigade"
	division_names_group = USA_ARMINF_01
	regiments = {
		armor_Bat = { x = 0 y = 0 }
		armor_Bat = { x = 0 y = 1 }
		Arm_Inf_Bat = { x = 0 y = 2 }
		Arm_Inf_Bat = { x = 0 y = 3 }
		SP_Arty_Bat = { x = 1 y = 0 }
		Arm_Inf_Bat = { x = 1 y = 1 }
	}
		support = {
		H_Engi_Comp = { x = 0 y = 0 }
		armor_Recce_Comp = { x = 0 y = 1 }
		helicopter_combat_service_support = { x = 0 y = 2 }
	}
}
division_template = {
	name = "Armored Brigade"
	division_names_group = USA_ARM_01
	regiments = {

		armor_Bat = { x = 0 y = 0 }
		armor_Bat = { x = 0 y = 1 }
		Arm_Inf_Bat = { x = 0 y = 2 }
		Arm_Inf_Bat = { x = 0 y = 3 }
		SP_Arty_Bat = { x = 1 y = 0 }
		Arm_Inf_Bat = { x = 1 y = 1 }
	}
		support = {
		H_Engi_Comp = { x = 0 y = 0 }
		armor_Recce_Comp = { x = 0 y = 1 }
		helicopter_combat_service_support = { x = 0 y = 2 }
	}
}
division_template = {
	name = "Armored Cavalry Regiment"  		#Special for 11th US Armored Cavalry Regiment

	regiments = {
		armor_Bat = { x = 0 y = 0 }
		Arm_Inf_Bat = { x = 0 y = 1 }
		SP_Arty_Bat = { x = 1 y = 0 }
		Arm_Inf_Bat = { x = 1 y = 1 }
	}
		support = {
		H_Engi_Comp = { x = 0 y = 0 }
		armor_Recce_Comp = { x = 0 y = 1 }
		helicopter_combat_service_support = { x = 0 y = 2 }
	}
}
division_template = {
	name = "Infantry Division"  		#Used in some Infantry Divisions

	regiments = {

		Mech_Inf_Bat = { x = 0 y = 0 } #Uses Strykers
		Mech_Inf_Bat = { x = 0 y = 1 }
		Mech_Inf_Bat = { x = 0 y = 2 }
	   	Mech_Inf_Bat = { x = 0 y = 3 }

		Mech_Inf_Bat = { x = 1 y = 0 } #Uses Strykers
		Mech_Inf_Bat = { x = 1 y = 1 } #Uses Strykers
		Mech_Inf_Bat = { x = 1 y = 2 } #Uses Strykers
		Mech_Inf_Bat = { x = 1 y = 3 }

		SP_Arty_Bat = { x = 2 y = 0 } #Uses Stryker variants of Light SPG and Mobile Mortars
		Mech_Inf_Bat = { x = 2 y = 1 } #Uses Stryker variant for reconnaisance

		SP_Arty_Bat = { x = 3 y = 0 } #Uses Stryker variants of Light SPG and Mobile Mortars
		Mech_Inf_Bat = { x = 3 y = 1 } #Uses Stryker variant for reconnaisance
	}
		support = {
		H_Engi_Comp = { x = 0 y = 0 }
		Mot_Recce_Comp = { x = 0 y = 1 }
		helicopter_combat_service_support = { x = 0 y = 2 }
	}
}
division_template = {
	name = "Air Assault Brigade"
	division_names_group = USA_AIRASSAULT_01
	regiments = {
		L_Air_assault_Bat = { x = 0 y = 0 }
		L_Air_assault_Bat = { x = 0 y = 1 }
		L_Air_assault_Bat = { x = 0 y = 2 }
		L_Air_assault_Bat = { x = 0 y = 3 }
		Arty_Bat = { x = 0 y = 4 }
	}
		support = {
		L_Engi_Comp = { x = 0 y = 0 }
		L_Recce_Comp = { x = 0 y = 1 }
		helicopter_combat_service_support = { x = 0 y = 2 }
	}
}
division_template = {
	name = "Airborne Brigade"
	division_names_group = USA_PARA_01
	regiments = {
		L_Air_Inf_Bat = { x = 0 y = 0 }
		L_Air_Inf_Bat = { x = 0 y = 1 }
		L_Air_Inf_Bat = { x = 0 y = 2 }
		L_Air_Inf_Bat = { x = 1 y = 0 }
		L_Air_Inf_Bat = { x = 1 y = 1 }
		Arty_Bat = { x = 1 y = 2 }
	}
		support = {
		L_Engi_Comp = { x = 0 y = 0 }
		L_Recce_Comp = { x = 0 y = 1 }
		helicopter_combat_service_support = { x = 0 y = 2 }
	}
}
division_template = {
	name = "Marine Expeditionary Unit"
	division_names_group = USA_MAR_02
	regiments = {
		Mot_Marine_Bat = { x = 0 y = 0 }
		Mot_Marine_Bat = { x = 0 y = 1 }
	}
		support = {
		Arm_Recce_Comp = { x = 0 y = 0 }
		armor_Comp = { x = 0 y = 1 }
		Arty_Battery = { x = 0 y = 2 }
		l_Engi_Comp = { x = 0 y = 3 }
		helicopter_combat_service_support = { x = 0 y = 4 }
	}
	priority = 0
}
division_template = {
	name = "Marine Regiment"
	division_names_group = USA_MAR_01
	regiments = {
		Mot_Marine_Bat = { x = 0 y = 0 }
		Mot_Marine_Bat = { x = 0 y = 1 }
		Mot_Marine_Bat = { x = 0 y = 2 }

		Mech_Marine_Bat = { x = 1 y = 0 }
		attack_helo_bat = { x = 1 y = 1 }

		L_Air_assault_Bat = { x = 2 y = 0 }
		Arty_Bat = { x = 2 y = 1 }
	}
		support = {
		Arm_Recce_Comp = { x = 0 y = 0 }
		armor_Comp = { x = 0 y = 1 }
		SP_AA_Battery = { x = 0 y = 2 }
		H_Engi_Comp = { x = 0 y = 3 }
		helicopter_combat_service_support = { x = 0 y = 4 }
	}
	priority = 0
}
division_template = {
	name = "Reinforced Marine Regiment"
	division_names_group = USA_MAR_03
	regiments = {
		Mot_Marine_Bat = { x = 0 y = 0 }
		Mot_Marine_Bat = { x = 0 y = 1 }
		Mot_Marine_Bat = { x = 0 y = 2 }
		Mot_Marine_Bat = { x = 0 y = 3 }

		Mech_Marine_Bat = { x = 1 y = 0 }		
		attack_helo_bat = { x = 1 y = 1 }

		L_Air_assault_Bat = { x = 2 y = 0 }
		Arty_Bat = { x = 2 y = 1 }
	}
		support = {
		Arm_Recce_Comp = { x = 0 y = 0 }
		armor_Comp = { x = 0 y = 1 }
		SP_AA_Battery = { x = 0 y = 2 }
		H_Engi_Comp = { x = 0 y = 3 }
		helicopter_combat_service_support = { x = 0 y = 4 }
	}
	priority = 0
}

division_template = {
	name = "Special Operations Group"
	division_names_group = USA_SOF_01
	regiments = {
		Special_Forces = { x = 0 y = 0 }
		Special_Forces = { x = 0 y = 1 }
	}
		support = {
		L_Recce_Comp = { x = 0 y = 0 }
	}
	priority = 2
}

division_template = {
	name = "Special Operations Battalion"
	division_names_group = USA_SOF_02
	regiments = {
		Special_Forces = { x = 0 y = 0 }
	}
		support = {
		L_Recce_Comp = { x = 0 y = 0 }
	}
	priority = 2
}

division_template = {
	name = "Combat Aviation Brigade"
	division_names_group = USA_CAB_01
	regiments = {
		L_Air_assault_Bat = { x = 0 y = 0 }
		L_Air_assault_Bat = { x = 0 y = 1 }
		attack_helo_bat = { x = 1 y = 0 }
		attack_helo_bat = { x = 1 y = 0 }
	}
		support = {
		L_Engi_Comp = { x = 0 y = 0 }
		L_Recce_Comp = { x = 0 y = 1 }
		helicopter_combat_service_support = { x = 0 y = 2 }
	}
}

division_template = {
	name = "Air Defense Artillery Brigade"

	regiments = {
		SP_AA_Bat = { x = 0 y = 0 }
		SP_AA_Bat = { x = 0 y = 1 }
		SP_AA_Bat = { x = 0 y = 2 }
	}
		support = {
		L_Engi_Comp = { x = 0 y = 0 }
		L_Recce_Comp = { x = 0 y = 1 }
	}
}

units = {

####### US Ground Forces #######

	### Tier 1 Special Forces Battalions ###

	division = {
		division_name = {
			is_name_ordered = yes
			name_order = 1
		}
		location = 873
		division_template = "Special Operations Battalion"
		start_experience_factor = 1
		start_equipment_factor = 0.01
	}

	division = {
		division_name = {
			is_name_ordered = yes
			name_order = 2
		}
		location = 7083
		division_template = "Special Operations Battalion"
		start_experience_factor = 1
		start_equipment_factor = 0.01
	}
	
	division = {
		division_name = {
			is_name_ordered = yes
			name_order = 3
		}
		location = 7083
		division_template = "Special Operations Battalion"
		start_experience_factor = 1
		start_equipment_factor = 0.01
	}
	
	division = {
		division_name = {
			is_name_ordered = yes
			name_order = 4
		}
		location = 788
		division_template = "Special Operations Battalion"
		start_experience_factor = 0.95
		start_equipment_factor = 0.01
	}
	
	#Lower tier Special Forces Battalions
	division = {
		division_name = {
			is_name_ordered = yes
			name_order = 5
		}
		location = 7583
		division_template = "Special Operations Battalion"
		start_experience_factor = 0.7
		start_equipment_factor = 0.01
	}

	division = {
		division_name = {
			is_name_ordered = yes
			name_order = 6
		}
		location = 7583
		division_template = "Special Operations Battalion"
		start_experience_factor = 0.7
		start_equipment_factor = 0.01
	}

	division = {
		division_name = {
			is_name_ordered = yes
			name_order = 7
		}
		location = 7583
		division_template = "Special Operations Battalion"
		start_experience_factor = 0.7
		start_equipment_factor = 0.01
	}
	
	division = {
		division_name = {
			is_name_ordered = yes
			name_order = 8
		}
		location = 1562
		division_template = "Special Operations Battalion"
		start_experience_factor = 0.8
		start_equipment_factor = 0.01
	}
	division = {
		division_name = {
			is_name_ordered = yes
			name_order = 9
		}
		location = 788
		division_template = "Special Operations Battalion"
		start_experience_factor = 0.8
		start_equipment_factor = 0.01
	}
	
	division = {
		division_name = {
			is_name_ordered = yes
			name_order = 10
		}
		location = 1562
		division_template = "Special Operations Battalion"
		start_experience_factor = 0.8
		start_equipment_factor = 0.01
	}
	
	#Special Forces Groups
	division = {
		division_name = {
			is_name_ordered = yes
			name_order = 1
		}
		location = 7386
		division_template = "Special Operations Group"
		start_experience_factor = 0.8
		start_equipment_factor = 0.01
	}

	division = {
		division_name = {
			is_name_ordered = yes
			name_order = 2
		}
		location = 7115
		division_template = "Special Operations Group"
		start_experience_factor = 0.8
		start_equipment_factor = 0.01
	}

	division = {
		division_name = {
			is_name_ordered = yes
			name_order = 3
		}
		location = 7083
		division_template = "Special Operations Group"
		start_experience_factor = 0.8
		start_equipment_factor = 0.01
	}

	division = {
		division_name = {
			is_name_ordered = yes
			name_order = 4
		}
		location = 7083
		division_template = "Special Operations Group"
		start_experience_factor = 0.8
		start_equipment_factor = 0.01
	}

	division = {
		division_name = {
			is_name_ordered = yes
			name_order = 5
		}
		location = 4402
		division_template = "Special Operations Group"
		start_experience_factor = 0.8
		start_equipment_factor = 0.01
	}

	division = {
		division_name = {
			is_name_ordered = yes
			name_order = 6
		}
		location = 4402
		division_template = "Special Operations Group"
		start_experience_factor = 0.8
		start_equipment_factor = 0.01
	}

	division = {
		division_name = {
			is_name_ordered = yes
			name_order = 7
		}
		location = 10352
		division_template = "Special Operations Group"
		start_experience_factor = 0.8
		start_equipment_factor = 0.01
	}

	division = {
		division_name = {
			is_name_ordered = yes
			name_order = 8
		}
		location = 10352
		division_template = "Special Operations Group"
		start_experience_factor = 0.8
		start_equipment_factor = 0.01
	}

	division = {
		division_name = {
			is_name_ordered = yes
			name_order = 9
		}
		location = 10588
		division_template = "Special Operations Group"
		start_experience_factor = 0.8
		start_equipment_factor = 0.01
	}

	division = {
		division_name = {
			is_name_ordered = yes
			name_order = 10
		}
		location = 10588
		division_template = "Special Operations Group"
		start_experience_factor = 0.8
		start_equipment_factor = 0.01
	}

	division = {
		division_name = {
			is_name_ordered = yes
			name_order = 11
		}
		location = 4865
		division_template = "Special Operations Group"
		start_experience_factor = 0.7
		start_equipment_factor = 0.01
	}

	division = {
		division_name = {
			is_name_ordered = yes
			name_order = 13
		}
		location = 12735
		division_template = "Special Operations Group"
		start_experience_factor = 0.7
		start_equipment_factor = 0.01
	}

	### Armored Divisions ###
	#1AD
	division = {
		division_name = {
			is_name_ordered = yes
			name_order = 1
		}
		location = 10740 #Ft. Bliss, TX
		division_template = "Armored Brigade"
		start_experience_factor = 0.6
		start_equipment_factor = 0.01
		force_equipment_variants = { mbt_hull_2 = { amount = 84 owner = USA version_name = "M1A2 Abrams" } }
		force_equipment_variants = { ifv_hull_2 = { amount = 180 owner = USA version_name = "M2A2 Bradley" } }
	}
	division = {
		division_name = {
			is_name_ordered = yes
			name_order = 2
		}
		location = 10740
		division_template = "Armored Brigade"
		start_experience_factor = 0.6
		start_equipment_factor = 0.01
		force_equipment_variants = { mbt_hull_2 = { amount = 84 owner = USA version_name = "M1A2 Abrams" } }
		force_equipment_variants = { ifv_hull_2 = { amount = 180 owner = USA version_name = "M2A2 Bradley" } }
	}
	division = {
		division_name = {
			is_name_ordered = yes
			name_order = 3
		}
		location = 10740
		division_template = "Armored Brigade"
		start_experience_factor = 0.6
		start_equipment_factor = 0.01
		force_equipment_variants = { mbt_hull_2 = { amount = 84 owner = USA version_name = "M1A2 Abrams" } }
		force_equipment_variants = { ifv_hull_2 = { amount = 180 owner = USA version_name = "M2A2 Bradley" } }
	}
	division = {
		name = "CAB - 1st Armored Division"
		location = 10740
		division_template = "Combat Aviation Brigade"
		start_experience_factor = 0.6
		start_equipment_factor = 0.01
	}
	#49AD
	division = {
		division_name = {
			is_name_ordered = yes
			name_order = 4
		}
		location = 10740
		division_template = "Armored Brigade"
		start_experience_factor = 0.6
		start_equipment_factor = 0.01
	}

	division = {
		division_name = {
			is_name_ordered = yes
			name_order = 5
		}
		location = 10740
		division_template = "Armored Brigade"
		start_experience_factor = 0.6
		start_equipment_factor = 0.01
	}

	division = {
		division_name = {
			is_name_ordered = yes
			name_order = 6
		}
		location = 10740
		division_template = "Armored Brigade"
		start_experience_factor = 0.6
		start_equipment_factor = 0.01
	}

	division = {
		name = "CAB - 49th Armored Division"
		location = 10740
		division_template = "Combat Aviation Brigade"
		start_experience_factor = 0.6
		start_equipment_factor = 0.01
	}

	division = {
		division_name = {
			is_name_ordered = yes
			name_order = 67
		}
		location = 5022 #Ft. Hood
		division_template = "Armored Brigade"
		start_experience_factor = 0.6
		start_equipment_factor = 0.01
	}

	division = {
		division_name = {
			is_name_ordered = yes
			name_order = 68
		}
		location = 5022
		division_template = "Armored Brigade"
		start_experience_factor = 0.6
		start_equipment_factor = 0.01
	}

	division = {
		division_name = {
			is_name_ordered = yes
			name_order = 69
		}
		location = 5022
		division_template = "Armored Brigade"
		start_experience_factor = 0.6
		start_equipment_factor = 0.01
	}

	division = {
		name = "CAB - 1st Cavalry Division"
		location = 5022
		division_template = "Combat Aviation Brigade"
		start_experience_factor = 0.6
		start_equipment_factor = 0.01
	}
	##INFANTRY DIVISIONS###
	#1ID
	division = {
		division_name = {
			is_name_ordered = yes
			name_order = 1
		}
		location = 1753 #FT Riley Kansas
		division_template = "Armored Infantry Brigade"
		start_experience_factor = 0.6
		start_equipment_factor = 0.01
		force_equipment_variants = { mbt_hull_2 = { amount = 84 owner = USA version_name = "M1A2 Abrams" } }
		force_equipment_variants = { ifv_hull_2 = { amount = 180 owner = USA version_name = "M2A2 Bradley" } }
	}

	division = {
		division_name = {
			is_name_ordered = yes
			name_order = 2
		}
		location = 1753 #FT Riley Kansas
		division_template = "Armored Infantry Brigade"
		start_experience_factor = 0.6
		start_equipment_factor = 0.01
		force_equipment_variants = { mbt_hull_2 = { amount = 84 owner = USA version_name = "M1A2 Abrams" } }
		force_equipment_variants = { ifv_hull_2 = { amount = 180 owner = USA version_name = "M2A2 Bradley" } }
	}
	
	division = {
		division_name = {
			is_name_ordered = yes
			name_order = 3
		}
		location = 11499 #Forward based in germany
		division_template = "Armored Infantry Brigade"
		start_experience_factor = 0.6
		start_equipment_factor = 0.01
		force_equipment_variants = { mbt_hull_2 = { amount = 84 owner = USA version_name = "M1A2 Abrams" } }
		force_equipment_variants = { ifv_hull_2 = { amount = 180 owner = USA version_name = "M2A2 Bradley" } }
	}

	division = {
		name = "CAB - 1st Infantry Division"
		location = 1753 #FT Riley Kansas
		division_template = "Combat Aviation Brigade"
		start_experience_factor = 0.6
		start_equipment_factor = 0.01
	}
	 #2ID
 	division = {
		division_name = {
			is_name_ordered = yes
			name_order = 4
		}
		location = 7386 #Ft. Lewis, WA
		division_template = "Stryker Brigade"
		start_experience_factor = 0.6
		start_equipment_factor = 0.01
	}

	division = {
		division_name = {
			is_name_ordered = yes
			name_order = 5
		}
		location = 7386
		division_template = "Stryker Brigade"
		start_experience_factor = 0.6
		start_equipment_factor = 0.01
	}

	division = {
		division_name = {
			is_name_ordered = yes
			name_order = 6
		}
		location = 7386
		division_template = "Stryker Brigade"
		start_experience_factor = 0.6
		start_equipment_factor = 0.01
	}

	division = {
		name = "CAB - 2nd Infantry Division"
		location = 7125
		division_template = "Combat Aviation Brigade"
		start_experience_factor = 0.6
		start_equipment_factor = 0.01
	}
	#3ID
	division = {
		division_name = {
			is_name_ordered = yes
			name_order = 7
		}
		location = 1480 #Ft. Benning, GA
		division_template = "Armored Infantry Brigade"
		start_experience_factor = 0.6
		start_equipment_factor = 0.01
		force_equipment_variants = { mbt_hull_2 = { amount = 84 owner = USA version_name = "M1A2 Abrams" } }
		force_equipment_variants = { ifv_hull_2 = { amount = 180 owner = USA version_name = "M2A2 Bradley" } }
	}

	division = {
		division_name = {
			is_name_ordered = yes
			name_order = 8
		}
		location = 1480
		division_template = "Armored Infantry Brigade"
		start_experience_factor = 0.6
		start_equipment_factor = 0.01
	}

	division = {
		division_name = {
			is_name_ordered = yes
			name_order = 9
		}
		location = 1480
		division_template = "Armored Infantry Brigade"
		start_experience_factor = 0.6
		start_equipment_factor = 0.01
	}

	division = {
		name = "CAB - 3rd Infantry Division"
		location = 1480
		division_template = "Combat Aviation Brigade"
		start_experience_factor = 0.6
		start_equipment_factor = 0.01
	}
	#4ID
	division = {
		division_name = {
			is_name_ordered = yes
			name_order = 10
		}
		location = 10588 #Ft. Carson
		division_template = "Stryker Brigade"
		start_experience_factor = 0.6
		start_equipment_factor = 0.01
	}

	division = {
		division_name = {
			is_name_ordered = yes
			name_order = 11
		}
		location = 10588
		division_template = "Infantry Brigade"
		start_experience_factor = 0.6
		start_equipment_factor = 0.01
	}

	division = {
		division_name = {
			is_name_ordered = yes
			name_order = 12
		}
		location = 10588
		division_template = "Armored Infantry Brigade"
		start_experience_factor = 0.6
		start_equipment_factor = 0.01
	}

	division = {
		name = "CAB - 4th Infantry Division"
		location = 10588
		division_template = "Combat Aviation Brigade"
		start_experience_factor = 0.6
		start_equipment_factor = 0.01
	}

	division = {
		name = "CAB - 7th Infantry Division"
		location = 7386
		division_template = "Combat Aviation Brigade"
		start_experience_factor = 0.6
		start_equipment_factor = 0.01
	}
	#10 Mountain Division 10ID
	division = {
		division_name = {
			is_name_ordered = yes
			name_order = 196
		}
		location = 6778 #Ft. Drum, NY
		division_template = "Infantry Brigade"
		start_experience_factor = 0.6
		start_equipment_factor = 0.01
	}

	division = {
		division_name = {
			is_name_ordered = yes
			name_order = 197
		}
		location = 6778
		division_template = "Infantry Brigade"
		start_experience_factor = 0.6
		start_equipment_factor = 0.01
	}

	division = {
		division_name = {
			is_name_ordered = yes
			name_order = 198
		}
		location = 1643 #Ft. Polk, LA
		division_template = "Infantry Brigade"
		start_experience_factor = 0.6
		start_equipment_factor = 0.01
	}

	division = {
		name = "CAB - 10th Mountain Division"
		location = 6778
		division_template = "Combat Aviation Brigade"
		start_experience_factor = 0.6
		start_equipment_factor = 0.01
	}
	#24ID
	division = {
		division_name = {
			is_name_ordered = yes
			name_order = 13
		}
		location = 1753
		division_template = "Infantry Brigade"
		start_experience_factor = 0.6
		start_equipment_factor = 0.01
	}
	division = {
		division_name = {
			is_name_ordered = yes
			name_order = 14
		}
		location = 1753
		division_template = "Infantry Brigade"
		start_experience_factor = 0.6
		start_equipment_factor = 0.01
	}
	division = {
		division_name = {
			is_name_ordered = yes
			name_order = 15
		}
		location = 1753
		division_template = "Infantry Brigade"
		start_experience_factor = 0.6
		start_equipment_factor = 0.01
	}

	division = {
		name = "CAB - 24th Infantry Division"
		location = 1753
		division_template = "Combat Aviation Brigade"
		start_experience_factor = 0.6
		start_equipment_factor = 0.01
	}
	#25ID
	division = {
		division_name = {
			is_name_ordered = yes
			name_order = 16
		}
		location = 13069 #Ft. wainwright, AK
		division_template = "Stryker Brigade"
		start_experience_factor = 0.6
		start_equipment_factor = 0.01
	}
	division = {
		division_name = {
			is_name_ordered = yes
			name_order = 17
		}
		location = 4180 #schofield barracks, HI
		division_template = "Infantry Brigade"
		start_experience_factor = 0.6
		start_equipment_factor = 0.01
	}
	division = {
		division_name = {
			is_name_ordered = yes
			name_order = 18
		}
		location = 4180
		division_template = "Infantry Brigade"
		start_experience_factor = 0.6
		start_equipment_factor = 0.01
	}
	division = {
		division_name = {
			is_name_ordered = yes
			name_order = 19
		}
		location = 13091 #Ft. Richardson, AK
		division_template = "Airborne Brigade"
		start_experience_factor = 0.6
		start_equipment_factor = 0.01
	}
	division = {
		name = "CAB - 25th Infantry Division"
		location = 4180
		division_template = "Combat Aviation Brigade"
		start_experience_factor = 0.6
		start_equipment_factor = 0.01
	}
	#82AB 
	division = {
		division_name = {
			is_name_ordered = yes
			name_order = 200
		}
		location = 7083 #Ft. Bragg, NC
		division_template = "Airborne Brigade"
		start_experience_factor = 0.65
		start_equipment_factor = 0.01
	}

	division = {
		division_name = {
			is_name_ordered = yes
			name_order = 201
		}
		location = 7083
		division_template = "Airborne Brigade"
		start_experience_factor = 0.65
		start_equipment_factor = 0.01
	}
	division = {
		division_name = {
			is_name_ordered = yes
			name_order = 202
		}
		location = 7083
		division_template = "Airborne Brigade"
		start_experience_factor = 0.65
		start_equipment_factor = 0.01
	}

	division = {
		name = "CAB - 82nd Airborne Division"
		location = 7083
		division_template = "Combat Aviation Brigade"
		start_experience_factor = 0.65
		start_equipment_factor = 0.01
	}
	#Air Assault airborne 101AB
	division = {
		division_name = {
			is_name_ordered = yes
			name_order = 203
		}
		location = 4402 #Ft. Campbell, KY
		division_template = "Air Assault Brigade"
		start_experience_factor = 0.65
		start_equipment_factor = 0.01
	}

	division = {
		division_name = {
			is_name_ordered = yes
			name_order = 204
		}
		location = 4402
		division_template = "Air Assault Brigade"
		start_experience_factor = 0.65
		start_equipment_factor = 0.01
	}

	division = {
		division_name = {
			is_name_ordered = yes
			name_order = 205
		}
		location = 4402
		division_template = "Air Assault Brigade"
		start_experience_factor = 0.65
		start_equipment_factor = 0.01
	}

	division = {
		name = "CAB - 101st Airborne Division"
		location = 4402
		division_template = "Combat Aviation Brigade"
		start_experience_factor = 0.65
		start_equipment_factor = 0.01
	}
	#Air Defense
	division = {
		name = "31st Air Defense Artillery Brigade (ADAB) - 32nd AAMDC - Ft. Sill, OK"
		location = 11743
		division_template = "Air Defense Artillery Brigade"
		start_experience_factor = 0.6
		start_equipment_factor = 0.01
		force_equipment_variants = { spaa_hull_1 = { amount = 44 owner = USA version_name = "MIM-104 Patriot" } }
	}

	division = {
		name = "69th Air Defense Artillery Brigade (ADAB) - 32nd AAMDC - Ft. Hood, TX"
		location = 5022
		division_template = "Air Defense Artillery Brigade"
		start_experience_factor = 0.6
		start_equipment_factor = 0.01
		force_equipment_variants = { spaa_hull_1 = { amount = 44 owner = USA version_name = "MIM-104 Patriot" } }
	}

	division = {
		name = "164th Air Defense Artillery Brigade (ADAB) - Florida Army NG - Orlando, FL"
		location = 12439
		division_template = "Air Defense Artillery Brigade"
		start_experience_factor = 0.6
		start_equipment_factor = 0.01
		force_equipment_variants = { spaa_hull_1 = { amount = 44 owner = USA version_name = "MIM-104 Patriot" } }
	}

	division = {
		name = "174th Air Defense Artillery Brigade (ADAB) - Ohio Army NG - Columbus, OH"
		location = 659
		division_template = "Air Defense Artillery Brigade"
		start_experience_factor = 0.6
		start_equipment_factor = 0.01
		force_equipment_variants = { spaa_hull_1 = { amount = 44 owner = USA version_name = "MIM-104 Patriot" } }
	}

	division = {
		name = "678th Air Defense Artillery Brigade (ADAB) - 263rd AAMDC - Eastover, SC"
		location = 7012
		division_template = "Air Defense Artillery Brigade"
		start_experience_factor = 0.6
		start_equipment_factor = 0.01
		force_equipment_variants = { spaa_hull_1 = { amount = 44 owner = USA version_name = "MIM-104 Patriot" } }
	}

	### US Army National Guard ###
	#28ID
	division = {
		division_name = {
			is_name_ordered = yes
			name_order = 21
		}
		location = 6869 #Ft. Indiantown Gap, PA
		division_template = "Infantry Brigade"
		start_experience_factor = 0.5
		start_equipment_factor = 0.01
	}

	division = {
		division_name = {
			is_name_ordered = yes
			name_order = 22
		}
		location = 6869
		division_template = "Stryker Brigade"
		start_experience_factor = 0.5
		start_equipment_factor = 0.01
	}

	division = {
		name = "CAB - 28th Infantry Division"
		location = 6869
		division_template = "Combat Aviation Brigade"
		start_experience_factor = 0.5
		start_equipment_factor = 0.01
	}
	#29ID
	division = {
		division_name = {
			is_name_ordered = yes
			name_order = 23
		}
		location = 7045 #Ft. Belvoir, VA
		division_template = "Armored Infantry Brigade"
		start_experience_factor = 0.5
		start_equipment_factor = 0.01
	}
	division = {
		division_name = {
			is_name_ordered = yes
			name_order = 24
		}
		location = 12246
		division_template = "Infantry Brigade"
		start_experience_factor = 0.5
		start_equipment_factor = 0.01
	}
	division = {
		division_name = {
			is_name_ordered = yes
			name_order = 25
		}
		location = 873
		division_template = "Infantry Brigade"
		start_experience_factor = 0.5
		start_equipment_factor = 0.01
	}
	division = {
		name = "CAB - 29th Infantry Division"
		location = 3957
		division_template = "Combat Aviation Brigade"
		start_experience_factor = 0.5
		start_equipment_factor = 0.01
	}
	
	#34ID
	division = {
		division_name = {
			is_name_ordered = yes
			name_order = 26
		}
		location = 1719 #Rosemount, MN
		division_template = "Armored Infantry Brigade"
		start_experience_factor = 0.5
		start_equipment_factor = 0.01
	}

	division = {
		division_name = {
			is_name_ordered = yes
			name_order = 27
		}
		location = 4691
		division_template = "Infantry Brigade"
		start_experience_factor = 0.5
		start_equipment_factor = 0.01
	}

	division = {
		division_name = {
			is_name_ordered = yes
			name_order = 28
		}
		location = 1760
		division_template = "Armored Infantry Brigade"
		start_experience_factor = 0.5
		start_equipment_factor = 0.01
	}

	division = {
		division_name = {
			is_name_ordered = yes
			name_order = 29
		}
		location = 9695
		division_template = "Armored Infantry Brigade"
		start_experience_factor = 0.5
		start_equipment_factor = 0.01
	}

	division = {
		name = "CAB - 34th Infantry Division"
		location = 1719
		division_template = "Combat Aviation Brigade"
		start_experience_factor = 0.5
		start_equipment_factor = 0.01
	}
	#35ID
	division = {
		division_name = {
			is_name_ordered = yes
			name_order = 30
		}
		location = 12778 #Ft. Leavenworth, KS
		division_template = "Infantry Brigade"
		start_experience_factor = 0.5
		start_equipment_factor = 0.01
	}
	division = {
		division_name = {
			is_name_ordered = yes
			name_order = 31
		}
		location = 11743
		division_template = "Infantry Brigade"
		start_experience_factor = 0.5
		start_equipment_factor = 0.01
	}
	division = {
		division_name = {
			is_name_ordered = yes
			name_order = 32
		}
		location = 4464
		division_template = "Armored Infantry Brigade"
		start_experience_factor = 0.5
		start_equipment_factor = 0.01
	}
	division = {
		name = "CAB - 35th Infantry Division"
		location = 1621
		division_template = "Combat Aviation Brigade"
		start_experience_factor = 0.5
		start_equipment_factor = 0.01
	}
	#38ID
	division = {
		division_name = {
			is_name_ordered = yes
			name_order = 33
		}
		location = 9450 #Indianapolis, IN
		division_template = "Infantry Brigade"
		start_experience_factor = 0.5
		start_equipment_factor = 0.01
	}

	division = {
		division_name = {
			is_name_ordered = yes
			name_order = 34
		}
		location = 659
		division_template = "Infantry Brigade"
		start_experience_factor = 0.5
		start_equipment_factor = 0.01
	}

	division = {
		division_name = {
			is_name_ordered = yes
			name_order = 35
		}
		location = 1595
		division_template = "Infantry Brigade"
		start_experience_factor = 0.5
		start_equipment_factor = 0.01
	}

	division = {
		name = "CAB - 38th Infantry Division"
		location = 1595
		division_template = "Combat Aviation Brigade"
		start_experience_factor = 0.5
		start_equipment_factor = 0.01
	}
	#40ID
	division = {
		division_name = {
			is_name_ordered = yes
			name_order = 36
		}
		location = 10048 #Los Alamitos, CA
		division_template = "Infantry Brigade"
		start_experience_factor = 0.5
		start_equipment_factor = 0.01
	}

	division = {
		division_name = {
			is_name_ordered = yes
			name_order = 37
		}
		location = 10151
		division_template = "Infantry Brigade"
		start_experience_factor = 0.5
		start_equipment_factor = 0.01
	}

	division = {
		division_name = {
			is_name_ordered = yes
			name_order = 38
		}
		location = 11757
		division_template = "Infantry Brigade"
		start_experience_factor = 0.5
		start_equipment_factor = 0.01
	}

	division = {
		name = "CAB - 40th Infantry Division"
		location = 11757
		division_template = "Combat Aviation Brigade"
		start_experience_factor = 0.5
		start_equipment_factor = 0.01
	}
	#42ID
	division = {
		division_name = {
			is_name_ordered = yes
			name_order = 39
		}
		location = 3806 #Troy, NY
		division_template = "Infantry Brigade"
		start_experience_factor = 0.5
		start_equipment_factor = 0.01
	}
	division = {
		division_name = {
			is_name_ordered = yes
			name_order = 40
		}
		location = 11740
		division_template = "Infantry Brigade"
		start_experience_factor = 0.5
		start_equipment_factor = 0.01
	}
	division = {
		division_name = {
			is_name_ordered = yes
			name_order = 41
		}
		location = 4445
		division_template = "Infantry Brigade"
		start_experience_factor = 0.5
		start_equipment_factor = 0.01
	}
	division = {
		name = "CAB - 42nd Infantry Division"
		location = 3806
		division_template = "Combat Aviation Brigade"
		start_experience_factor = 0.5
		start_equipment_factor = 0.01
	}

	### Seperate Brigades/Regiments ###

	division = {
		name = "2nd Cavalry Regiment - Stryker - Rose Barracks, Germany"
		location = 586
		division_template = "Stryker Brigade"
		start_experience_factor = 0.6
		start_equipment_factor = 0.01
	}

	division = {
		name = "3rd Cavalry Regiment - Stryker - Ft. Hood, TX"
		location = 5022
		division_template = "Stryker Brigade"
		start_experience_factor = 0.6
		start_equipment_factor = 0.01
	}

	division = {
		name = "11th Armored Cavalry Regiment - Armored Cavalry - Ft. Irwin, CA"
		location = 4727
		division_template = "Armored Cavalry Regiment"
		start_experience_factor = 0.6
		start_equipment_factor = 0.01
	}

	division = {
		division_name = {
			is_name_ordered = yes
			name_order = 199
		}
		location = 11584 #Camp Ederle, Italy
		division_template = "Airborne Brigade"
		start_experience_factor = 0.65
		start_equipment_factor = 0.01
	}

	division = {
		division_name = {
			is_name_ordered = yes
			name_order = 12
		}
		location = 11529
		division_template = "Combat Aviation Brigade"
		start_experience_factor = 0.6
		start_equipment_factor = 0.01
	}

	### US Marine Corps ###
	#1MARDIV
	division = {
		division_name = {
			is_name_ordered = yes
			name_order = 1
		}
		location = 1562
		division_template = "Marine Regiment"
		start_experience_factor = 0.65
		start_equipment_factor = 0.01
		force_equipment_variants = { mbt_hull_1 = { amount = 14 owner = USA version_name = "M1A1HA Abrams" } }
		force_equipment_variants = { ifv_hull_2 = { amount = 20 owner = USA version_name = "LAV-25" } }
		force_equipment_variants = { apc_hull_1 = { amount = 60 owner = USA version_name = "AAVP-7A1" } }
		force_equipment_variants = { infantry_weapons3 = { amount = 600 owner = "USA" } }
		force_equipment_variants = { attack_helicopter_hull_1 = { amount = 18 owner = USA version_name = "AH-1W SuperCobra" } }
	}

	division = {
		division_name = {
			is_name_ordered = yes
			name_order = 2
		}
		location = 1562
		division_template = "Marine Regiment"
		start_experience_factor = 0.65
		start_equipment_factor = 0.01
		force_equipment_variants = { mbt_hull_1 = { amount = 14 owner = USA version_name = "M1A1HA Abrams" } }
		force_equipment_variants = { ifv_hull_2 = { amount = 20 owner = USA version_name = "LAV-25" } }
		force_equipment_variants = { apc_hull_1 = { amount = 60 owner = USA version_name = "AAVP-7A1" } }
		force_equipment_variants = { infantry_weapons3 = { amount = 600 owner = "USA" } }
		force_equipment_variants = { attack_helicopter_hull_1 = { amount = 18 owner = USA version_name = "AH-1W SuperCobra" } }
	}

	division = {
		division_name = {
			is_name_ordered = yes
			name_order = 3
		}
		location = 4727
		division_template = "Marine Regiment"
		start_experience_factor = 0.65
		start_equipment_factor = 0.01
		force_equipment_variants = { mbt_hull_1 = { amount = 14 owner = USA version_name = "M1A1HA Abrams" } }
		force_equipment_variants = { ifv_hull_2 = { amount = 20 owner = USA version_name = "LAV-25" } }
		force_equipment_variants = { apc_hull_1 = { amount = 60 owner = USA version_name = "AAVP-7A1" } }
		force_equipment_variants = { infantry_weapons3 = { amount = 600 owner = "USA" } }
		force_equipment_variants = { attack_helicopter_hull_1 = { amount = 18 owner = USA version_name = "AH-1W SuperCobra" } }
	}

	division = {
		division_name = {
			is_name_ordered = yes
			name_order = 1
		}
		location = 1562
		division_template = "Reinforced Marine Regiment"
		start_experience_factor = 0.65
		start_equipment_factor = 0.01
		force_equipment_variants = { mbt_hull_1 = { amount = 14 owner = USA version_name = "M1A1HA Abrams" } }
		force_equipment_variants = { ifv_hull_2 = { amount = 20 owner = USA version_name = "LAV-25" } }
		force_equipment_variants = { apc_hull_1 = { amount = 60 owner = USA version_name = "AAVP-7A1" } }
		force_equipment_variants = { infantry_weapons3 = { amount = 600 owner = "USA" } }
		force_equipment_variants = { attack_helicopter_hull_1 = { amount = 18 owner = USA version_name = "AH-1W SuperCobra" } }
	}

	division = {
		division_name = {
			is_name_ordered = yes
			name_order = 11
		}
		location = 1562
		division_template = "Marine Expeditionary Unit"
		start_experience_factor = 0.65
		start_equipment_factor = 0.01
		force_equipment_variants = { mbt_hull_1 = { amount = 14 owner = USA version_name = "M1A1HA Abrams" } }
		force_equipment_variants = { ifv_hull_2 = { amount = 20 owner = USA version_name = "LAV-25" } }
	}

	division = {
		division_name = {
			is_name_ordered = yes
			name_order = 13
		}
		location = 1562
		division_template = "Marine Expeditionary Unit"
		start_experience_factor = 0.65
		start_equipment_factor = 0.01
		force_equipment_variants = { mbt_hull_1 = { amount = 14 owner = USA version_name = "M1A1HA Abrams" } }
		force_equipment_variants = { ifv_hull_2 = { amount = 20 owner = USA version_name = "LAV-25" } }
	}

	division = {
		division_name = {
			is_name_ordered = yes
			name_order = 15
		}
		location = 1562
		division_template = "Marine Expeditionary Unit"
		start_experience_factor = 0.65
		start_equipment_factor = 0.01
		force_equipment_variants = { mbt_hull_1 = { amount = 14 owner = USA version_name = "M1A1HA Abrams" } }
		force_equipment_variants = { ifv_hull_2 = { amount = 20 owner = USA version_name = "LAV-25" } }
	}
	#2MARDIV
	division = {
		division_name = {
			is_name_ordered = yes
			name_order = 4
		}
		location = 1132
		division_template = "Marine Regiment"
		start_experience_factor = 0.65
		start_equipment_factor = 0.01
		force_equipment_variants = { mbt_hull_1 = { amount = 14 owner = USA version_name = "M1A1HA Abrams" } }
		force_equipment_variants = { ifv_hull_2 = { amount = 20 owner = USA version_name = "LAV-25" } }
		force_equipment_variants = { apc_hull_1 = { amount = 60 owner = USA version_name = "AAVP-7A1" } }
		force_equipment_variants = { attack_helicopter_hull_1 = { amount = 18 owner = USA version_name = "AH-1W SuperCobra" } }
	}
	division = {
		division_name = {
			is_name_ordered = yes
			name_order = 5
		}
		location = 1132
		division_template = "Marine Regiment"
		start_experience_factor = 0.65
		start_equipment_factor = 0.01
		force_equipment_variants = { mbt_hull_1 = { amount = 14 owner = USA version_name = "M1A1HA Abrams" } }
		force_equipment_variants = { ifv_hull_2 = { amount = 20 owner = USA version_name = "LAV-25" } }
		force_equipment_variants = { apc_hull_1 = { amount = 60 owner = USA version_name = "AAVP-7A1" } }
		force_equipment_variants = { attack_helicopter_hull_1 = { amount = 18 owner = USA version_name = "AH-1W SuperCobra" } }
	}

	division = {
		division_name = {
			is_name_ordered = yes
			name_order = 2
		}
		location = 1132
		division_template = "Reinforced Marine Regiment"
		start_experience_factor = 0.65
		start_equipment_factor = 0.01
		force_equipment_variants = { mbt_hull_1 = { amount = 14 owner = USA version_name = "M1A1HA Abrams" } }
		force_equipment_variants = { ifv_hull_2 = { amount = 20 owner = USA version_name = "LAV-25" } }
		force_equipment_variants = { apc_hull_1 = { amount = 60 owner = USA version_name = "AAVP-7A1" } }
		force_equipment_variants = { attack_helicopter_hull_1 = { amount = 18 owner = USA version_name = "AH-1W SuperCobra" } }
	}

	division = {
		division_name = {
			is_name_ordered = yes
			name_order = 22
		}
		location = 1132
		division_template = "Marine Expeditionary Unit"
		start_experience_factor = 0.65
		start_equipment_factor = 0.01
		force_equipment_variants = { mbt_hull_1 = { amount = 14 owner = USA version_name = "M1A1HA Abrams" } }
		force_equipment_variants = { ifv_hull_2 = { amount = 20 owner = USA version_name = "LAV-25" } }
	}

	division = {
		division_name = {
			is_name_ordered = yes
			name_order = 24
		}
		location = 1132
		division_template = "Marine Expeditionary Unit"
		start_experience_factor = 0.65
		start_equipment_factor = 0.01
		force_equipment_variants = { mbt_hull_1 = { amount = 14 owner = USA version_name = "M1A1HA Abrams" } }
		force_equipment_variants = { ifv_hull_2 = { amount = 20 owner = USA version_name = "LAV-25" } }
	}

	division = {
		division_name = {
			is_name_ordered = yes
			name_order = 26
		}
		location = 1132
		division_template = "Marine Expeditionary Unit"
		start_experience_factor = 0.65
		start_equipment_factor = 0.01
		force_equipment_variants = { mbt_hull_1 = { amount = 14 owner = USA version_name = "M1A1HA Abrams" } }
		force_equipment_variants = { ifv_hull_2 = { amount = 20 owner = USA version_name = "LAV-25" } }
	}
	#3MARDIV
	division = {
		division_name = {
			is_name_ordered = yes
			name_order = 6
		}
		location = 4180
		division_template = "Marine Regiment"
		start_experience_factor = 0.65
		start_equipment_factor = 0.01
		force_equipment_variants = { mbt_hull_1 = { amount = 14 owner = USA version_name = "M1A1HA Abrams" } }
		force_equipment_variants = { ifv_hull_2 = { amount = 20 owner = USA version_name = "LAV-25" } }
		force_equipment_variants = { apc_hull_1 = { amount = 60 owner = USA version_name = "AAVP-7A1" } }
		force_equipment_variants = { attack_helicopter_hull_1 = { amount = 18 owner = USA version_name = "AH-1W SuperCobra" } }
	}

	division = {
		division_name = {
			is_name_ordered = yes
			name_order = 7
		}
		location = 7115
		division_template = "Marine Regiment"
		start_experience_factor = 0.65
		start_equipment_factor = 0.01
		force_equipment_variants = { mbt_hull_1 = { amount = 14 owner = USA version_name = "M1A1HA Abrams" } }
		force_equipment_variants = { ifv_hull_2 = { amount = 20 owner = USA version_name = "LAV-25" } }
		force_equipment_variants = { apc_hull_1 = { amount = 60 owner = USA version_name = "AAVP-7A1" } }
		force_equipment_variants = { attack_helicopter_hull_1 = { amount = 18 owner = USA version_name = "AH-1W SuperCobra" } }
	}

	division = {
		division_name = {
			is_name_ordered = yes
			name_order = 8
		}
		location = 7115
		division_template = "Marine Regiment"
		start_experience_factor = 0.65
		start_equipment_factor = 0.01
		force_equipment_variants = { mbt_hull_1 = { amount = 14 owner = USA version_name = "M1A1HA Abrams" } }
		force_equipment_variants = { ifv_hull_2 = { amount = 20 owner = USA version_name = "LAV-25" } }
		force_equipment_variants = { apc_hull_1 = { amount = 60 owner = USA version_name = "AAVP-7A1" } }
		force_equipment_variants = { attack_helicopter_hull_1 = { amount = 18 owner = USA version_name = "AH-1W SuperCobra" } }
	}

	division = {
		division_name = {
			is_name_ordered = yes
			name_order = 3
		}
		location = 7115
		division_template = "Reinforced Marine Regiment"
		start_experience_factor = 0.65
		start_equipment_factor = 0.01
		force_equipment_variants = { mbt_hull_1 = { amount = 14 owner = USA version_name = "M1A1HA Abrams" } }
		force_equipment_variants = { ifv_hull_2 = { amount = 20 owner = USA version_name = "LAV-25" } }
		force_equipment_variants = { apc_hull_1 = { amount = 60 owner = USA version_name = "AAVP-7A1" } }
		force_equipment_variants = { attack_helicopter_hull_1 = { amount = 18 owner = USA version_name = "AH-1W SuperCobra" } }
	}

	division = {
		division_name = {
			is_name_ordered = yes
			name_order = 31
		}
		location = 7115
		division_template = "Marine Expeditionary Unit"
		start_experience_factor = 0.65
		start_equipment_factor = 0.01
		force_equipment_variants = { mbt_hull_1 = { amount = 14 owner = USA version_name = "M1A1HA Abrams" } }
		force_equipment_variants = { ifv_hull_2 = { amount = 20 owner = USA version_name = "LAV-25" } }
	}
	#4MARDIV
	division = {
		division_name = {
			is_name_ordered = yes
			name_order = 9
		}
		location = 9671
		division_template = "Marine Regiment"
		start_experience_factor = 0.6
		start_equipment_factor = 0.01
		force_equipment_variants = { mbt_hull_1 = { amount = 14 owner = USA version_name = "M1A1HA Abrams" } }
		force_equipment_variants = { ifv_hull_2 = { amount = 20 owner = USA version_name = "LAV-25" } }
		force_equipment_variants = { apc_hull_1 = { amount = 60 owner = USA version_name = "AAVP-7A1" } }
		force_equipment_variants = { infantry_weapons3 = { amount = 600 owner = "USA" } }
		force_equipment_variants = { attack_helicopter_hull_1 = { amount = 18 owner = USA version_name = "AH-1W SuperCobra" } }
	}
	division = {
		division_name = {
			is_name_ordered = yes
			name_order = 10
		}
		location = 3710
		division_template = "Marine Regiment"
		start_experience_factor = 0.6
		start_equipment_factor = 0.01
		force_equipment_variants = { mbt_hull_1 = { amount = 14 owner = USA version_name = "M1A1HA Abrams" } }
		force_equipment_variants = { ifv_hull_2 = { amount = 20 owner = USA version_name = "LAV-25" } }
		force_equipment_variants = { apc_hull_1 = { amount = 60 owner = USA version_name = "AAVP-7A1" } }
		force_equipment_variants = { attack_helicopter_hull_1 = { amount = 18 owner = USA version_name = "AH-1W SuperCobra" } }
	}
}

instant_effect = {

	### Generic Equipment ###

	add_equipment_to_stockpile = {
		type = infantry_weapons2
		amount = 160000
	}

	add_equipment_to_stockpile = {
		type = infantry_weapons3
		amount = 100
	}

	add_equipment_to_stockpile = {
		type = Anti_tank_2
		amount = 6780
	}

	add_equipment_to_stockpile = {
		type = Heavy_Anti_tank_2
		amount = 1850
	}

	add_equipment_to_stockpile = {
		type = Anti_Air_2
		amount = 4500
	}

	add_equipment_to_stockpile = {
		type = command_control_equipment2
		amount = 22500
	}

	################
	#### US Army ###
	################

	add_equipment_to_stockpile = {
		type = light_tank_hull_0
		variant_name = "M551A1 Sheridan"
		amount = 330
		producer = USA
	}
	add_equipment_to_stockpile = {
		type = util_vehicle_2 #Humvee
		producer = USA
		amount = 7600
	}
	add_equipment_to_stockpile = {
		type = util_vehicle_3 #M1113 Humvee ECV
		producer = USA
		amount = 6350
	}

	#util_vehicle_2 #Humvee - as many as needed
	#util_vehicle_3 #M1113 Humvee ECV - as many as needed

	add_equipment_to_stockpile = {
		type = artillery_0 #M102
		amount = 458
		producer = USA
	}
	add_equipment_to_stockpile = {
		type = artillery_1 #M119
		amount = 418
		producer = USA
	}
	add_equipment_to_stockpile = {
		type = artillery_0 #M198 howitzer
		amount = 418
		producer = USA
		#version_name = "M198 howitzer"
	}
	add_equipment_to_stockpile = {
		type = spaa_hull_1
		variant_name = "AN/TWQ-1 Avenger"
		amount = 1119
		producer = USA
	}
	add_equipment_to_stockpile = {
		type = spaa_hull_1
		variant_name = "M6 Linebacker"
		amount = 99
		producer = USA
	}
	add_equipment_to_stockpile = {
		type = attack_helicopter_hull_0 #AH-1 Cobra = Removed 200
		variant_name = "AH-1S Cobra"
		amount = 111
		producer = USA
	}
	add_equipment_to_stockpile = {
		type = attack_helicopter_hull_1 #Removed 150
		variant_name = "AH-1W SuperCobra"
		amount = 38
		producer = USA
	}
	add_equipment_to_stockpile = {
		type = attack_helicopter_hull_2
		variant_name = "AH-64A Apache"
		amount = 396
		producer = USA
	}
	add_equipment_to_stockpile = {
		type = attack_helicopter_hull_2
		variant_name = "AH-64D Apache Longbow"
		amount = 43
		producer = USA
	}
	add_equipment_to_stockpile = {
		type = transport_helicopter1 #Bell UH-1 Iroquois
		amount = 809
		producer = USA
	}
	add_equipment_to_stockpile = {
		type = transport_helicopter2 #Sikorsky UH-60 Black Hawk
		amount = 1765
		producer = USA
	}
	add_equipment_to_stockpile = {
		type = transport_helicopter2 #Boeing CH-47D Chinook
		amount = 1465
		producer = USA
		#version_name = "Boeing CH-47D Chinook"
	}
	add_equipment_to_stockpile = {
		type = attack_helicopter_hull_1 #OH-58D Kiowa Warrior = Removed 600
		variant_name = "OH-58D Kiowa Warrior"
		amount = 253
		producer = USA
		#version_name = "OH-58D Kiowa Warrior"
	}
	add_equipment_to_stockpile = {
		type = transport_helicopter1 #Bell 206
		amount = 336
		producer = USA
		#version_name = "Bell 206"
	}

	add_equipment_to_stockpile = {
		type = transport_helicopter1 #Bell UH-1 Iroquois
		amount = 101
	}
	add_equipment_to_stockpile = {
		type = transport_helicopter1 #Sikorsky CH-53 Sea Stallion
		amount = 239
		#version_name = "Sikorsky CH-53 Sea Stallion"
	}
	add_equipment_to_stockpile = {
		type = transport_helicopter2 #Sikorsky UH-60 Black Hawk
		amount = 278
	}
	add_equipment_to_stockpile = {
		type = transport_helicopter1 #CH-46D
		amount = 256
		#version_name = 'CH-46D"
	}
	add_equipment_to_stockpile = {
		type = transport_helicopter1 #Bell 206
		amount = 120
		#version_name = "Bell 206"
	}
	add_equipment_to_stockpile = {
		type = attack_helicopter_hull_1 #AH-1W SuperCobra
		variant_name = "AH-1W SuperCobra"
		amount = 195
		#version_name = "AH-1W SuperCobra"
	}
	#Land Vehicles
	add_equipment_to_stockpile = {
		type = ifv_hull_1
		variant_name = "M2 Bradley"
		amount = 2710
		producer = USA
	}
	add_equipment_to_stockpile = {
		type = ifv_hull_2
		variant_name = "M2A2 Bradley"
		amount = 800 #1260 distributed to ABCTs
		producer = USA
	}
	add_equipment_to_stockpile = {
		type = light_tank_hull_2
		variant_name = "M3A2 Bradley CFV"
		amount = 1000
		producer = USA
	}
	add_equipment_to_stockpile = {
		type = mbt_hull_1
		variant_name = "M1A1 Abrams"
		amount = 3200
		producer = USA
	}
	add_equipment_to_stockpile = {
		type = mbt_hull_1
		variant_name = "M1A1HA Abrams"
		amount = 640 #360 distributed to USMC
		producer = USA
	}
#	add_equipment_to_stockpile = {
#		type = mbt_hull_2
#		variant_name = "M1A2 Abrams"
#		amount = 600 #588 distributed to ground units
#		producer = USA
#	}
	add_equipment_to_stockpile = {
		type = ifv_hull_2
		variant_name = "LAV-25"
		amount = 100
		producer = USA
	}
	add_equipment_to_stockpile = {
		type = apc_hull_1
		variant_name = "M113A2"
		amount = 7200
		producer = USA
	}
	add_equipment_to_stockpile = {
		type = apc_hull_1
		variant_name = "M113A3"
		amount = 8000
		producer = USA
	}
	add_equipment_to_stockpile = {
		type = apc_hull_1
		variant_name = "AAVP-7A1"
		amount = 100
		producer = USA
	}
	# add_equipment_to_stockpile = {
		# type = Amph_APC_3 #AAV
		# amount = 1321
	# }
	add_equipment_to_stockpile = {
		type = artillery_0 #M101: 331 marines
		amount = 431
		producer = USA
		#version_name = "M101"
	}
	add_equipment_to_stockpile = {
		type = artillery_0 #M198 howitzer
		amount = 596
		producer = USA
		#version_name = "M198 howitzer"
	}
	add_equipment_to_stockpile = {
		type = spart_hull_0
		variant_name = "M109A5"
		amount = 462
		producer = USA
	}
	add_equipment_to_stockpile = {
		type = spart_hull_0
		variant_name = "M109A6 Paladin"
		amount = 950
		producer = USA
	}
	add_equipment_to_stockpile = {
		type = spart_hull_1
		variant_name = "M270"
		amount = 1075
		producer = USA
	}

	#MOR 81mm: 586 M-252 (incl 50 LAV-M)
	#ATGW 1,083 TOW, 1,121 Dragon, 95 LAV-TOW
	#RL 83mm: 1,650 SMAW; 84mm: 1,300 AT-4
	#SURV 23 AN/TPQ-36 (arty)

	add_equipment_to_stockpile = {
		type = transport_helicopter1 #Bell UH-1 Iroquois
		amount = 58
		producer = USA
	}
	add_equipment_to_stockpile = {
		type = transport_helicopter1 #CH-46D
		amount = 230
		producer = USA
		#version_name = 'CH-46D"
	}

	add_equipment_to_stockpile = {
		type = transport_helicopter1 #MH-53-J
		amount = 153
	}
	add_equipment_to_stockpile = {
		type = transport_helicopter1 #Bell UH-1 Iroquois
		amount = 63
	}	
	#GROUND PRODUCTION
	add_equipment_production = {
		equipment = {
			type = infantry_weapons3
			creator = "USA"
			version_name = "Colt M16A4"
		}
		requested_factories = 3
		industrial_manufacturer = mio:USA_colt_defense_materiel_manufacturer
	}
	add_equipment_production = {
		equipment = {
			type = command_control_equipment3
			creator = "USA"
			version_name = "Textron C4I"
		}
		requested_factories = 3
		industrial_manufacturer = mio:USA_textron_tank_manufacturer
	}
	add_equipment_production = {
		equipment = {
			type = ifv_hull_2
			creator = "USA"
			version_name = "M2A3 Bradley"
		}
		requested_factories = 3
		industrial_manufacturer = mio:USA_united_defense_tank_manufacturer
	}
	add_equipment_production = {
		equipment = {
			type = light_tank_hull_2
			creator = "USA"
			version_name = "M3A3 Bradley CFV"
		}
		requested_factories = 3
		industrial_manufacturer = mio:USA_united_defense_tank_manufacturer
	}
	add_equipment_production = {
		equipment = {
			type = mbt_hull_2
			creator = "USA"
			version_name = "M1A2 SEP"
		}
		requested_factories = 3
		industrial_manufacturer = mio:USA_general_dynamics_materiel_manufacturer
	}
	add_equipment_production = {
		equipment = {
			type = mbt_hull_1
			creator = "USA"
			version_name = "M1A1AIM Abrams"
		}
		requested_factories = 2
		industrial_manufacturer = mio:USA_general_dynamics_materiel_manufacturer
	}
	add_equipment_production = {
		equipment = {
			type = attack_helicopter_hull_2
			creator = "USA"
			version_name = "AH-64D Apache Longbow"
		}
		requested_factories = 2
	}
	add_equipment_production = {
		equipment = {
			type = spaa_hull_1
			creator = "USA"
			version_name = "MIM-104 Patriot"
		}
		requested_factories = 1
		industrial_manufacturer = mio:USA_raytheon_materiel_manufacturer
	}
	add_equipment_production = {
		equipment = {
			type = Anti_tank_2
			creator = "USA"
			version_name = "FGM-148C Javelin"
		}
		requested_factories = 2
		industrial_manufacturer = mio:USA_raytheon_materiel_manufacturer
	}
	add_equipment_production = {
		equipment = {
			type = Anti_Air_2
			creator = "USA"
			version_name = "FIM-92E Stinger RMP Block I"
		}
		requested_factories = 1
		industrial_manufacturer = mio:USA_raytheon_materiel_manufacturer
	}
	#BBA PLANE PRODUCTION#
	if = {
		limit = { has_dlc = "By Blood Alone" }
		add_equipment_production = {
			equipment = {
				type = medium_plane_fighter_airframe_3
				creator = "USA"
				version_name = "F-22 Raptor"
			}
		requested_factories = 1
		industrial_manufacturer = mio:USA_lockheed_martin_aircraft_manufacturer
		}
		add_equipment_production = {
			equipment = {
				type = medium_plane_airframe_2
				creator = "USA"
				version_name = "F-15E Strike Eagle"
			}
		requested_factories = 1
		industrial_manufacturer = mio:USA_boeing_aircraft_manufacturer
		}
		add_equipment_production = {
			equipment = {
				type = small_plane_strike_airframe_2
				creator = "USA"
				version_name = "F-16C Blk 50/52"
			}
		requested_factories = 2
		industrial_manufacturer = mio:USA_lockheed_martin_aircraft_manufacturer
		}
		add_equipment_production = {
			equipment = {
				type = cv_medium_plane_fighter_airframe_2
				creator = "USA"
				version_name = "F/A-18E Super Hornet"
			}
		requested_factories = 1
		industrial_manufacturer = mio:USA_boeing_aircraft_manufacturer
		}
		add_equipment_production = {
			equipment = {
				type = cv_medium_plane_airframe_2
				creator = "USA"
				version_name = "F/A-18F Super Hornet"
			}
		requested_factories = 1
		industrial_manufacturer = mio:USA_boeing_aircraft_manufacturer
		}	
	}
	#NSB SHIP PRODUCTION#
	if = {
		limit = { has_dlc = "Man the Guns" }
		add_equipment_production = {
			equipment = {
				type = carrier_hull_2
				creator = "USA"
				version_name = "Nimitz Class RCOH"
			}
			requested_factories = 5
			progress = 0.65
			efficiency = 100
			amount = 1
			industrial_manufacturer = mio:USA_northrop_grumman_newport_news_naval_manufacturer2
		}
		add_equipment_production = {
			equipment = {
				type = carrier_hull_2
				creator = "USA"
				version_name = "Nimitz Class RCOH"
			}
			requested_factories = 5
			progress = 0.80
			efficiency = 100
			amount = 1
			industrial_manufacturer = mio:USA_northrop_grumman_newport_news_naval_manufacturer2
		}
		add_equipment_production = {
			equipment = {
				type = carrier_hull_2
				creator = "USA"
				version_name = "Nimitz Class RCOH"
			}
			requested_factories = 5
			progress = 0.64
			efficiency = 100
			amount = 2
			industrial_manufacturer = mio:USA_northrop_grumman_newport_news_naval_manufacturer2
		}
		add_equipment_production = {
			equipment = {
				type = attack_submarine_hull_3
				creator = "USA"
				version_name = "Seawolf Class"
			}
			requested_factories = 1
			progress = 0.01
			efficiency = 100
			amount = 1
			industrial_manufacturer = mio:USA_general_dynamics_electric_boat_naval_manufacturer
		}
		add_equipment_production = {
			equipment = {
				type = attack_submarine_hull_3
				creator = "USA"
				version_name = "Virginia Class Block I"
			}
			requested_factories = 2
			progress = 0.1
			efficiency = 100
			amount = 5
			industrial_manufacturer = mio:USA_general_dynamics_electric_boat_naval_manufacturer
		}
		add_equipment_production = {
			equipment = {
				type = helicopter_operator_hull_2
				creator = "USA"
				version_name = "Wasp Class"
			}
			requested_factories = 4
			progress = 0.85
			efficiency = 100
			amount = 2
		}
		add_equipment_production = {
			equipment = {
				type = helicopter_operator_hull_2
				creator = "USA"
				version_name = "San Antonio Class"
			}
			requested_factories = 4
			progress = 0.1
			efficiency = 100
			amount = 13
		}
		add_equipment_production = {
			equipment = {
				type = destroyer_hull_2
				creator = "USA"
				version_name = "Arleigh Burke Class Flight IIA"
			}
			requested_factories = 4
			progress = 0.75
			efficiency = 100
			amount = 6
			industrial_manufacturer = mio:USA_ingalls_shipbuilding_naval_manufacturer
		}
		add_equipment_production = {
			equipment = {
				type = destroyer_hull_2
				creator = "USA"
				version_name = "Arleigh Burke Class Flight IIA"
			}
			requested_factories = 3
			progress = 0.7
			efficiency = 100
			amount = 6
			industrial_manufacturer = mio:USA_bath_iron_works_naval_manufacturer
		}
		add_equipment_production = {
			equipment = {
				type = destroyer_hull_2
				creator = "USA"
				version_name = "Arleigh Burke Class Flight IIA"
			}
			requested_factories = 3
			progress = 0.6
			efficiency = 100
			amount = 6
			industrial_manufacturer = mio:USA_ingalls_shipbuilding_naval_manufacturer
		}
		add_equipment_production = {
			equipment = {
				type = destroyer_hull_2
				creator = "USA"
				version_name = "Arleigh Burke Class Flight IIA"
			}
			requested_factories = 2
			progress = 0.5
			efficiency = 100
			amount = 6
			industrial_manufacturer = mio:USA_bath_iron_works_naval_manufacturer
		}
		add_equipment_production = {
			equipment = {
				type = destroyer_hull_2
				creator = "USA"
				version_name = "Arleigh Burke Class Flight IIA"
			}
			requested_factories = 2
			progress = 0.55
			efficiency = 100
			amount = 5
			industrial_manufacturer = mio:USA_ingalls_shipbuilding_naval_manufacturer
		}
	}
}	