focus_tree = {
	id = United_states-gearz
	country = {
		factor = 0
		modifier = {
			add = 0
			tag = USA
		}
	}
	default = yes
	shared_focus = USA_donald_trump_make_america_great_again
	focus = {
		id = USA_350_ship
		icon = 350_ship_navy
		cost = 10.00
		x = 24
		y = 5
		
		prerequisite = {
			focus = USA_AMERICA_FIRST
			focus = USA_PAX_AMERICANA
			focus = USA_PARTNERS_ALLIES
			
		}
		
		completion_reward = {
			log = "[GetDateText]: [Root.GetName]: Focus USA_350_ship"
			add_ideas = F_USA_350_ship
		}

	}
	focus = {
		id = USA_EXPAND_ARMY
		icon = army_logistics
		cost = 10.00
		x = 22
		y = 6
		
		prerequisite = {
			focus = USA_PAX_AMERICANA
			focus = USA_AMERICA_FIRST
		}
		
		
		
		completion_reward = {
			log = "[GetDateText]: [Root.GetName]: Focus USA_EXPAND_ARMY"
			add_ideas = usa_expand_army
		}
		
	}
	focus = {
		id = USA_air_dominance
		icon = fighters2
		cost = 10.00
		x = 26
		y = 6
		
		prerequisite = {
			focus = USA_PAX_AMERICANA
			focus = USA_PARTNERS_ALLIES
		}
		
		completion_reward = {
			log = "[GetDateText]: [Root.GetName]: Focus USA_air_dominance"
			add_ideas = usa_air_dominance
			add_tech_bonus = {
				name = USA_air_dominance
				bonus = 0.5
				ahead_reduction = 1
				uses = 1
				category = Cat_STR_BOMBER
			}
			
		}

	}
	
#	focus = {
#		id = USA_Clinton_Presidency
#		icon = GFX_USA_Clinton_Presidency
#		cost = 1.00
#		available = { always = no }
#		bypass = { has_country_leader = { id = USA ruling_only = yes name = "Hillary Clinton" } }
#		x = 12
#		y = 0
#		
#		ai_will_do = {
#			factor = 100
#		}
#	}
#
#	focus = {
#		id = USA_Stronger_Together
#		icon = GFX_USA_Stronger_Together
#		cost = 1.00
#		prerequisite = {
#			focus = USA_Clinton_Presidency
#		}
#		x = 12
#		y = 1
#		
#		completion_reward = {
#			add_political_power = 350
#			add_stability = 0.05
#		}
#		ai_will_do = {
#			factor = 100
#		}
#	}

	
	focus = {
		id = USA_Trump_Presidency
		icon = align_to_america2
		cost = 1.00
		available = { always = no }
		bypass = { has_country_leader = { ruling_only = yes name = "Donald Trump" } }
		x = 16
		y = 0
		
		ai_will_do = {
			factor = 100
		}
	}
	
	focus = {
		id = USA_MAGA
		icon = american_dream
		cost = 1.00
		prerequisite = {
			focus = USA_Trump_Presidency
		}
		x = 16
		y = 1
		
		available = {
			
		}
		completion_reward = {
			log = "[GetDateText]: [Root.GetName]: Focus USA_MAGA"
			country_event = { id = USA_Trump_First_Trip.0 }
		}
		ai_will_do = {
			factor = 100
		}

	}
	
	focus = {
		id = USA_TRUMP_CABINET
		icon = major_alliance
		cost = 10
		prerequisite = {
			focus = USA_MAGA
		}
		x = 16
		y = 2
		select_effect = {
			country_event = { id = USA_Cabinet_picks.0 days = 17 }
		}
		completion_reward = {
			log = "[GetDateText]: [Root.GetName]: Focus USA_TRUMP_CABINET"
 custom_effect_tooltip = USA_TRUMP_CABINET_desc }

		ai_will_do = {
			factor = 100
		}
	}
	focus = {
		id = USA_TRUMP_promises
		icon = diplomacy
		cost = 10
		prerequisite = {
			focus = USA_TRUMP_CABINET
		}
		x = 10
		y = 3
		
		completion_reward = {
			log = "[GetDateText]: [Root.GetName]: Focus USA_TRUMP_promises"
			
			#add_ideas = wall_street
			#add_ideas = fossil_fuel_industry
			#add_ideas = defense_industry
			add_political_power = 100
			add_popularity = { ideology = nationalist popularity = 0.015 }
			add_stability = -0.01
		}
		ai_will_do = {
			factor = 50
		}
		

	}
	focus = {
		id = USA_repeal_obama_care
		icon = repeal_obamacare
		cost = 10
		prerequisite = {
			focus = USA_TRUMP_promises
		}
		x = 11
		y = 4
		
		completion_reward = {
			log = "[GetDateText]: [Root.GetName]: Focus USA_repeal_obama_care"
			#add_popularity = { ideology = nationalist popularity = 0.015 }
			add_stability = -0.01
			country_event = { id = USA_Repeal_Obama_Care.0 }
			maybe_pos_approval_rating = yes
		}
		ai_will_do = {
			factor = 50
		}

	}
	focus = {
		id = USA_Ban_muslims
		icon = islamophobia
		cost = 10
		prerequisite = {
			focus = USA_TRUMP_promises
		}
		x = 9
		y = 4
		
		completion_reward = {
			log = "[GetDateText]: [Root.GetName]: Focus USA_Ban_muslims"
			every_country = {
				limit = {
					or = {
						has_idea = sunni
						has_idea = shia
						has_idea = sufi_islam
						has_idea = ibadi
					}
				}		
				add_opinion_modifier = { target = USA modifier = USA_BAN_MUSLIMS }
				reverse_add_opinion_modifier = { target = USA modifier = USA_BAN_MUSLIMS }
				
			}
			country_event = { id = USA_Muslim_Ban.0 }
			maybe_pos_approval_rating = yes
		}
		ai_will_do = {
			factor = 50
		}

	}
	focus = {
		id = USA_withdraw_tpp
		icon = union_negotiations
		cost = 10
		prerequisite = {
			focus = USA_TRUMP_promises
		}
		x = 7
		y = 4
		
		completion_reward = {
			log = "[GetDateText]: [Root.GetName]: Focus USA_withdraw_tpp"
			add_popularity = { ideology = nationalist popularity = 0.015 }
			add_stability = -0.01
			
			every_country = {
				limit = {
					not = { has_government = nationalist }
					or = {
						tag = AST
						tag = BRU
						tag = CAN
						tag = CHL
						tag = JAP
						tag = MAY
						tag = MEX
						tag = NZL
						tag = PRU
						tag = SIN
						tag = VIE
						
					}
				}
				add_opinion_modifier = { target = USA modifier = USA_Withdraw_TPP }
				reverse_add_opinion_modifier = { target = USA modifier = USA_Withdraw_TPP }
				
			}
			relative_change_pos_2 = yes
		}
		ai_will_do = {
			factor = 50
		}

	}
	focus = {
		id = USA_withdraw_TTIP
		icon = union_negotiations
		cost = 10.00
		prerequisite = {
			focus = USA_TRUMP_promises
		}
		x = 8
		y = 5
		
		completion_reward = {
			log = "[GetDateText]: [Root.GetName]: Focus USA_withdraw_TTIP"
			add_popularity = { ideology = nationalist popularity = 0.015 }
			add_stability = -0.01
			every_country = {
				limit = {
					not = { has_government = nationalist }
					has_idea = EU_member
				}
				add_opinion_modifier = { target = USA modifier = USA_Withdraw_TTIP }
				reverse_add_opinion_modifier = { target = USA modifier = USA_Withdraw_TTIP }
				
			}
			relative_change_pos_2 = yes
		}

	}
	focus = {
		id = USA_reneotiate_NAFTA
		icon = nafta
		cost = 10.00
		prerequisite = {
			focus = USA_TRUMP_promises
		}
		x = 10
		y = 5
		
		completion_reward = {
			log = "[GetDateText]: [Root.GetName]: Focus USA_reneotiate_NAFTA"
			add_popularity = { ideology = nationalist popularity = 0.015 }
			add_stability = -0.01
			every_country = {
				limit = {
					or = {
						original_tag = CAN
						original_tag = MEX
					}
				}
				add_opinion_modifier = { target = USA modifier = Reneotiate_NAFTA }
				reverse_add_opinion_modifier = { target = USA modifier = Reneotiate_NAFTA }
				
			}
			relative_change_pos_2 = yes
			
		}

	}
	
	
	focus = {
		id = USA_THE_WALL
		icon = mexican_border_wall
		cost = 10
		prerequisite = {
			focus = USA_TRUMP_promises
		}
		x = 13
		y = 4
		
		completion_reward = {
			log = "[GetDateText]: [Root.GetName]: Focus USA_THE_WALL"
			add_popularity = { ideology = nationalist popularity = 0.015 }
			add_stability = -0.01
			add_opinion_modifier = { target = MEX modifier = USA_THE_WALL }
			reverse_add_opinion_modifier = { target = MEX modifier = USA_THE_WALL }
			relative_change_pos_2 = yes
		}
		ai_will_do = {
			factor = 50
		}

	}
	
	focus = {
		id = USA_Hire_USBP
		icon = border_war
		cost = 10.00
		prerequisite = {
			focus = USA_THE_WALL
		}
		x = 12
		y = 5
		
		completion_reward = {
			log = "[GetDateText]: [Root.GetName]: Focus USA_Hire_USBP"
			add_popularity = { ideology = nationalist popularity = 0.015 }
			add_stability = -0.01
			relative_change_pos_2 = yes
		}
		ai_will_do = {
			factor = 0
			modifier = {
				factor = 50
				has_government = nationalist
			}
		}

	}
	focus = {
		id = USA_greatest_fence
		icon = defense
		cost = 10.00
		prerequisite = {
			focus = USA_THE_WALL
		}
		x = 14
		y = 5
		
		completion_reward = {
			log = "[GetDateText]: [Root.GetName]: Focus USA_greatest_fence"
			add_popularity = { ideology = nationalist popularity = 0.015 }
			add_stability = -0.01
			relative_change_pos_2 = yes
		}
		ai_will_do = {
			factor = 0
			modifier = {
				factor = 50
				has_government = nationalist
			}
		}

	}
	focus = {
		id = USA_offer_citizenship
		icon = american_free_corps
		cost = 10.00
		prerequisite = {
			focus = USA_greatest_fence
		}
		prerequisite = {
			focus = USA_Hire_USBP
		}
		mutually_exclusive = {
			focus = USA_DEPORT_BAD_ONES
		}
		mutually_exclusive = {
			focus = USA_DEPORT_ALL_ILLEGALS
		}
		x = 11
		y = 6
		
		completion_reward = {
			log = "[GetDateText]: [Root.GetName]: Focus USA_offer_citizenship"
			add_popularity = { ideology = democratic popularity = 0.02 }
			add_stability = 0.01
			relative_change_pos_2 = yes

		}

	}
	focus = {
		id = USA_DEPORT_BAD_ONES
		icon = arrest_general_cedillo
		cost = 10.00
		prerequisite = {
			focus = USA_greatest_fence
		}
		prerequisite = {
			focus = USA_Hire_USBP
		}
		mutually_exclusive = {
			focus = USA_offer_citizenship
		}
		mutually_exclusive = {
			focus = USA_DEPORT_ALL_ILLEGALS
		}
		x = 13
		y = 6
		
		completion_reward = {
			log = "[GetDateText]: [Root.GetName]: Focus USA_DEPORT_BAD_ONES"
			add_popularity = { ideology = nationalist popularity = 0.02 }
			add_stability = -0.01
			relative_change_pos_2 = yes
			
			811 = { #Southern California
				add_manpower = -306000
			} 
			795 = { #Florida
				add_manpower = -153000
			}
			769 = { #New York
				add_manpower = -139500
			}
			800 = { #Texas Gulf Coast
				add_manpower = -136800
			}
			801 = { #Northeastern Texas
				add_manpower = -122400
			}
			812 = { #Silicon Valley
				add_manpower = -95400
			}
			770 = { #New Jersey
				add_manpower = -90000
			}
			778 = { #Illinois
				add_manpower = -81000
			}
			
			792 = { #Georgia
				add_manpower = -67500
			}
			
			790 = { #North Carolina
				add_manpower = -63000
			}
			
			806 = { #Arizona
				add_manpower = -58500
			}
			
			773 = { #Virginia
				add_manpower = -54000
			}
			
			772 = { #Maryland
				add_manpower = -49500
			}
			
			809 = { #Washington
				add_manpower = -45000
			}
			
			767 = { #Massachusetts
				add_manpower = -37800
			}
			
			802 = { #Western Texas
				add_manpower = -37800
			}
			
			807 = { #Nevada
				add_manpower = -37800
			}
			
			804 = { #Colorado
				add_manpower = -36000
			}
			
			771 = { #Pennsylvania
				add_manpower = -32400
			}
			
			768 = { #Connecticut
				add_manpower = -27000
			}
			777 = { #Michigan
				add_manpower = -23400
			}
			810 = { #Oregon
				add_manpower = -23400
			}
			793 = { #Tennessee
				add_manpower = -21600
			}
			813 = { #Jefferson
				add_manpower = -21600
			}
			776 = { #Indiana
				add_manpower = -19800
			}
			780 = { #Minnesota
				add_manpower = -18000
			}
			805 = { #Utah
				add_manpower = -18000
			}
			775 = { #Ohio
				add_manpower = -17100
			}
			799 = { #Oklahoma
				add_manpower = -17100
			}
			791 = { #South Carolina
				add_manpower = -15300
			}
			803 = { #New Mexico
				add_manpower = -15300
			}
			779 = { #Wisconsin
				add_manpower = -14400
			}
			784 = { #Kansas
				add_manpower = -13500
			}
			797 = { #Louisiana
				add_manpower = -12600
			}
			798 = { #Arkansas
				add_manpower = -12600
			}
			794 = { #Alabama
				add_manpower = -11700
			}
			783 = { #Missouri
				add_manpower = -9900
			}
			
			
		}

	}
	focus = {
		id = USA_DEPORT_ALL_ILLEGALS
		icon = caudillo_armies
		cost = 10.00
		prerequisite = {
			focus = USA_greatest_fence
		}
		prerequisite = {
			focus = USA_Hire_USBP
		}
		mutually_exclusive = {
			focus = USA_DEPORT_BAD_ONES
		}
		mutually_exclusive = {
			focus = USA_offer_citizenship
		}
		x = 15
		y = 6
		
		completion_reward = {
			log = "[GetDateText]: [Root.GetName]: Focus USA_DEPORT_ALL_ILLEGALS"
			add_popularity = { ideology = nationalist popularity = 0.04 }
			add_stability = -0.01
			relative_change_pos_2 = yes
			
			811 = { #Southern California
				add_manpower = -1700000
			} 
			795 = { #Florida
				add_manpower = -850000
			}
			769 = { #New York
				add_manpower = -775000
			}
			800 = { #Texas Gulf Coast
				add_manpower = -760000
			}
			801 = { #Northeastern Texas
				add_manpower = -680000
			}
			812 = { #Silicon Valley
				add_manpower = -530000
			}
			770 = { #New Jersey
				add_manpower = -500000
			}
			778 = { #Illinois
				add_manpower = -450000
			}
			
			792 = { #Georgia
				add_manpower = -375000
			}
			
			790 = { #North Carolina
				add_manpower = -350000
			}
			
			806 = { #Arizona
				add_manpower = -325000
			}
			
			773 = { #Virginia
				add_manpower = -300000
			}
			
			772 = { #Maryland
				add_manpower = -275000
			}
			
			809 = { #Washington
				add_manpower = -250000
			}
			
			767 = { #Massachusetts
				add_manpower = -210000
			}
			
			802 = { #Western Texas
				add_manpower = -210000
			}
			
			807 = { #Nevada
				add_manpower = -210000
			}
			
			804 = { #Colorado
				add_manpower = -180000
			}
			
			771 = { #Pennsylvania
				add_manpower = -150000
			}
			
			768 = { #Connecticut
				add_manpower = -130000
			}
			777 = { #Michigan
				add_manpower = -130000
			}
			810 = { #Oregon
				add_manpower = -120000
			}
			793 = { #Tennessee
				add_manpower = -120000
			}
			813 = { #Jefferson
				add_manpower = -110000
			}
			776 = { #Indiana
				add_manpower = -100000
			}
			780 = { #Minnesota
				add_manpower = -100000
			}
			805 = { #Utah
				add_manpower = -95000
			}
			775 = { #Ohio
				add_manpower = -95000
			}
			799 = { #Oklahoma
				add_manpower = -85000
			}
			791 = { #South Carolina
				add_manpower = -85000
			}
			803 = { #New Mexico
				add_manpower = -80000
			}
			779 = { #Wisconsin
				add_manpower = -75000
			}
			784 = { #Kansas
				add_manpower = -70000
			}
			797 = { #Louisiana
				add_manpower = -70000
			}
			798 = { #Arkansas
				add_manpower = -65000
			}
			794 = { #Alabama
				add_manpower = -55000
			}
			783 = { #Missouri
				add_manpower = -50000
			}
			
		}
		ai_will_do = {
			factor = 0
			modifier = {
				factor = 50
				has_government = nationalist
			}
		}

	}
	focus = {
		id = USA_2017_budget_congress
		icon = self_management
		cost = 10.00
		
		available = {
			count_triggers = { 
				amount = 4 
				has_completed_focus = USA_repeal_obama_care
				has_completed_focus = USA_Ban_muslims
				has_completed_focus = USA_withdraw_tpp
				has_completed_focus = USA_withdraw_TTIP
				has_completed_focus = USA_reneotiate_NAFTA
				has_completed_focus = USA_THE_WALL
			}
		}
		
		x = 9
		y = 6
		
		completion_reward = {
			log = "[GetDateText]: [Root.GetName]: Focus USA_2017_budget_congress"
			swap_ideas = { remove_idea = defence_04 add_idea = defence_05 }
			random_owned_controlled_state = {
				limit = {
					free_building_slots = {
						building = arms_factory
						size > 3
					}
				}
				add_building_construction = {
					type = arms_factory
					level = 3
					instant_build = yes
				}
			}
			
			
		}
		ai_will_do = {
			factor = 50
		}

	}
	
	
	focus = {
		id = USA_RUSSIA_INVESTIGATION
		icon = trump_investigation
		cost = 10.00
		
		prerequisite = {
			focus = USA_TRUMP_CABINET
		}
		
		x = 3
		y = 3
		
		completion_reward = {
			log = "[GetDateText]: [Root.GetName]: Focus USA_RUSSIA_INVESTIGATION"
			add_ideas = usa_russia_investigation
			relative_change_neg_12 = yes
		}
		# ai_will_do = {
			# factor = 50
		# }

	}
	
	
	focus = {
		id = USA_bonus_tech_slots
		icon = research
		
		x = -2
		y = 1
		cost = 10

		available_if_capitulated = yes
		
		ai_will_do = {
			factor = 100
		}

		completion_reward = {
			log = "[GetDateText]: [Root.GetName]: Focus USA_bonus_tech_slots"
			#add_research_slot = 1
		}
	}
	
	focus = {
		id = USA_4K_GDPC_slot
		icon = research
		prerequisite = { focus = USA_bonus_tech_slots }
		
		x = -3
		y = 2
		cost = 10

		available_if_capitulated = yes
		
		available = {
		custom_trigger_tooltip = {
				tooltip = GDP4K
				OR = {
					has_idea = gdp_3
					has_idea = gdp_4
					has_idea = gdp_5
					has_idea = gdp_6
					has_idea = gdp_7
					has_idea = gdp_8
					has_idea = gdp_9
					has_idea = gdp_10
					has_idea = gdp_11
					has_idea = gdp_12
				}				
			}
		}
		
		ai_will_do = {
			factor = 100
		}

		completion_reward = {
			log = "[GetDateText]: [Root.GetName]: Focus USA_4K_GDPC_slot"
			add_research_slot = 1
		}
	}
	focus = {
		id = USA_15K_GDPC_slot
		icon = research
		prerequisite = { focus = USA_4K_GDPC_slot }
		
		x = -3
		y = 3
		cost = 10

		available_if_capitulated = yes
		
		available = {
		custom_trigger_tooltip = {
				tooltip = GDP15K
				OR = {
					has_idea = gdp_6
					has_idea = gdp_7
					has_idea = gdp_8
					has_idea = gdp_9
					has_idea = gdp_10
					has_idea = gdp_11
					has_idea = gdp_12
				}				
			}
		}
		
		ai_will_do = {
			factor = 100
		}

		completion_reward = {
			log = "[GetDateText]: [Root.GetName]: Focus USA_15K_GDPC_slot"
			add_research_slot = 1
		}
	}
	
	focus = {
		id = USA_30K_GDPC_slot
		icon = research
		prerequisite = { focus = USA_15K_GDPC_slot }
		
		x = -3
		y = 4
		cost = 10

		available_if_capitulated = yes
		
		available = {
		custom_trigger_tooltip = {
				tooltip = GDP30K
				OR = {
					has_idea = gdp_8
					has_idea = gdp_9
					has_idea = gdp_10
					has_idea = gdp_11
					has_idea = gdp_12
				}				
			}
		}
		
		ai_will_do = {
			factor = 100
		}

		completion_reward = {
			log = "[GetDateText]: [Root.GetName]: Focus USA_30K_GDPC_slot"
			add_research_slot = 1
		}
	}
	focus = {
		id = USA_90K_GDPC_slot
		icon = research
		prerequisite = { focus = USA_30K_GDPC_slot }
		
		x = -3
		y = 5
		cost = 10

		available_if_capitulated = yes
		
		available = {
		custom_trigger_tooltip = {
				tooltip = GDP90K
				OR = {
					has_idea = gdp_10
					has_idea = gdp_11
					has_idea = gdp_12
				}				
			}
		}
		
		ai_will_do = {
			factor = 100
		}

		completion_reward = {
			log = "[GetDateText]: [Root.GetName]: Focus USA_90K_GDPC_slot"
			add_research_slot = 1
		}
	}
	focus = {
		id = USA_4_IC_slot
		icon = research
		prerequisite = { focus = USA_bonus_tech_slots }
		
		x = -1
		y = 2
		cost = 10

		available_if_capitulated = yes
		cancel_if_invalid = no
		continue_if_invalid = yes
		
		available = {
			num_of_factories > 4
		}
		
		ai_will_do = {
			factor = 100
		}

		completion_reward = {
			log = "[GetDateText]: [Root.GetName]: Focus USA_4_IC_slot"
			add_research_slot = 1
		}
	}
	focus = {
		id = USA_8_IC_slot
		icon = research
		prerequisite = { focus = USA_4_IC_slot }
		
		x = -1
		y = 3
		cost = 10

		available_if_capitulated = yes
		cancel_if_invalid = no
		continue_if_invalid = yes
		
		available = {
			num_of_factories > 8
		}
		
		ai_will_do = {
			factor = 100
		}

		completion_reward = {
			log = "[GetDateText]: [Root.GetName]: Focus USA_8_IC_slot"
			add_research_slot = 1
		}
	}
	focus = {
		id = USA_16_IC_slot
		icon = research
		prerequisite = { focus = USA_8_IC_slot }
		
		x = -1
		y = 4
		cost = 10

		available_if_capitulated = yes
		cancel_if_invalid = no
		continue_if_invalid = yes
		
		available = {
			num_of_factories > 16
		}
		
		ai_will_do = {
			factor = 100
		}

		completion_reward = {
			log = "[GetDateText]: [Root.GetName]: Focus USA_16_IC_slot"
			add_research_slot = 1
		}
	}
	focus = {
		id = USA_30_IC_slot
		icon = research
		prerequisite = { focus = USA_16_IC_slot }
		
		x = -1
		y = 5
		cost = 10

		available_if_capitulated = yes
		cancel_if_invalid = no
		continue_if_invalid = yes
		
		available = {
			num_of_factories > 30
		}
		
		ai_will_do = {
			factor = 100
		}

		completion_reward = {
			log = "[GetDateText]: [Root.GetName]: Focus USA_30_IC_slot"
			add_research_slot = 1
		}
	}
	focus = {
		id = USA_50_IC_slot
		icon = research
		prerequisite = { focus = USA_30_IC_slot }
		
		x = -1
		y = 6
		cost = 10

		available_if_capitulated = yes
		cancel_if_invalid = no
		continue_if_invalid = yes
		
		available = {
			num_of_factories > 50
		}
		
		ai_will_do = {
			factor = 100
		}

		completion_reward = {
			log = "[GetDateText]: [Root.GetName]: Focus USA_50_IC_slot"
			add_research_slot = 1
		}
	}
	focus = {
		id = USA_85_IC_slot
		icon = research
		prerequisite = { focus = USA_50_IC_slot }
		
		x = -1
		y = 7
		cost = 10

		available_if_capitulated = yes
		cancel_if_invalid = no
		continue_if_invalid = yes
		
		available = {
			num_of_factories > 85
		}
		
		ai_will_do = {
			factor = 100
		}

		completion_reward = {
			log = "[GetDateText]: [Root.GetName]: Focus USA_85_IC_slot"
			add_research_slot = 1
		}
	}
	focus = {
		id = USA_130_IC_slot
		icon = research
		prerequisite = { focus = USA_85_IC_slot }
		
		x = -1
		y = 8
		cost = 10

		available_if_capitulated = yes
		cancel_if_invalid = no
		continue_if_invalid = yes
		
		available = {
			num_of_factories > 130
		}
		
		ai_will_do = {
			factor = 100
		}

		completion_reward = {
			log = "[GetDateText]: [Root.GetName]: Focus USA_130_IC_slot"
			add_research_slot = 1
		}
	}
	focus = {
		id = USA_190_IC_slot
		icon = research
		prerequisite = { focus = USA_130_IC_slot }
		
		x = -1
		y = 9
		cost = 10

		available_if_capitulated = yes
		cancel_if_invalid = no
		continue_if_invalid = yes
		
		available = {
			num_of_factories > 190
		}
		
		ai_will_do = {
			factor = 100
		}

		completion_reward = {
			log = "[GetDateText]: [Root.GetName]: Focus USA_190_IC_slot"
			add_research_slot = 1
		}
	}
	focus = {
		id = USA_280_IC_slot
		icon = research
		prerequisite = { focus = USA_190_IC_slot }
		
		x = -1
		y = 10
		cost = 10

		available_if_capitulated = yes
		cancel_if_invalid = no
		continue_if_invalid = yes
		
		available = {
			num_of_factories > 280
		}
		
		ai_will_do = {
			factor = 100
		}

		completion_reward = {
			log = "[GetDateText]: [Root.GetName]: Focus USA_280_IC_slot"
			add_research_slot = 1
		}
	}
	focus = {
		id = USA_380_IC_slot
		icon = research
		prerequisite = { focus = USA_280_IC_slot }
		
		x = -1
		y = 11
		cost = 10

		available_if_capitulated = yes
		cancel_if_invalid = no
		continue_if_invalid = yes
		
		available = {
			num_of_factories > 380
		}
		
		ai_will_do = {
			factor = 100
		}

		completion_reward = {
			log = "[GetDateText]: [Root.GetName]: Focus USA_380_IC_slot"
			add_research_slot = 1
		}
	}
	focus = {
		id = USA_500_IC_slot
		icon = research
		prerequisite = { focus = USA_380_IC_slot }
		
		x = -1
		y = 12
		cost = 10

		available_if_capitulated = yes
		cancel_if_invalid = no
		continue_if_invalid = yes
		
		available = {
			num_of_factories > 500
		}
		
		ai_will_do = {
			factor = 100
		}

		completion_reward = {
			log = "[GetDateText]: [Root.GetName]: Focus USA_500_IC_slot"
			add_research_slot = 1
		}
	}
	
	focus = {
		id = USA_AMERICA_FIRST
		icon = align_to_america2
		cost = 10.00
		
		available = {
			has_completed_focus = USA_2017_budget_congress
		}
		
		prerequisite = {
			focus = USA_TRUMP_CABINET
		}
		mutually_exclusive = {
			focus = USA_PARTNERS_ALLIES
			focus = USA_PAX_AMERICANA
		}
		x = 19
		y = 4
		
		completion_reward = {
			log = "[GetDateText]: [Root.GetName]: Focus USA_AMERICA_FIRST"
			add_ideas = usa_america_first
		}
		ai_will_do = {
			factor = 50
		}

	}
	focus = {
		id = USA_roads
		icon = infrastructure
		cost = 10.00
		prerequisite = {
			focus = USA_AMERICA_FIRST
		}
		x = 18
		y = 5
		
		completion_reward = {
			log = "[GetDateText]: [Root.GetName]: Focus USA_roads"
			add_ideas = usa_roads
		}

	}
	focus = {
		id = USA_factories
		icon = industry_civilian
		cost = 10.00
		prerequisite = {
			focus = USA_AMERICA_FIRST
		}
		x = 20
		y = 5
		
		completion_reward = {
			log = "[GetDateText]: [Root.GetName]: Focus USA_factories"
			add_ideas = usa_factories
		}

	}
	focus = {
		id = USA_ports
		icon = naval_dockyard
		cost = 10.00
		prerequisite = {
			focus = USA_factories
		}
		prerequisite = {
			focus = USA_roads
		}
		x = 19
		y = 6
		
		completion_reward = {
			log = "[GetDateText]: [Root.GetName]: Focus USA_ports"
			add_ideas = usa_ports
		}

	}
	focus = {
		id = USA_focus_isolation
		icon = neutrality
		cost = 10.00
		prerequisite = {
			focus = USA_ports
		}
		x = 19
		y = 7
		
		completion_reward = {
			log = "[GetDateText]: [Root.GetName]: Focus USA_focus_isolation"
			#add_popularity = { ideology = nationalist popularity = 0.015 }
			#add_stability = -0.01
			add_ideas = usa_isolationism
		}

	}
	focus = {
		id = USA_ARSENAL_OF_DEMOCRACY
		icon = small_arms
		cost = 10.00
		
		available = {
			has_completed_focus = USA_EXPAND_ARMY
		}
		
		prerequisite = {
			focus = USA_focus_isolation
		}
		
		x = 19
		y = 8
		
		completion_reward = {
			log = "[GetDateText]: [Root.GetName]: Focus USA_ARSENAL_OF_DEMOCRACY"
			add_ideas = usa_arsenal_of_democracy
		}

	}
	
	focus = {
		id = USA_PAX_AMERICANA
		icon = demand_territory
		cost = 10.00
		
		available = {
			has_completed_focus = USA_2017_budget_congress
		}
		
		prerequisite = {
			focus = USA_TRUMP_CABINET
		}
		mutually_exclusive = {
			focus = USA_AMERICA_FIRST
			focus = USA_PARTNERS_ALLIES
		}
		x = 24
		y = 3
		
		completion_reward = {
			log = "[GetDateText]: [Root.GetName]: Focus USA_PAX_AMERICANA"
			add_ideas = usa_pax_americana
		}

	}
	focus = {
		id = USA_Fund_marines
		icon = united_states_marine_corps
		cost = 10.00
		
		available = {
			has_completed_focus = USA_PAX_AMERICANA
		}
		
		prerequisite = {
			focus = USA_EXPAND_ARMY
		}
		prerequisite = {
			focus = USA_air_dominance
		}
		prerequisite = {
			focus = USA_350_ship
		}
		x = 24
		y = 7
		
		completion_reward = {
			log = "[GetDateText]: [Root.GetName]: Focus USA_Fund_marines"
			add_ideas = usa_fund_marines
			add_tech_bonus = {
				name = USA_FUND_APC
				bonus = 0.5
				ahead_reduction = 0
				uses = 1
				category = Cat_APC
			}
		}

	}
	focus = {
		id = USA_REFORM_PROCURMENT
		icon = production
		cost = 10.00
		prerequisite = {
			focus = USA_Fund_marines
		}
		x = 24
		y = 8
		
		completion_reward = {
			log = "[GetDateText]: [Root.GetName]: Focus USA_REFORM_PROCURMENT"
			remove_ideas = usa_bad_procurment
			add_tech_bonus = {
				name = USA_FUND_NAVAL
				bonus = 0.5
				uses = 1
				category = Cat_NAVAL_EQP
			}
		}

	}
	focus = {
		id = USA_ARMY_REFORM
		icon = GFX_army_reform
		cost = 10.00
		prerequisite = {
			focus = USA_Fund_marines
		}
		x = 22
		y = 8
		

	}
	focus = {
		id = USA_AIR_REFORM
		icon = air_force
		cost = 10.00
		prerequisite = {
			focus = USA_Fund_marines
		}
		x = 26
		y = 8
		
		completion_reward = {
			log = "[GetDateText]: [Root.GetName]: Focus USA_AIR_REFORM"
			add_tech_bonus = {
				name = USA_FUND_AIR
				bonus = 0.5
				uses = 1
				category = air_doctrine
			}
		}

	}
	
	focus = {
		id = USA_PARTNERS_ALLIES
		icon = alliance
		cost = 10.00
		
		available = {
			has_completed_focus = USA_2017_budget_congress
		}
		
		prerequisite = {
			focus = USA_TRUMP_CABINET
		}
		mutually_exclusive = {
			focus = USA_AMERICA_FIRST
			focus = USA_PAX_AMERICANA
		}
		x = 29
		y = 4
		
		completion_reward = {
			log = "[GetDateText]: [Root.GetName]: Focus USA_PARTNERS_ALLIES"
			USA = {
				add_ideas = usa_partners_allies
			}
			if = {
				limit = { has_dlc = "Together for Victory" }
				modify_tech_sharing_bonus = { id = NATO_Tech_Share bonus = 0.01 }
				modify_tech_sharing_bonus = { id = Major_Non_NATO_Ally_Share bonus = 0.01 }
				
			}
		}

	}
	focus = {
		id = USA_NEGOTIATE_TTIP
		icon = trade
		cost = 10.00
		prerequisite = {
			focus = USA_PARTNERS_ALLIES
		}
		x = 28
		y = 5
		
		completion_reward = {
			log = "[GetDateText]: [Root.GetName]: Focus USA_NEGOTIATE_TTIP"
			every_country = {
				limit = {
					not = { has_government = nationalist }
					has_idea = EU_member
				}
				add_opinion_modifier = { target = USA modifier = USA_NEGOTIATE_TTIP }
				reverse_add_opinion_modifier = { target = USA modifier = USA_NEGOTIATE_TTIP }
				
			}
			
		}

	}
	focus = {
		id = USA_REJOIN_TPP
		icon = trade
		cost = 10.00
		prerequisite = {
			focus = USA_PARTNERS_ALLIES
		}
		x = 30
		y = 5
		
		completion_reward = {
			log = "[GetDateText]: [Root.GetName]: Focus USA_REJOIN_TPP"
			every_country = {
				limit = {
					not = { has_government = nationalist }
					has_country_flag = TPP_Signatory
				}
				add_opinion_modifier = { target = USA modifier = USA_Rejoin_TPP }
				reverse_add_opinion_modifier = { target = USA modifier = USA_Rejoin_TPP }
				
			}
		}
	}
	focus = {
		id = USA_NEGOTIATE_TISA
		icon = trade
		cost = 10.00
		prerequisite = {
			focus = USA_NEGOTIATE_TTIP
		}
		prerequisite = {
			focus = USA_REJOIN_TPP
		}
		x = 29
		y = 6
		
		completion_reward = {
			log = "[GetDateText]: [Root.GetName]: Focus USA_NEGOTIATE_TISA"
			every_country = {
				limit = {
					not = { has_government = nationalist }
					has_idea = EU_member
				}
				add_opinion_modifier = { target = USA modifier = USA_NEGOTIATE_TISA }
				reverse_add_opinion_modifier = { target = USA modifier = USA_NEGOTIATE_TISA }
				
			}
		}
	}
	
	focus = {
		id = USA_EXPORT_DEMOCRACY
		icon = democracy
		cost = 10.00
		prerequisite = {
			focus = USA_NEGOTIATE_TISA
		}
		
		x = 29
		y = 7
		
		completion_reward = {
			log = "[GetDateText]: [Root.GetName]: Focus USA_EXPORT_DEMOCRACY"
			add_ideas = usa_export_democracy
		}

	}
	focus = {
		id = USA_SHADOW_WAR
		icon = war
		cost = 10.00
		
		available = {
			has_completed_focus = USA_air_dominance
		}
		
		prerequisite = {
			focus = USA_EXPORT_DEMOCRACY
		}
		
		x = 29
		y = 8
		
		completion_reward = {
			log = "[GetDateText]: [Root.GetName]: Focus USA_SHADOW_WAR"
			add_ideas = usa_shadow_war
		}

	}
	focus = {
		id = USA_AFRICA_FOCUS
		icon = africa
		cost = 10.00
		available = {
			or = {
				has_completed_focus = USA_2017_budget_congress
				has_country_flag = USA_Trump_AFRICA_trip
				#has_completed_focus = USA_Stronger_Together
			}
		}
		x = 16
		y = 9
		
		completion_reward = {
			log = "[GetDateText]: [Root.GetName]: Focus USA_AFRICA_FOCUS"
			add_political_power = 150
		}

	}
	focus = {
		id = USA_AFRICA_PROMOTE_DEM
		icon = democracy3
		cost = 10.00
		prerequisite = {
			focus = USA_AFRICA_FOCUS
		}
		x = 17
		y = 10
		
		completion_reward = {
			log = "[GetDateText]: [Root.GetName]: Focus USA_AFRICA_PROMOTE_DEM"
			every_country = {
				limit = {
					has_elections = yes
					is_african_nation = yes
				}
				add_political_power = 50
				add_opinion_modifier = { target = USA modifier = supports_us_2 }
			}
		}

	}
	focus = {
		id = USA_AGOA_2
		icon = treaty3
		cost = 10.00
		prerequisite = {
			focus = USA_AFRICA_PROMOTE_DEM
		}
		x = 17
		y = 11
		
		completion_reward = {
			log = "[GetDateText]: [Root.GetName]: Focus USA_AGOA_2"
			every_country = {
				limit = {
					is_african_nation = yes
				}
				add_political_power = 50
				add_opinion_modifier = { target = USA modifier = improve_trade }
				reverse_add_opinion_modifier = { target = USA modifier = improve_trade }
				
			}
		}

	}
	focus = {
		id = USA_NEW_MIDDLE_EAST
		icon = democracy2
		cost = 10.00
		x = 8
		y = 9
		
		available = {
			or = {
				has_completed_focus = USA_2017_budget_congress
				has_country_flag = USA_Trump_ME_trip
				#has_completed_focus = USA_Stronger_Together
			}
		}
		select_effect = {
			country_event = { id = USA_FOCUS.9 days = 30 }
		}
		completion_reward = {
			log = "[GetDateText]: [Root.GetName]: Focus USA_NEW_MIDDLE_EAST"
			country_event = { id = USA_FOCUS.11 }
			#https://en.wikipedia.org/wiki/2017_Shayrat_missile_strike
			#Ok'ing Saudi Purge
			#Maybe Deploy troops to Iraq Kurdistan (maybe leave for Iraqi Kurdistan Focus or us decission)
		}
		ai_will_do = {
			factor = 1
			modifier = {
				factor = 100
				has_completed_focus = USA_TRUMP_CABINET
			}
		}

	}
	focus = {
		id = USA_ME_DISENGAGE
		icon = ultimatum
		cost = 10.00
		prerequisite = {
			focus = USA_NEW_MIDDLE_EAST
		}
		mutually_exclusive = {
			focus = USA_ME_ENGAGE
		}
		
		x = 5
		y = 10
		
		completion_reward = {
			log = "[GetDateText]: [Root.GetName]: Focus USA_ME_DISENGAGE"
			add_stability = 0.03
			add_political_power = 50
			every_country = {
				limit = {
					or = {
						tag = ISR
						has_idea = idea_gcc_member_state
						tag = EGY
					}
				}
				add_opinion_modifier = { target = USA modifier = USA_DISENGAGE_ME }
			}
		}

	}
	focus = {
		id = USA_ME_ENGAGE
		icon = ultimatum2
		cost = 10.00
		prerequisite = {
			focus = USA_NEW_MIDDLE_EAST
		}
		mutually_exclusive = {
			focus = USA_ME_DISENGAGE
		}
		
		x = 11
		y = 10
		
		completion_reward = {
			log = "[GetDateText]: [Root.GetName]: Focus USA_ME_ENGAGE"
			add_stability = -0.03
			army_experience = 10
			navy_experience = 10
			air_experience = 10
			every_country = {
				limit = {
					or = {
						tag = ISR
						has_idea = idea_gcc_member_state
						tag = EGY
					}
				}
				add_opinion_modifier = { target = USA modifier = USA_EXPAND_ME }
			}
		}

	}
	focus = {
		id = USA_EXPAND_ME_KUW
		icon = naval_dockyard
		cost = 10.00
		prerequisite = {
			focus = USA_ME_ENGAGE
		}
		
		available = {
			has_military_access_to = KUW
			has_guaranteed = KUW
		}
		
		x = 11
		y = 11
		
		completion_reward = {
			log = "[GetDateText]: [Root.GetName]: Focus USA_EXPAND_ME_KUW"
			488 = {
				add_building_construction = {
					type = air_base
					level = 3
					instant_build = yes
				}
				add_building_construction = {
					type = infrastructure
					level = 2
					instant_build = yes
				}
			}
			
		}

	}
	focus = {
		id = USA_EXPAND_ME_BHR
		icon = naval_dockyard
		cost = 10.00
		prerequisite = {
			focus = USA_ME_ENGAGE
		}
		
		available = {
			has_military_access_to = BHR
			has_guaranteed = BHR
		}
		
		x = 13
		y = 11
		
		completion_reward = {
			log = "[GetDateText]: [Root.GetName]: Focus USA_EXPAND_ME_BHR"
			624 = {
				add_building_construction = {
					type = air_base
					level = 1
					instant_build = yes
				}
				add_building_construction = {
					type = infrastructure
					level = 2
					instant_build = yes
				}
				add_building_construction = {
					type = naval_base
					level = 3
					instant_build = yes
				}
			}
		}

	}
	focus = {
		id = USA_EXPAND_ME_OMA
		icon = improve_relations_orange
		cost = 10.00
		prerequisite = {
			focus = USA_ME_ENGAGE
		}
		
		available = {
			has_military_access_to = OMA
			has_guaranteed = OMA
		}
		
		x = 12
		y = 12
		
		completion_reward = {
			log = "[GetDateText]: [Root.GetName]: Focus USA_EXPAND_ME_OMA"
			486 = {
				add_building_construction = {
					type = air_base
					level = 2
					instant_build = yes
				}
				add_building_construction = {
					type = infrastructure
					level = 1
					instant_build = yes
				}
				add_building_construction = {
					type = naval_base
					level = 2
					instant_build = yes
				}
			}
			
		}

	}
	focus = {
		id = USA_Purchase_ME_Bases
		icon = industry_military
		cost = 10.00
		prerequisite = {
			focus = USA_EXPAND_ME_OMA
		}
		
		available = {
			has_completed_focus = USA_EXPAND_ME_KUW
			has_completed_focus = USA_EXPAND_ME_OMA
			threat > 0.4
			USA = { has_opinion = { target = KUW value > 74 } }
			USA = { has_opinion = { target = OMA value > 74 } }
			USA = { has_opinion = { target = BAH value > 74 } }
		}
		
		x = 12
		y = 13
		
		completion_reward = {
			log = "[GetDateText]: [Root.GetName]: Focus USA_Purchase_ME_Bases"
			country_event = { id = USA_Purchase_Bases_ME.0 }
			add_political_power = -50
		}

	}
	
	focus = {
		id = USA_Palestine_Question
		icon = diplomacy
		cost = 10.00
		prerequisite = {
			focus = USA_ME_ENGAGE
			focus = USA_ME_DISENGAGE
		}
		x = 8
		y = 12
		completion_reward = {
			log = "[GetDateText]: [Root.GetName]: Focus USA_Palestine_Question"
			country_event = { id = USA_FOCUS.6 }
		}
	}
	focus = {
		id = USA_Israel_Major_Strategic_Partner
		icon = align_to_israel
		cost = 10.00
		prerequisite = {
			focus = USA_Palestine_Question
		}
		x = 8
		y = 13
		completion_reward = {
			log = "[GetDateText]: [Root.GetName]: Focus USA_Israel_Major_Strategic_Partner"
			#Add ISR to new tech group and maybe +daily exp
			ISR = {
				army_experience = 25
				navy_experience = 25
				air_experience = 25
				add_offsite_building = { type = arms_factory level = 1 }
			}
			custom_effect_tooltip = USA_ISR_Def_comp #ISR gains access to US Def companies
			hidden_effect = {
				ISR = {
					set_country_flag = usa_def_companies

				}
			}
		}

	}
	
	focus = {
		id = USA_Expand_OEF
		icon = military_deal
		cost = 10.00
		
		prerequisite = {
			focus = USA_ME_ENGAGE
			focus = USA_AFRICA_FOCUS
		}
		
		available = {
			not = { has_completed_focus = USA_SCALE_DOWN_OEF }
		}
		
		x = 15
		y = 11
		
		completion_reward = {
			log = "[GetDateText]: [Root.GetName]: Focus USA_Expand_OEF"
			country_event = { id = USA_Expand_OEF.0 }
			#custom_effect_tooltip = econvent.debt_2_5p_tt
			#increase_debtcount_by_3 = yes
		}

	}
	
	focus = {
		id = USA_Fund_CENTCOM
		icon = dangerous_deal
		cost = 10.00
		prerequisite = {
			focus = USA_Expand_OEF
		}
		available = {
			has_completed_focus = USA_NEW_MIDDLE_EAST
		}
		x = 14
		y = 12
		
		completion_reward = {
			log = "[GetDateText]: [Root.GetName]: Focus USA_Fund_CENTCOM"
			army_experience = 25
			navy_experience = 25
			air_experience = 25
			
			#+daily exp for US
			#+daily exp or starting unit exp to country for western influence
			#https://en.wikipedia.org/wiki/Operation_Bright_Star
			#https://en.wikipedia.org/wiki/Eager_Lion
			#http://www.hurriyetdailynews.com/turkey-conducts-efes-2016-military-exercise-with-international-allies-99912
			#https://www.timesofisrael.com/israel-wraps-up-its-largest-ever-air-force-drill/
		}

	}
	
	focus = {
		id = USA_Fund_AFRICOM
		icon = military_mission2
		cost = 10.00
		prerequisite = {
			focus = USA_Expand_OEF
		}
		available = {
			has_completed_focus = USA_AFRICA_FOCUS
		}
		x = 16
		y = 12
		
		completion_reward = {
			log = "[GetDateText]: [Root.GetName]: Focus USA_Fund_AFRICOM"
			army_experience = 25
			navy_experience = 25
			air_experience = 25
			
			#+daily exp for US
			#+daily exp or starting unit exp to country for western influence
		}

	}
	
	focus = {
		id = USA_SUE_SAUDIS
		icon = treaty
		cost = 10.00
		prerequisite = {
			focus = USA_ME_ENGAGE
			focus = USA_ME_DISENGAGE
		}
		mutually_exclusive = {
			focus = USA_IRAN_UN_VIOLATE_2231
		}
		
		available = {
			has_opinion = { target = PER value > 99 }
			PER = { 
				has_opinion = { target = USA value > 99 } 
				has_idea = pro_american
			}
		}
		
		x = 7
		y = 11
		
		completion_reward = {
			log = "[GetDateText]: [Root.GetName]: Focus USA_SUE_SAUDIS"
			SAU = { 
				add_opinion_modifier = { target = USA modifier = USA_END_SPECIAL_RELATIONSHIP } 
				reverse_add_opinion_modifier = { target = USA modifier = USA_END_SPECIAL_RELATIONSHIP }
				#increase_debtcount_by_12 = yes
				#custom_effect_tooltip = econvent.debt_10p_tt
			}
		}

	}
	focus = {
		id = USA_INVEST_IRAN
		icon = oil_production
		cost = 10.00
		prerequisite = {
			focus = USA_SUE_SAUDIS
		}
		
		available = {
			
		}
		
		x = 6
		y = 12
		
		completion_reward = {
			log = "[GetDateText]: [Root.GetName]: Focus USA_INVEST_IRAN"
			random_state = {
				limit = {
					free_building_slots = {
						building = infrastructure
						size > 0
					}
					free_building_slots = { # avoid wastelands
						building = industrial_complex
						size > 0
					}
					is_owned_by = PER
				}
				add_building_construction = {
					type = infrastructure
					level = 1
					instant_build = yes
				}
			}
			random_state = {
				limit = {
					free_building_slots = {
						building = infrastructure
						size > 0
					}
					free_building_slots = { # avoid wastelands
						building = industrial_complex
						size > 0
					}
					is_owned_by = PER
				}
				add_building_construction = {
					type = infrastructure
					level = 1
					instant_build = yes
				}
			}
			random_state = {
				limit = {
					free_building_slots = {
						building = infrastructure
						size > 0
					}
					free_building_slots = { # avoid wastelands
						building = industrial_complex
						size > 0
					}
					is_owned_by = PER
				}
				add_building_construction = {
					type = infrastructure
					level = 1
					instant_build = yes
				}
			}
			PER = {
				#decrease_debtcount_by_3 = yes
				#custom_effect_tooltip = econvent.debt_D_2_5p_tt
			}
			
			
		}

	}
	focus = {
		id = USA_IRAN_UN_VIOLATE_2231
		icon = align_to_iran
		cost = 10.00
		prerequisite = {
			focus = USA_ME_ENGAGE
			focus = USA_ME_DISENGAGE
		}
		mutually_exclusive = {
			focus = USA_SUE_SAUDIS
		}
		
		x = 9
		y = 11
		
		completion_reward = {
			log = "[GetDateText]: [Root.GetName]: Focus USA_IRAN_UN_VIOLATE_2231"
			every_country = {
				limit = {
					or = {
						has_idea = EU_member
						has_idea = idea_gcc_member_state
						tag = ISR
						tag = CAN
						tag = AST
						tag = SWI
					}
					not = { tag = USA }
				}
				country_event = { id = USA_FOCUS.8 }
			}
			
		}
	}
	focus = {
		id = USA_Undo_JCPOA
		icon = deadly_deal
		cost = 10.00
		prerequisite = {
			focus = USA_IRAN_UN_VIOLATE_2231
		}
		x = 10
		y = 12
		select_effect = {
			set_country_flag = {
				flag = USA_JCPOA_Lobbying
				value = 0
			}
			hidden_effect = {
				every_country = {
					limit = { not = { tag = USA } }
					country_event = { id = USA_JCPOA.0 }
				}
			}
			every_country = {
				limit = { 
					or = {
						tag = FRA
						tag = ENG
						tag = GER
						tag = ISR
						tag = SAU
					}
				}
				country_event = { id = USA_JCPOA.1 }
			}
		}
		completion_reward = {
			log = "[GetDateText]: [Root.GetName]: Focus USA_Undo_JCPOA"
			country_event = { id = USA_JCPOA.4 }
		}

	}
	#http://foreignpolicy.com/2013/11/21/u-s-middle-east-strategy-back-to-balancing/
	focus = {
		id = USA_GAURANTE_ME_OIL
		icon = oil_production
		cost = 10.00
		prerequisite = {
			focus = USA_ME_DISENGAGE
		}
		x = 5
		y = 11
		
		completion_reward = {
			log = "[GetDateText]: [Root.GetName]: Focus USA_GAURANTE_ME_OIL"
			give_guarantee = IRQ
			give_guarantee = KUW
			give_guarantee = SAU
			give_guarantee = BHR
			give_guarantee = QAT
			give_guarantee = UAE
			give_guarantee = OMA
		}

	}
	focus = {
		id = USA_STOP_NATION_BUILDING
		icon = propaganda
		cost = 10.00
		prerequisite = {
			focus = USA_ME_DISENGAGE
		}
		x = 3
		y = 11
		
		completion_reward = {
			log = "[GetDateText]: [Root.GetName]: Focus USA_STOP_NATION_BUILDING"
			IRQ = { remove_ideas = USA_usaid }
			AFG = { remove_ideas = USA_usaid }
			add_political_power = 50
			#decrease_debtcount_by_3 = yes
			#custom_effect_tooltip = econvent.debt_D_2_5p_tt
		}

	}
	focus = {
		id = USA_SCALE_DOWN_OEF
		icon = renounce_treaty
		cost = 10.00
		prerequisite = {
			focus = USA_ME_DISENGAGE
		}
		x = 4
		y = 12
		
		available = {
			not = { has_completed_focus = USA_Expand_OEF }
		}
		
		completion_reward = {
			log = "[GetDateText]: [Root.GetName]: Focus USA_SCALE_DOWN_OEF"
			every_country = {
				limit = { 
					has_idea = Enduring_Freedom
				}
				remove_ideas = Enduring_Freedom
			}
			#decrease_debtcount_by_3 = yes
			#custom_effect_tooltip = econvent.debt_D_2_5p_tt
		}
	}
	focus = {
		id = USA_RETURN_BALANCE_POWER
		icon = neutrality
		cost = 10.00
		prerequisite = {
			focus = USA_ME_DISENGAGE
		}
		x = 4
		y = 13
		
		completion_reward = {
			log = "[GetDateText]: [Root.GetName]: Focus USA_RETURN_BALANCE_POWER"
			add_political_power = 150
			relative_change_pos_4 = yes
		}

	}
	
	
		focus = {
		id = USA_THE_WEST
		icon = GFX_goal_unknown
		cost = 10.00
		x = 18
		y = 13
		
		available = {
			or = {
				has_completed_focus = USA_2017_budget_congress
				has_country_flag = USA_Trump_EU_trip
			}
			has_country_flag = MD4_V2
		}

	}
	focus = {
		id = USA_leave_nato
		icon = GFX_USA_disintegration_of_nato
		cost = 10.00
		
		available = {
			has_government = nationalist
		}
		
		prerequisite = {
			focus = USA_THE_WEST
		}
		mutually_exclusive = {
			focus = USA_FOCUS_NATO
		}
		x = 15
		y = 14
		
		completion_reward = {
			log = "[GetDateText]: [Root.GetName]: Focus USA_leave_nato"
			dismantle_faction = yes
		}

	}
	focus = {
		id = USA_REAPROACH_RUSSIA
		icon = GFX_USA_reapproach_russia
		cost = 10.00
		prerequisite = {
			focus = USA_leave_nato
		}
		x = 15
		y = 15
		
		completion_reward = {
			log = "[GetDateText]: [Root.GetName]: Focus USA_REAPROACH_RUSSIA"
			SOV = {
				add_opinion_modifier = { target = USA modifier = USA_REAPROACH_RUSSIA }
				reverse_add_opinion_modifier = { target = USA modifier = USA_REAPROACH_RUSSIA }
			}
		}
		

	}
	focus = {
		id = USA_NAZI_EUROPE
		icon = GFX_USA_goal_nazi_eu
		cost = 10.00
		
		available = {
			is_in_faction_with = SOV
		}
		
		prerequisite = {
			focus = USA_REAPROACH_RUSSIA
		}
		x = 15
		y = 16
		
		completion_reward = {
			log = "[GetDateText]: [Root.GetName]: Focus USA_NAZI_EUROPE"
			every_country = {
				limit = {
					not = { has_government = nationalist }
					has_idea = EU_member
				}
				add_opinion_modifier = { target = USA modifier = embargo }
				reverse_add_opinion_modifier = { target = USA modifier = embargo }
				
			}
		
		}
	}
	focus = {
		id = USA_FOCUS_NATO
		icon = GFX_join_nato
		cost = 10.00
		
		available = { not = { has_completed_focus = USA_PARTNERS_ALLIES } }
		
		prerequisite = {
			focus = USA_THE_WEST
		}
		mutually_exclusive = {
			focus = USA_leave_nato
		}
		x = 18
		y = 14
		
		completion_reward = {
			log = "[GetDateText]: [Root.GetName]: Focus USA_FOCUS_NATO"
			every_country = {
				limit = {
					is_in_faction_with = USA
				}
				add_opinion_modifier = { target = USA modifier = USA_COMMIT_TO_NATO }
				reverse_add_opinion_modifier = { target = USA modifier = USA_COMMIT_TO_NATO }
				
			}
		}

	}
	focus = {
		id = USA_TRANSATLANITC
		icon = GFX_USA_transatlantic
		cost = 10.00
		prerequisite = {
			focus = USA_THE_WEST
		}
		x = 21
		y = 14
		
		completion_reward = {
			log = "[GetDateText]: [Root.GetName]: Focus USA_TRANSATLANITC"
		
			every_country = {
				limit = {
					is_in_faction_with = USA
				}
				add_popularity = { ideology = democratic popularity = 0.1 }
			}
		}

	}
	focus = {
		id = USA_Special_relatioship
		icon = GFX_USA_special_relationship
		cost = 10.00
		
		available = {
			ENG = {
				has_government = democratic
			}
		}
		
		prerequisite = {
			focus = USA_TRANSATLANITC
		}
		x = 22
		y = 16
		
		completion_reward = {
			log = "[GetDateText]: [Root.GetName]: Focus USA_Special_relatioship"
			ENG = {
				add_popularity = { ideology = democratic popularity = 0.15 }
				add_opinion_modifier = { target = USA modifier = USA_ENG_SPECIAL }
				reverse_add_opinion_modifier = { target = USA modifier = USA_ENG_SPECIAL }
			}
		}
		

	}
	focus = {
		id = USA_Reinforce_NATO_EAST
		icon = GFX_USA_reinforce_eastern
		cost = 10.00
		prerequisite = {
			focus = USA_FOCUS_NATO
		}
		x = 17
		y = 15
		
		completion_reward = {
			log = "[GetDateText]: [Root.GetName]: Focus USA_Reinforce_NATO_EAST"

			every_country = {
				limit = {
					is_in_faction_with = USA
					or = {
						tag = POL
						tag = LIT
						tag = LAT
						tag = SLO
						tag = HUN
						tag = ROM
						
					}
				}
				add_opinion_modifier = { target = USA modifier = USA_COMMIT_TO_NATO_EAST }
				reverse_add_opinion_modifier = { target = USA modifier = USA_COMMIT_TO_NATO_EAST }
				
			}
			set_country_flag = Reinforce_NATO_EAST
			country_event = { id = USA_FOCUS.1 days = 1 }
		}

	}
	focus = {
		id = USA_REINFORCE_Bosphorus
		icon = GFX_USA_reinforce_bosphorus
		cost = 10.00
		prerequisite = {
			focus = USA_FOCUS_NATO
		}
		x = 19
		y = 15
		
		completion_reward = {
			log = "[GetDateText]: [Root.GetName]: Focus USA_REINFORCE_Bosphorus"
			every_country = {
				limit = {
					is_in_faction_with = USA
					or = {
						tag = BUL
						tag = GRE
						tag = ALB
						tag = TUR
						
					}
				}
				add_opinion_modifier = { target = USA modifier = USA_COMMIT_TO_NATO_SOUTH }
				reverse_add_opinion_modifier = { target = USA modifier = USA_COMMIT_TO_NATO_SOUTH }
				
			}
			set_country_flag = REINFORCE_Bosphorus
			country_event = { id = USA_FOCUS.3 days = 1 }
		}

	}
	focus = {
		id = A_UNITED_EUROPE
		icon = GFX_USA_united_eu
		cost = 10.00
		prerequisite = {
			focus = USA_TRANSATLANITC
		}
		x = 20
		y = 16
		
		completion_reward = {
			log = "[GetDateText]: [Root.GetName]: Focus A_UNITED_EUROPE"
			every_country = {
				limit = {
					not = { has_government = nationalist }
					has_idea = EU_member
				}
				add_ideas = usa_united_europe
				
			}
		
		}

	}
	focus = {
		id = USA_NATO_7th_enlargement
		icon = GFX_USA_NATO_7th_enlargement
		cost = 10.00
		
		available = {
			BOS = {
				has_government = democratic
			}
			GEO = {
				has_government = democratic
			}
			FYR = {
				has_government = democratic
			}
			MNT = {
				has_government = democratic
			}
			
		}
		
		prerequisite = {
			focus = USA_Reinforce_NATO_EAST
		}
		prerequisite = {
			focus = USA_REINFORCE_Bosphorus
		}
		x = 18
		y = 16
		
		completion_reward = {
			log = "[GetDateText]: [Root.GetName]: Focus USA_NATO_7th_enlargement"
			
			add_to_faction = BOS
			add_to_faction = GEO
			add_to_faction = FYR
			add_to_faction = MNT
			add_threat = 5
		}

	}
	focus = {
		id = USA_SANCTION_RUSSIA
		icon = GFX_goal_unknown
		cost = 10.00
		prerequisite = {
			focus = USA_TRANSATLANITC
		}
		x = 21
		y = 15

	}
	focus = {
		id = USA_PACIFIC_POWER
		icon = GFX_goal_wolf_pack
		cost = 10.00
		x = 27
		y = 9
		
		available = {
			or = {
				has_completed_focus = USA_2017_budget_congress
				has_country_flag = USA_Trump_IP_trip
			}
			has_country_flag = MD4_V3
		}

	}
	focus = {
		id = USA_PIVOT_ASIA_2
		icon = GFX_goal_unknown
		cost = 10.00
		prerequisite = {
			focus = USA_PACIFIC_POWER
		}
		x = 22
		y = 10

	}
	focus = {
		id = USA_SCS_TRUMP
		icon = GFX_goal_unknown
		cost = 10.00
		prerequisite = {
			focus = USA_PIVOT_ASIA_2
		}
		x = 20
		y = 11

	}
	focus = {
		id = USA_RULE_WAVES
		icon = GFX_goal_unknown
		cost = 10.00
		prerequisite = {
			focus = USA_PIVOT_ASIA_2
		}
		x = 22
		y = 11

	}
	focus = {
		id = USA_PROTECT_SCS
		icon = GFX_goal_unknown
		cost = 10.00
		prerequisite = {
			focus = USA_SCS_TRUMP
		}
		prerequisite = {
			focus = USA_RULE_WAVES
		}
		x = 21
		y = 12

	}
	focus = {
		id = USA_RECOGNIZE_TAIWAN
		icon = GFX_goal_unknown
		cost = 10.00
		
		available = { USA = { has_completed_focus = USA_PAX_AMERICANA } }
		
		prerequisite = {
			focus = USA_PIVOT_ASIA_2
		}
		x = 24
		y = 11
		
		completion_reward = {
			log = "[GetDateText]: [Root.GetName]: Focus USA_RECOGNIZE_TAIWAN"
			TAI = {
				add_opinion_modifier = { target = USA modifier = USA_TAIWAN_ALLIANCE }
				reverse_add_opinion_modifier = { target = USA modifier = USA_TAIWAN_ALLIANCE }
				
			}	
			
		}

	}
	focus = {
		id = USA_ALLY_TAIWAN
		icon = GFX_goal_unknown
		cost = 10.00
		prerequisite = {
			focus = USA_RECOGNIZE_TAIWAN
		}
		x = 24
		y = 12

	}
	focus = {
		id = USA_CONFRONT_NK
		icon = GFX_goal_unknown
		cost = 10.00
		
		available = {
			NKO = {
				has_country_flag = ballistic_misisles
			}
		}
		
		prerequisite = {
			focus = USA_PACIFIC_POWER
		}
		x = 27
		y = 10
		

	}
	focus = {
		id = USA_PREASURE_CHINA
		icon = GFX_goal_unknown
		cost = 10.00
		
		available = {
			NKO = {
				has_country_flag = Nuclear_ballistic_misisles
			}
			USA = { not = { has_completed_focus = USA_PAX_AMERICANA } }
		}
		
		prerequisite = {
			focus = USA_CONFRONT_NK
		}
		x = 26
		y = 11
		
		

	}
	focus = {
		id = USA_NK_HAMMER_NAIL
		icon = GFX_goal_unknown
		cost = 10.00
		prerequisite = {
			focus = USA_CONFRONT_NK
		}
		x = 28
		y = 11
		
		available = {
			NKO = {
				has_country_flag = ballistic_misisles
			}
			USA = {
				has_completed_focus = USA_PAX_AMERICANA
			}
		}
		
		completion_reward = {
			log = "[GetDateText]: [Root.GetName]: Focus USA_NK_HAMMER_NAIL"
			add_threat = 10
		}

	}
	focus = {
		id = USA_OPLAN_5027
		icon = GFX_goal_unknown
		cost = 10.00
		prerequisite = {
			focus = USA_PREASURE_CHINA
			focus = USA_NK_HAMMER_NAIL
		}
		x = 27
		y = 12
		
		completion_reward = {
			log = "[GetDateText]: [Root.GetName]: Focus USA_OPLAN_5027"
			create_wargoal = {
				type = liberate_wargoal
				target = NKO
			}
		}

	}
	focus = {
		id = USA_JAP_RELATIONS
		icon = GFX_goal_unknown
		cost = 10.00
		prerequisite = {
			focus = USA_PACIFIC_POWER
		}
		x = 30
		y = 10
		
		available = {
			USA = {
				has_completed_focus = USA_PARTNERS_ALLIES
			}
		}

	}
	focus = {
		id = USA_JAP_PACIFIC
		icon = GFX_goal_unknown
		cost = 10.00
		prerequisite = {
			focus = USA_JAP_RELATIONS
		}
		x = 30
		y = 11

	}
	focus = {
		id = USA_JAP_NATO
		icon = GFX_goal_unknown
		cost = 10.00
		prerequisite = {
			focus = USA_JAP_PACIFIC
		}
		x = 30
		y = 12

	}
	focus = {
		id = USA_COURT_INDIA
		icon = GFX_goal_unknown
		cost = 10.00
		
		available = {
			RAJ = {
				NOT = {
					or = {
						has_government = communism
						has_government = fascism
						has_government = nationalist
						
					}
				}
			}
			USA = {
				has_completed_focus = USA_PARTNERS_ALLIES
			}
		}
		
		prerequisite = {
			focus = USA_PACIFIC_POWER
		}
		x = 32
		y = 10
		
		completion_reward = {
			log = "[GetDateText]: [Root.GetName]: Focus USA_COURT_INDIA"
			RAJ = {
				add_ideas = usa_raj_court
			}
		}

	}
	focus = {
		id = USA_CONFRONT_CHINA
		icon = GFX_goal_unknown
		cost = 10.00
		prerequisite = {
			focus = USA_ALLY_TAIWAN
		}
		x = 24
		y = 13
		
		completion_reward = {
			log = "[GetDateText]: [Root.GetName]: Focus USA_CONFRONT_CHINA"
			create_wargoal = {
				type = liberate_wargoal
				target = CHI
			}
		}

	}
	focus = {
		id = USA_INDIA_ALLIANCE
		icon = GFX_goal_unknown
		cost = 10.00
		
		available = {
			RAJ = {
				has_government = democratic
			}
		}
		
		prerequisite = {
			focus = USA_INVEST_INDIA
		}
		x = 32
		y = 12
		
		completion_reward = {
			log = "[GetDateText]: [Root.GetName]: Focus USA_INDIA_ALLIANCE"
			RAJ = {
				add_opinion_modifier = { target = USA modifier = USA_INDIA_ALLIANCE }
				reverse_add_opinion_modifier = { target = USA modifier = USA_INDIA_ALLIANCE }
				
			}	
			
		}

	}
	focus = {
		id = USA_INVEST_INDIA
		icon = GFX_goal_unknown
		cost = 10.00
		prerequisite = {
			focus = USA_COURT_INDIA
		}
		x = 32
		y = 11
		
		completion_reward = {
			log = "[GetDateText]: [Root.GetName]: Focus USA_INVEST_INDIA"

			USA = {
				country_event = { id = USA_FOCUS.5 days = 1 }
			}
		}

	}
	
}

